ENST00000380432
ENST00000380432
ENST00000380432
ENST00000380432
ENST00000394887
ENST00000394887
ENST00000394887
ENST00000394887
ENST00000538148
ENST00000538148
ENST00000538148
ENST00000538148
ENST00000538148
ENST00000538148
ENST00000538148
ENST00000538148
ENST00000538148
ENST00000538148
ENST00000538148
ENST00000538148
ENST00000538148
ENST00000538148
ENST00000538148
ENST00000538148
ENST00000538148
ENST00000538148
ENST00000538148
ENST00000538148
ENST00000538148
ENST00000538148
ENST00000538148
ENST00000538148
ENST00000538148
ENST00000538148
ENST00000538148
ENST00000538148
ENST00000538148
ENST00000538148
ENST00000538148
ENST00000538148
ENST00000538148
ENST00000538148
ENST00000538148
ENST00000538148
ENST00000538148
ENST00000538148
ENST00000538148
ENST00000538148
ENST00000538148
ENST00000538148
ENST00000538148
ENST00000538148
ENST00000538148
ENST00000538148
ENST00000538148
ENST00000538148
ENST00000538148
ENST00000538148
ENST00000538148
ENST00000538148
ENST00000538148
ENST00000538148
ENST00000538148
ENST00000538148
ENST00000538148
ENST00000538148
ENST00000538148
ENST00000538148
ENST00000538148
ENST00000538148
ENST00000538148
ENST00000538148
ENST00000538148
ENST00000562438
ENST00000562438
ENST00000562438
ENST00000562438
ENST00000562438
ENST00000562438
ENST00000562438
ENST00000562438
ENST00000562438
ENST00000562438
ENST00000562438
ENST00000331204
ENST00000331204
ENST00000331204
ENST00000331204
ENST00000331204
ENST00000331204
ENST00000331204
ENST00000331204
ENST00000331204
ENST00000331204
ENST00000331204
ENST00000331204
ENST00000331204
ENST00000331204
ENST00000331204
ENST00000331204
ENST00000331204
ENST00000331204
ENST00000331204
ENST00000331204
ENST00000331204
ENST00000331204
ENST00000331204
ENST00000331204
ENST00000331204
ENST00000331204
ENST00000331204
ENST00000331204
ENST00000331204
ENST00000331204
ENST00000331204
ENST00000331204
ENST00000613734
ENST00000613734
ENST00000613734
ENST00000613734
ENST00000613734
ENST00000613734
ENST00000613734
ENST00000613734
ENST00000613734
ENST00000613734
ENST00000613734
ENST00000613734
ENST00000613734
ENST00000613734
ENST00000613734
ENST00000613734
ENST00000613734
ENST00000613734
ENST00000613734
ENST00000613734
ENST00000613734
ENST00000613734
ENST00000613734
ENST00000613734
ENST00000613734
ENST00000613734
ENST00000613734
ENST00000613734
ENST00000613734
ENST00000613734
ENST00000613734
ENST00000613734
ENST00000613734
ENST00000613734
ENST00000613734
ENST00000613734
ENST00000613734
ENST00000613734
ENST00000613734
ENST00000613734
ENST00000613734
ENST00000613734
ENST00000613734
ENST00000613734
ENST00000613734
ENST00000613734
ENST00000613734
ENST00000613734
ENST00000613734
ENST00000613734
ENST00000613734
ENST00000613734
ENST00000613734
ENST00000613734
ENST00000613734
ENST00000613734
ENST00000613734
ENST00000613734
ENST00000613734
ENST00000613734
ENST00000613734
ENST00000613734
ENST00000613734
ENST00000613734
ENST00000613734
ENST00000613734
ENST00000613734
ENST00000613734
ENST00000613734
ENST00000613734
ENST00000613734
ENST00000613734
ENST00000613734
ENST00000613734
ENST00000613734
ENST00000613734
ENST00000613734
ENST00000613734
ENST00000613734
ENST00000613734
ENST00000613734
ENST00000613734
ENST00000613734
ENST00000613734
ENST00000613734
ENST00000613734
ENST00000613734
ENST00000613734
ENST00000613734
ENST00000613734
ENST00000613734
ENST00000613734
ENST00000613734
ENST00000613734
ENST00000613734
ENST00000613734
ENST00000613734
ENST00000613734
ENST00000613734
ENST00000613734
ENST00000613734
ENST00000613734
ENST00000613734
ENST00000613734
ENST00000613734
ENST00000613734
ENST00000613734
ENST00000613734
ENST00000613734
ENST00000613734
ENST00000613734
ENST00000613734
ENST00000613734
ENST00000613734
ENST00000613734
ENST00000613734
ENST00000613734
ENST00000613734
ENST00000613734
ENST00000613734
ENST00000613734
ENST00000613734
ENST00000613734
ENST00000613734
ENST00000613734
ENST00000613734
ENST00000613734
ENST00000613734
ENST00000613734
ENST00000613734
ENST00000613734
ENST00000613734
ENST00000613734
ENST00000613734
ENST00000613734
ENST00000613734
ENST00000613734
ENST00000613734
ENST00000613734
ENST00000613734
ENST00000613734
ENST00000613734
ENST00000613734
ENST00000613734
ENST00000613734
ENST00000613734
ENST00000613734
ENST00000613734
ENST00000613734
ENST00000613734
ENST00000613734
ENST00000613734
ENST00000613734
ENST00000613734
ENST00000613734
ENST00000613734
ENST00000613734
ENST00000613734
ENST00000613734
ENST00000613734
ENST00000613734
ENST00000613734
ENST00000613734
ENST00000613734
ENST00000613734
ENST00000613734
ENST00000613734
ENST00000613734
ENST00000613734
ENST00000613734
ENST00000613734
ENST00000613734
ENST00000613734
ENST00000613734
ENST00000613734
ENST00000613734
ENST00000613734
ENST00000613734
ENST00000316878
ENST00000316878
ENST00000316878
ENST00000316878
ENST00000316878
ENST00000316878
ENST00000316878
ENST00000316878
ENST00000316878
ENST00000316878
ENST00000316878
ENST00000316878
ENST00000316878
ENST00000316878
ENST00000316878
ENST00000316878
ENST00000316878
ENST00000316878
ENST00000617946
ENST00000617946
ENST00000617946
ENST00000627526
ENST00000627526
ENST00000627526
ENST00000627526
ENST00000627526
ENST00000627526
ENST00000627526
ENST00000627526
ENST00000627526
ENST00000627526
ENST00000627526
ENST00000627526
ENST00000627526
ENST00000627526
ENST00000627526
ENST00000627526
