Leading Razor Protein	N	tissue
P36578	12	heart_evidence
P51608-2	14	heart_evidence
Q8WVM8	17	heart_evidence
O00410	34	heart_evidence
B4DHR0	1	heart_evidence
Q8N3L3	21	heart_evidence
P07954-2	78	heart_evidence
P54296	612	heart_evidence
O94826	37	heart_evidence
Q8N4T8	9	heart_evidence
P23381-2	25	heart_evidence
P35221	128	heart_evidence
Q9UL25	14	heart_evidence
Q9GZT9-2	1	heart_evidence
P62070	8	heart_evidence
P13807	76	heart_evidence
P51970	44	heart_evidence
Q8WZ42	15920	heart_evidence
Q53GG5-2	30	heart_evidence
P08107	141	heart_evidence
Q16853	14	heart_evidence
P31948	33	heart_evidence
Q13423	473	heart_evidence
P62877	3	heart_evidence
Q9BYV7-6	11	heart_evidence
C9JRZ6	49	heart_evidence
E9PDE4	11	heart_evidence
Q8N335	53	heart_evidence
P53618	10	heart_evidence
D6RGI3	10	heart_evidence
Q5VWZ2	17	heart_evidence
P08559	108	heart_evidence
Q99733	19	heart_evidence
P14555	10	heart_evidence
P02730	33	heart_evidence
Q9UDW1	24	heart_evidence
Q9NS69	9	heart_evidence
P18206-2	401	heart_evidence
E7EPT4	38	heart_evidence
O43837-2	45	heart_evidence
O95336	5	heart_evidence
CON__P02768-1	1282	heart_evidence
Q01813	60	heart_evidence
P06753	42	heart_evidence
Q9UBQ7	29	heart_evidence
P02766	8	heart_evidence
P55060-4	12	heart_evidence
Q6ZN40	345	heart_evidence
P51452	22	heart_evidence
Q9Y277-2	58	heart_evidence
Q7Z3D6-2	66	heart_evidence
O95782-2	19	heart_evidence
M0QZ10	34	heart_evidence
P30038	46	heart_evidence
Q9BZL4-3	23	heart_evidence
Q9Y5U8	17	heart_evidence
Q08211	1	heart_evidence
Q9UQ90	30	heart_evidence
Q9UKS6	41	heart_evidence
Q01995	28	heart_evidence
Q15149-7	846	heart_evidence
P29966	6	heart_evidence
H3BQZ7	7	heart_evidence
P07108	28	heart_evidence
O95425-2	9	heart_evidence
E9PCV6	717	heart_evidence
O76041	547	heart_evidence
Q9UHV9	6	heart_evidence
P35232	49	heart_evidence
P33176	42	heart_evidence
Q9H6R3	24	heart_evidence
Q9P032	12	heart_evidence
Q5HYK3	22	heart_evidence
P55809	68	heart_evidence
P62258	99	heart_evidence
P63316	90	heart_evidence
P35908	643	heart_evidence
P31040	217	heart_evidence
P04406	256	heart_evidence
Q92667-2	2	heart_evidence
P05091	71	heart_evidence
Q9NSD9	16	heart_evidence
P52758	5	heart_evidence
Q3LXA3	5	heart_evidence
E9PE85	1	heart_evidence
Q15124	74	heart_evidence
Q8N1G4	26	heart_evidence
Q9Y490	92	heart_evidence
P28838-2	30	heart_evidence
Q9BQ69	18	heart_evidence
P27694	4	heart_evidence
E5KLK1	75	heart_evidence
P98160	947	heart_evidence
H0YA52	12	heart_evidence
Q53H12	18	heart_evidence
Q9UQ80	16	heart_evidence
P78371-2	29	heart_evidence
P04049	6	heart_evidence
P52179-2	704	heart_evidence
Q92804-2	6	heart_evidence
Q8NI60	34	heart_evidence
O14744-2	16	heart_evidence
F5H7E1	17	heart_evidence
Q6PCB7	10	heart_evidence
Q9HA77	8	heart_evidence
Q16555-2	66	heart_evidence
O00151	73	heart_evidence
P54920	18	heart_evidence
Q92736	301	heart_evidence
P09417	16	heart_evidence
Q8NFW8-2	2	heart_evidence
Q92523	159	heart_evidence
O15061-2	111	heart_evidence
E9PQK4	1	heart_evidence
O14967	23	heart_evidence
Q9BRX8-2	8	heart_evidence
Q96HJ9	13	heart_evidence
Q13813-2	651	heart_evidence
Q99959-2	375	heart_evidence
Q3ZAQ7	2	heart_evidence
B4DJV2	101	heart_evidence
P50583	3	heart_evidence
P62851	3	heart_evidence
O95831	132	heart_evidence
Q16082	13	heart_evidence
P61201	14	heart_evidence
P55084	136	heart_evidence
Q9BS40	3	heart_evidence
P02792	20	heart_evidence
Q16891-2	188	heart_evidence
P35222	155	heart_evidence
P14923	266	heart_evidence
Q8NDY3	68	heart_evidence
Q96MM6	13	heart_evidence
P42765	80	heart_evidence
Q8IWW8	12	heart_evidence
P08574	85	heart_evidence
Q8IWX7-3	42	heart_evidence
Q5VTT5	241	heart_evidence
O75489	55	heart_evidence
P08590	309	heart_evidence
P31146	5	heart_evidence
P35609	1181	heart_evidence
P12814-2	90	heart_evidence
H3BPX2	445	heart_evidence
P11216	205	heart_evidence
E7EVH9	4	heart_evidence
O95817	56	heart_evidence
P0CG05	10	heart_evidence
D6RB78	374	heart_evidence
P37837	15	heart_evidence
P04075	168	heart_evidence
B5MDF5	19	heart_evidence
Q16134	62	heart_evidence
P19367	119	heart_evidence
P55268	253	heart_evidence
P09622	116	heart_evidence
G3XAI2	103	heart_evidence
Q8WZ82	2	heart_evidence
I3L0H8	9	heart_evidence
Q12988	10	heart_evidence
O75112-7	698	heart_evidence
J3KR97	3	heart_evidence
O75367-2	20	heart_evidence
P14550	15	heart_evidence
E9PGF5	101	heart_evidence
O60262	7	heart_evidence
P10643	9	heart_evidence
E9PIC0	7	heart_evidence
G5EA52	42	heart_evidence
Q8N3V7-3	50	heart_evidence
F8W9U3	6	heart_evidence
Q14126	45	heart_evidence
Q02978	88	heart_evidence
P01042-3	22	heart_evidence
Q9HCC0	41	heart_evidence
P31323	4	heart_evidence
Q9BUB1	20	heart_evidence
O75128-5	3	heart_evidence
Q86TX2	3	heart_evidence
Q14204	273	heart_evidence
Q9H987	130	heart_evidence
P02649	14	heart_evidence
P11766	29	heart_evidence
P13804	46	heart_evidence
Q29974	6	heart_evidence
A6NMH6	3	heart_evidence
P36957	56	heart_evidence
P10809	91	heart_evidence
Q14974	28	heart_evidence
P02549-2	7	heart_evidence
Q8WUM4	25	heart_evidence
Q5T8I0	11	heart_evidence
Q9Y2P4	13	heart_evidence
B7Z3I9	13	heart_evidence
J3KNV4	44	heart_evidence
P00325	40	heart_evidence
J3KN82	3	heart_evidence
P13637	203	heart_evidence
Q9Y5X3	6	heart_evidence
P13929	85	heart_evidence
P00558	104	heart_evidence
Q9Y4G6	178	heart_evidence
P00390-2	27	heart_evidence
Q15125	5	heart_evidence
P01024	209	heart_evidence
P51659	39	heart_evidence
Q5T4U5	51	heart_evidence
Q9H6K4	11	heart_evidence
O75955	25	heart_evidence
P02545	226	heart_evidence
P51649	28	heart_evidence
P05141	12	heart_evidence
P12235	418	heart_evidence
G3V0I5	70	heart_evidence
P04083	20	heart_evidence
P08237	182	heart_evidence
P22695	159	heart_evidence
P54136-2	20	heart_evidence
P62873	20	heart_evidence
Q96QK1	30	heart_evidence
P48449-3	12	heart_evidence
P35555	458	heart_evidence
O75339	9	heart_evidence
Q14847	10	heart_evidence
P62879	8	heart_evidence
Q99536	4	heart_evidence
P09382	64	heart_evidence
P15924	991	heart_evidence
P60981	52	heart_evidence
O43707	66	heart_evidence
H0YD65	1	heart_evidence
R4GN98	24	heart_evidence
P52272-2	38	heart_evidence
P61247	19	heart_evidence
P63104	67	heart_evidence
Q6PI48	24	heart_evidence
B1AKY9	70	heart_evidence
P42025	2	heart_evidence
R4GMT0	9	heart_evidence
Q9Y6C9	22	heart_evidence
F8W8S0	14	heart_evidence
Q15836	7	heart_evidence
P03915	47	heart_evidence
P49411	121	heart_evidence
Q7KZF4	11	heart_evidence
P39060-2	23	heart_evidence
O95202	32	heart_evidence
Q9Y3C8	3	heart_evidence
P61970	9	heart_evidence
Q13526	11	heart_evidence
O14737	10	heart_evidence
Q06830	59	heart_evidence
P49773	32	heart_evidence
P35579	79	heart_evidence
P39059	38	heart_evidence
F5GXX5	5	heart_evidence
Q8TBC4	4	heart_evidence
P01008	30	heart_evidence
K7ES70	4	heart_evidence
P00915	74	heart_evidence
Q9UJY1	11	heart_evidence
P19429	176	heart_evidence
Q13554	40	heart_evidence
O00748	15	heart_evidence
P08238	167	heart_evidence
G8JLA8	33	heart_evidence
C9J9K3	14	heart_evidence
P12883	6601	heart_evidence
P62269	15	heart_evidence
Q09666	539	heart_evidence
Q53H82	10	heart_evidence
Q9NUJ1	18	heart_evidence
P06576	432	heart_evidence
Q99797	18	heart_evidence
P61106	21	heart_evidence
P47755	21	heart_evidence
CON__P13645	911	heart_evidence
P10301	23	heart_evidence
C9JFR7	62	heart_evidence
Q86TD4-2	92	heart_evidence
Q8IXI1	6	heart_evidence
G3V5I3	45	heart_evidence
E7EVA0	104	heart_evidence
P31930	156	heart_evidence
Q9NSE4	49	heart_evidence
Q9NZN4	64	heart_evidence
P40939	314	heart_evidence
P36871	65	heart_evidence
K7EPL2	2	heart_evidence
Q13326	10	heart_evidence
P46199	9	heart_evidence
Q9H4M9	23	heart_evidence
P41219	6	heart_evidence
H0Y7A7	16	heart_evidence
O43772	28	heart_evidence
Q9H223	44	heart_evidence
P62263	14	heart_evidence
P02787	164	heart_evidence
E7EPZ9	63	heart_evidence
P01019	13	heart_evidence
P43686	13	heart_evidence
P49753	62	heart_evidence
CON__P48668	26	heart_evidence
E7ES33	16	heart_evidence
Q702N8	229	heart_evidence
P84090	4	heart_evidence
P17661	817	heart_evidence
Q86VP6-2	16	heart_evidence
P04040	33	heart_evidence
P51636	15	heart_evidence
Q13263-2	8	heart_evidence
P10916	225	heart_evidence
Q9BR39	27	heart_evidence
P09493-6	3	heart_evidence
CON__ENSEMBL:ENSBTAP00000038253	2	heart_evidence
P04264	1144	heart_evidence
P46783	3	heart_evidence
E9PL22	1	heart_evidence
Q9NVT9	3	heart_evidence
B7ZKJ8	35	heart_evidence
Q02790	11	heart_evidence
P07360	4	heart_evidence
Q96PG2	1	heart_evidence
P14543	96	heart_evidence
P48163	4	heart_evidence
P45379-4	4	heart_evidence
E5RIW3	9	heart_evidence
J9JID7	57	heart_evidence
P07355	80	heart_evidence
P15880	13	heart_evidence
P14854	31	heart_evidence
Q9Y6G9	14	heart_evidence
Q9Y639-3	3	heart_evidence
P01764	6	heart_evidence
P01766	8	heart_evidence
Q9HBH5	4	heart_evidence
P24043	455	heart_evidence
F8W9V2	327	heart_evidence
P27824	66	heart_evidence
P11234	4	heart_evidence
P36543	5	heart_evidence
P55822	11	heart_evidence
P25398	17	heart_evidence
P62913	7	heart_evidence
Q8IXI2-7	12	heart_evidence
O00429-2	35	heart_evidence
P21980	205	heart_evidence
Q9BWH2	14	heart_evidence
P35542	11	heart_evidence
P11532-4	719	heart_evidence
P52565	24	heart_evidence
D6RA00	1	heart_evidence
Q8WZ42-6	101	heart_evidence
Q8NBV4	1	heart_evidence
P0C0L5	94	heart_evidence
CON__P02769	110	heart_evidence
P16219	30	heart_evidence
P67936	16	heart_evidence
Q00839	26	heart_evidence
Q9BX68	6	heart_evidence
Q14315	1260	heart_evidence
Q9NVI7-2	26	heart_evidence
P14618-2	220	heart_evidence
Q9NZB2-2	1	heart_evidence
H0YDU8	15	heart_evidence
P26639	15	heart_evidence
J3KQE0	11	heart_evidence
B4DDF9	9	heart_evidence
P16615-2	567	heart_evidence
Q0ZGT2-2	38	heart_evidence
Q9UI47	121	heart_evidence
P21333-2	120	heart_evidence
E7EX90	16	heart_evidence
Q14697	50	heart_evidence
Q13200	32	heart_evidence
P23246	23	heart_evidence
Q01082	408	heart_evidence
Q9Y5J9	3	heart_evidence
Q9HB71	11	heart_evidence
P23396	23	heart_evidence
Q9NPC6	215	heart_evidence
P02647	65	heart_evidence
Q9UN36-2	10	heart_evidence
S4R313	33	heart_evidence
REV__J3QTQ0	6	heart_evidence
O00231	14	heart_evidence
P09493-4	1	heart_evidence
P33121	160	heart_evidence
Q02252	62	heart_evidence
Q9Y5Z4	10	heart_evidence
F8WCF6	10	heart_evidence
Q9UHD9	8	heart_evidence
Q15404	19	heart_evidence
O00505	2	heart_evidence
P42704	65	heart_evidence
P51572	18	heart_evidence
Q16585	12	heart_evidence
P22314	51	heart_evidence
P61088	22	heart_evidence
P61158	11	heart_evidence
P02748	31	heart_evidence
E9PCR7	377	heart_evidence
Q96DB5	15	heart_evidence
P11233	6	heart_evidence
O95674	16	heart_evidence
P34932	36	heart_evidence
Q9NR28-2	9	heart_evidence
F8W8D8	23	heart_evidence
P46063	13	heart_evidence
Q16363-2	2	heart_evidence
C9JFE4	10	heart_evidence
B2RCS5	1	heart_evidence
F5H365	18	heart_evidence
O60493	8	heart_evidence
P07951	56	heart_evidence
Q9Y2K3	7	heart_evidence
CON__Q3SX28	9	heart_evidence
B4DFR2	6	heart_evidence
M0QZ43	122	heart_evidence
P40429	6	heart_evidence
Q5VT94	17	heart_evidence
Q5JZA9	1	heart_evidence
Q00059	17	heart_evidence
Q15121	5	heart_evidence
P30084	78	heart_evidence
D6RE05	80	heart_evidence
P35241	19	heart_evidence
Q86WU2-2	20	heart_evidence
Q14166	3	heart_evidence
E7EU05	40	heart_evidence
O95373	13	heart_evidence
Q6NVY1	25	heart_evidence
P11047	291	heart_evidence
Q9Y3D9	6	heart_evidence
O96000	51	heart_evidence
Q96G03	9	heart_evidence
O14958	72	heart_evidence
P55072	81	heart_evidence
Q96Q06-2	165	heart_evidence
O75828	2	heart_evidence
E7EX59	33	heart_evidence
P49189	35	heart_evidence
E9PLK3	28	heart_evidence
Q9H4A4	15	heart_evidence
P61457	10	heart_evidence
F5GYN4	10	heart_evidence
Q9H479	15	heart_evidence
B1AH49	5	heart_evidence
B4E241	7	heart_evidence
E7ESB3	3	heart_evidence
P17987	24	heart_evidence
Q9H3P7	7	heart_evidence
P23229-4	9	heart_evidence
F5H4R9	14	heart_evidence
Q9NRG7-2	9	heart_evidence
Q9Y6M9	44	heart_evidence
P09211	43	heart_evidence
Q9H7Z7	17	heart_evidence
P40123	23	heart_evidence
K7EKE6	60	heart_evidence
Q00610-2	79	heart_evidence
P26440	12	heart_evidence
P08571	2	heart_evidence
P35270	14	heart_evidence
H3BS73	1	heart_evidence
P01023	93	heart_evidence
E9PH29	63	heart_evidence
P13010	27	heart_evidence
P10768	23	heart_evidence
Q8N6M3	14	heart_evidence
C9JAB2	3	heart_evidence
P31939	22	heart_evidence
Q07021	24	heart_evidence
P48147	34	heart_evidence
P68363	135	heart_evidence
Q9UL46	11	heart_evidence
Q5T440	7	heart_evidence
P50895	33	heart_evidence
Q01518	27	heart_evidence
O95865	7	heart_evidence
P40926	144	heart_evidence
Q13424	34	heart_evidence
O15230	88	heart_evidence
P06396-2	153	heart_evidence
B3KUE5	2	heart_evidence
Q86VF7-4	65	heart_evidence
O43396	16	heart_evidence
Q16836	63	heart_evidence
O14841	10	heart_evidence
P21912	80	heart_evidence
S4R3Z6	29	heart_evidence
Q08257	23	heart_evidence
Q15233	17	heart_evidence
P25311	6	heart_evidence
Q5XKP0	10	heart_evidence
P68032	881	heart_evidence
O00159	60	heart_evidence
Q9NVH1	22	heart_evidence
B5MCD7	2	heart_evidence
P41091	9	heart_evidence
Q8NI37	4	heart_evidence
Q6IQ22	7	heart_evidence
P20700	8	heart_evidence
A0PJW6	4	heart_evidence
Q92522	6	heart_evidence
P20618	14	heart_evidence
K7ELD9	3	heart_evidence
P33316	5	heart_evidence
Q8NBX0	11	heart_evidence
P06732	358	heart_evidence
Q96EY7	18	heart_evidence
Q9NZA1-2	12	heart_evidence
P09669	73	heart_evidence
P13639	77	heart_evidence
P24752	101	heart_evidence
P06753-5	7	heart_evidence
Q8N5G0-2	4	heart_evidence
P14927	35	heart_evidence
P08294	14	heart_evidence
Q14112	138	heart_evidence
Q5QPM7	4	heart_evidence
O94760	2	heart_evidence
P49748-2	203	heart_evidence
P23786	44	heart_evidence
Q96PD5	4	heart_evidence
P05198	6	heart_evidence
H0Y8C4	3	heart_evidence
Q16777	47	heart_evidence
E7EPD0	4	heart_evidence
Q5JR08	3	heart_evidence
E9PNW4	21	heart_evidence
Q8NB12	91	heart_evidence
O75947	40	heart_evidence
Q9Y2Q3	36	heart_evidence
P35268	4	heart_evidence
K7ERE1	10	heart_evidence
Q9BX66-11	229	heart_evidence
Q96IX5	25	heart_evidence
O75369-2	18	heart_evidence
O60506-2	15	heart_evidence
F5H7U0	13	heart_evidence
P23141-3	6	heart_evidence
P22033	23	heart_evidence
O75746	95	heart_evidence
Q99798	395	heart_evidence
A6PVS0	3	heart_evidence
Q9Y696	36	heart_evidence
F5H1L4	23	heart_evidence
B7Z6B8	84	heart_evidence
B9A064	50	heart_evidence
P17540	316	heart_evidence
Q92506	7	heart_evidence
Q9Y224	10	heart_evidence
P08123	47	heart_evidence
O75340-2	4	heart_evidence
P62424	11	heart_evidence
Q96DG6	17	heart_evidence
P10253	14	heart_evidence
E7ENM0	7	heart_evidence
P48681	39	heart_evidence
Q6NZI2	86	heart_evidence
O75083	57	heart_evidence
Q8WV93	4	heart_evidence
P07585	72	heart_evidence
P13073	94	heart_evidence
Q9BSH5	2	heart_evidence
P02462-2	82	heart_evidence
P62266	7	heart_evidence
B4DVE7	47	heart_evidence
Q8N142	17	heart_evidence
A8MXZ9	1144	heart_evidence
P08572	126	heart_evidence
Q4G0I0	3	heart_evidence
Q96CS3	1	heart_evidence
Q03519	1	heart_evidence
P67775	18	heart_evidence
Q5VV89	69	heart_evidence
D6RG15	6	heart_evidence
P62140	19	heart_evidence
Q02543	10	heart_evidence
Q16851	36	heart_evidence
P03905	36	heart_evidence
Q5T985	7	heart_evidence
P02675	87	heart_evidence
P50990	36	heart_evidence
Q9NXA8	18	heart_evidence
Q9NRG4	5	heart_evidence
P40925	105	heart_evidence
B4DDY8	13	heart_evidence
B4DR63	14	heart_evidence
P07357	4	heart_evidence
Q9P2R3	4	heart_evidence
P50502	16	heart_evidence
Q96PK6	6	heart_evidence
P46926	12	heart_evidence
D6RFF0	1	heart_evidence
O43765	3	heart_evidence
O15294	3	heart_evidence
E7ESC6	4	heart_evidence
M0QZK8	2	heart_evidence
A8MXY0	3	heart_evidence
Q96HS1-2	4	heart_evidence
F5GY37	35	heart_evidence
P07339	150	heart_evidence
B5MCT7	3	heart_evidence
P15121	32	heart_evidence
Q8TB37	11	heart_evidence
A8MW49	1	heart_evidence
Q13825	17	heart_evidence
Q5T8C6	1	heart_evidence
P28066	13	heart_evidence
Q9Y697-2	7	heart_evidence
P32189-1	6	heart_evidence
Q9UDR5	22	heart_evidence
P28070	12	heart_evidence
F8W651	2	heart_evidence
P09960	22	heart_evidence
K7ENL3	19	heart_evidence
Q5JP53	20	heart_evidence
F8VYN9	3	heart_evidence
P00387-2	65	heart_evidence
REV__P35749-4	3	heart_evidence
Q9BS92	25	heart_evidence
Q15363	6	heart_evidence
P08133	111	heart_evidence
B4DWJ2	9	heart_evidence
Q8NFV4-4	8	heart_evidence
Q07960	18	heart_evidence
Q9Y2A7	7	heart_evidence
Q9H0E2	4	heart_evidence
Q8TCD1	1	heart_evidence
O43242	19	heart_evidence
D6RAX7	6	heart_evidence
P02679-2	110	heart_evidence
O75964	34	heart_evidence
K7EQW8	24	heart_evidence
P30153	55	heart_evidence
Q9HD89	5	heart_evidence
G3V2F7	8	heart_evidence
C9JXB8	10	heart_evidence
Q92947	10	heart_evidence
M0QYT0	7	heart_evidence
Q15366-6	8	heart_evidence
Q15365	30	heart_evidence
Q14195-2	5	heart_evidence
Q02952-3	4	heart_evidence
Q15907	10	heart_evidence
Q13642-5	184	heart_evidence
O14818	22	heart_evidence
Q9BUB7	7	heart_evidence
F8VQ10	12	heart_evidence
O00468-6	17	heart_evidence
H0YAL7	4	heart_evidence
P04179	55	heart_evidence
Q5T6N4	233	heart_evidence
O00232	17	heart_evidence
Q96RP9	9	heart_evidence
Q9UNF0-2	5	heart_evidence
P28074	12	heart_evidence
P38646	162	heart_evidence
P26641	12	heart_evidence
P26373	18	heart_evidence
P15311	48	heart_evidence
P05026-2	26	heart_evidence
Q00765	27	heart_evidence
P11021	78	heart_evidence
P54289-4	8	heart_evidence
P02774	34	heart_evidence
P00367	58	heart_evidence
P16403	35	heart_evidence
P22830	10	heart_evidence
Q9HAV7	8	heart_evidence
Q15382	4	heart_evidence
Q86YB7-2	7	heart_evidence
P07237	46	heart_evidence
Q6XQN6-3	5	heart_evidence
Q9BZQ8	32	heart_evidence
Q9BPX5	4	heart_evidence
Q9NT22	7	heart_evidence
P30405	23	heart_evidence
P24298	14	heart_evidence
REV__Q587J7	1	heart_evidence
O60831	4	heart_evidence
P49368	27	heart_evidence
P35998	18	heart_evidence
Q9H2W6	8	heart_evidence
P23526	16	heart_evidence
Q7Z7K0	2	heart_evidence
F5H4D2	2	heart_evidence
P50461	170	heart_evidence
B1ANR0	13	heart_evidence
H7BY58	34	heart_evidence
P26447	9	heart_evidence
C9JIF9	13	heart_evidence
P17655	29	heart_evidence
CON__Q7Z3Y8	2	heart_evidence
CON__P02533	133	heart_evidence
E5RGX5	1	heart_evidence
P22570	8	heart_evidence
Q99615-2	3	heart_evidence
P35749-4	8	heart_evidence
P26038	104	heart_evidence
P02144	395	heart_evidence
Q9BSH4	13	heart_evidence
O43678	21	heart_evidence
Q9Y230	13	heart_evidence
P43897	6	heart_evidence
Q16762	15	heart_evidence
B4E1Z4	33	heart_evidence
P02750	14	heart_evidence
B7Z7Z8	5	heart_evidence
O43615	7	heart_evidence
Q15155	9	heart_evidence
F8W1R7	27	heart_evidence
I3L1K6	39	heart_evidence
Q6Y288	3	heart_evidence
P14868	23	heart_evidence
Q16401-2	8	heart_evidence
P50991	23	heart_evidence
E5RGR0	5	heart_evidence
Q5JRX3	42	heart_evidence
Q99685	7	heart_evidence
J3KNJ2	3	heart_evidence
P30050	19	heart_evidence
F5GZ49	1	heart_evidence
D6RAA6	1	heart_evidence
Q14258	2	heart_evidence
H3BPK3	33	heart_evidence
P07900	75	heart_evidence
Q9HC38-2	7	heart_evidence
P32418	28	heart_evidence
Q9P0J1	17	heart_evidence
Q9UHB9	9	heart_evidence
P43155-2	44	heart_evidence
A4D1W8	31	heart_evidence
P12429	17	heart_evidence
O95140	26	heart_evidence
Q9GZT8-2	3	heart_evidence
CON__P02663	8	heart_evidence
I6L894	7	heart_evidence
P13671	2	heart_evidence
H3BUR9	3	heart_evidence
P55010	9	heart_evidence
P05109	21	heart_evidence
Q02413	5	heart_evidence
Q63HM9	7	heart_evidence
P01857	146	heart_evidence
Q9UBY9	95	heart_evidence
Q6YN16	57	heart_evidence
P15259	94	heart_evidence
CON__P02754	6	heart_evidence
H3BLU7	9	heart_evidence
M0QX72	2	heart_evidence
E9PNJ4	3	heart_evidence
B4DWL3	4	heart_evidence
P13533	76	heart_evidence
P10909-4	13	heart_evidence
B4DPJ8	20	heart_evidence
Q5SQU3	12	heart_evidence
P63010-3	18	heart_evidence
Q9H061	9	heart_evidence
Q9BXK5	20	heart_evidence
H7C0P1	46	heart_evidence
O95822	29	heart_evidence
Q3SXM5-2	5	heart_evidence
Q8TCD5	4	heart_evidence
C9JZR2	6	heart_evidence
Q8TB22-3	10	heart_evidence
Q16654	15	heart_evidence
P09972	24	heart_evidence
P28331	218	heart_evidence
Q14123-2	5	heart_evidence
Q9UMX0-2	2	heart_evidence
B4DEK4	13	heart_evidence
P57772	6	heart_evidence
P02671-2	175	heart_evidence
B7ZAM9	5	heart_evidence
C9JJV6	5	heart_evidence
P04843	53	heart_evidence
P68371	152	heart_evidence
M0R210	10	heart_evidence
E7EPB3	8	heart_evidence
Q99497	37	heart_evidence
O95182	36	heart_evidence
Q9BV79	10	heart_evidence
E9PFZ2	36	heart_evidence
I3L4Z0	3	heart_evidence
P27105	18	heart_evidence
Q03135	71	heart_evidence
Q9UNS2	5	heart_evidence
R4GNH3	13	heart_evidence
P05165-2	46	heart_evidence
Q6DRA6	1	heart_evidence
Q16778	91	heart_evidence
P04899	23	heart_evidence
Q9NZ45	47	heart_evidence
E5RHG8	12	heart_evidence
P98179	4	heart_evidence
B4DT77	48	heart_evidence
Q32MK0	25	heart_evidence
P82932	4	heart_evidence
Q9UJU6	6	heart_evidence
Q96RQ3	71	heart_evidence
A8MRB1	1	heart_evidence
F8W1A4	36	heart_evidence
P50416-2	9	heart_evidence
O75431	25	heart_evidence
B4DXZ6	5	heart_evidence
Q14247	15	heart_evidence
P16284-3	11	heart_evidence
P00491	3	heart_evidence
Q9H9B4	9	heart_evidence
P78560	2	heart_evidence
Q9NTJ4-3	5	heart_evidence
P61026	8	heart_evidence
E9PB14	58	heart_evidence
O75396	12	heart_evidence
Q9H078-2	5	heart_evidence
P00352	15	heart_evidence
Q9UKX2	1	heart_evidence
G5EA09	3	heart_evidence
J3KN29	10	heart_evidence
P21399	37	heart_evidence
Q96ED9-2	1	heart_evidence
O94875-10	579	heart_evidence
Q8NBN7	13	heart_evidence
H3BT57	2	heart_evidence
B0UXB6	4	heart_evidence
Q15772-1	5	heart_evidence
REV__Q5JV73	3	heart_evidence
F5GYJ5	3	heart_evidence
Q9UHL4	5	heart_evidence
Q9NVH6-4	3	heart_evidence
P43121	6	heart_evidence
Q13617	9	heart_evidence
Q96RF0-3	4	heart_evidence
P52566	14	heart_evidence
Q14667-2	7	heart_evidence
P50402	9	heart_evidence
O75306	84	heart_evidence
P25705	431	heart_evidence
O76024	7	heart_evidence
E9PH18	1	heart_evidence
O75190-3	7	heart_evidence
B7ZKW8	3	heart_evidence
H3BLZ8	8	heart_evidence
P50213	55	heart_evidence
B7Z242	81	heart_evidence
P20290	4	heart_evidence
Q06323	24	heart_evidence
Q15126	6	heart_evidence
Q9UJW0	6	heart_evidence
P02741	3	heart_evidence
E9PJU8	5	heart_evidence
Q14344	2	heart_evidence
P11217	44	heart_evidence
E9PK47	1	heart_evidence
P00966	4	heart_evidence
P84157-2	5	heart_evidence
Q9NZZ3-2	1	heart_evidence
Q9UMS6	61	heart_evidence
F6TC96	1	heart_evidence
P17174	91	heart_evidence
B1AH87	11	heart_evidence
Q15599-3	11	heart_evidence
P61313	12	heart_evidence
P07384	26	heart_evidence
C9JUG3	1	heart_evidence
P16452	8	heart_evidence
F5GWA6	16	heart_evidence
I3L0T6	2	heart_evidence
CON__P08779	28	heart_evidence
O14558	71	heart_evidence
Q9GZV1	58	heart_evidence
E9PR44	293	heart_evidence
Q6PCB0	6	heart_evidence
P30086	72	heart_evidence
Q9NQH7-2	2	heart_evidence
Q8WW59	9	heart_evidence
P52594-2	2	heart_evidence
CON__P00761	398	heart_evidence
Q9UJZ1	6	heart_evidence
Q9UN86	4	heart_evidence
P00747	26	heart_evidence
P10316	7	heart_evidence
P47914	2	heart_evidence
P30049	19	heart_evidence
Q3KQU3-2	3	heart_evidence
K7EP07	8	heart_evidence
P55884	4	heart_evidence
P14625	52	heart_evidence
Q12797-10	2	heart_evidence
P13611-2	12	heart_evidence
M0R0F0	9	heart_evidence
Q8WUF5	8	heart_evidence
E5RFP0	2	heart_evidence
P11277-2	59	heart_evidence
P08311	6	heart_evidence
P06858	8	heart_evidence
P35754	14	heart_evidence
Q9NWV4	6	heart_evidence
E9PMS6	35	heart_evidence
REV__Q8NC67-2	5	heart_evidence
O94874	7	heart_evidence
K7EIK7	15	heart_evidence
H0Y5A1	5	heart_evidence
Q3ZCQ8	11	heart_evidence
Q96I99	45	heart_evidence
P11182	34	heart_evidence
Q96MF6-3	6	heart_evidence
P54578-2	24	heart_evidence
G3XAM2	6	heart_evidence
Q92734-2	8	heart_evidence
P04792	143	heart_evidence
F5H897	38	heart_evidence
P62917	13	heart_evidence
Q96CV9-3	12	heart_evidence
Q9UHQ4	8	heart_evidence
P25786	24	heart_evidence
H7BXI1	7	heart_evidence
H3BTA3	4	heart_evidence
K7ELL7	23	heart_evidence
Q86UP2-2	28	heart_evidence
A8K541	39	heart_evidence
Q15276-2	3	heart_evidence
I3L448	6	heart_evidence
Q8N442	2	heart_evidence
Q9Y265	9	heart_evidence
E7EW69	3	heart_evidence
Q8N2F6-4	2	heart_evidence
Q9HD34	7	heart_evidence
CON__Q5XQN5	1	heart_evidence
CON__P13647	168	heart_evidence
Q13442	5	heart_evidence
P12110	195	heart_evidence
P05455	6	heart_evidence
P11142	154	heart_evidence
Q9UBI6	13	heart_evidence
P00505	193	heart_evidence
Q9BQJ4	4	heart_evidence
P10515	75	heart_evidence
P56378	18	heart_evidence
Q96CN7	13	heart_evidence
Q9H4G4	5	heart_evidence
P09497-2	10	heart_evidence
Q6P387-2	3	heart_evidence
J3KSG2	2	heart_evidence
B4DHJ7	4	heart_evidence
P54727-2	2	heart_evidence
Q9BVC6	8	heart_evidence
A2A2D0	2	heart_evidence
P23528	49	heart_evidence
O75112	13	heart_evidence
Q9Y281	23	heart_evidence
Q08380	50	heart_evidence
CON__Q5D862	19	heart_evidence
P82912-2	5	heart_evidence
O15144	4	heart_evidence
P18124	16	heart_evidence
P22748	16	heart_evidence
P09874	22	heart_evidence
P04844-2	17	heart_evidence
P14866	14	heart_evidence
P24534	7	heart_evidence
J3QTA6	10	heart_evidence
E7ERF4	5	heart_evidence
E7ENZ3	26	heart_evidence
Q9Y3Y2-4	2	heart_evidence
P28289	40	heart_evidence
P01034	7	heart_evidence
Q9BRT3	3	heart_evidence
G3V4W0	19	heart_evidence
M0QXB5	6	heart_evidence
Q6PEY1	1	heart_evidence
E5RFU2	3	heart_evidence
Q8NFX7-2	2	heart_evidence
O60763	22	heart_evidence
P01602	1	heart_evidence
P18135	1	heart_evidence
J3KMW2	1	heart_evidence
O15143	3	heart_evidence
Q9Y2R0	8	heart_evidence
B4DQ51	12	heart_evidence
P52943	50	heart_evidence
P12270	2	heart_evidence
P27144	33	heart_evidence
P26678	22	heart_evidence
H0YKE7	6	heart_evidence
B1AJY5	4	heart_evidence
Q13557-10	24	heart_evidence
Q96DA6	7	heart_evidence
F5H223	17	heart_evidence
P56134-3	19	heart_evidence
Q6UX71-2	2	heart_evidence
Q9UPQ0-10	10	heart_evidence
O76003	2	heart_evidence
P05386	2	heart_evidence
Q07065	40	heart_evidence
Q7Z4H3-2	5	heart_evidence
C9JJT5	2	heart_evidence
Q86X76-2	9	heart_evidence
P54725-2	5	heart_evidence
Q9NQR4	19	heart_evidence
Q9BSL1	1	heart_evidence
E9PK01	8	heart_evidence
P18428	3	heart_evidence
P32119	36	heart_evidence
P25789	10	heart_evidence
Q7Z434	11	heart_evidence
Q96GK7	7	heart_evidence
P48735	248	heart_evidence
Q5TD07	5	heart_evidence
B1ANH5	3	heart_evidence
Q5SSJ5	12	heart_evidence
P22059	2	heart_evidence
Q99436	4	heart_evidence
O75521-2	19	heart_evidence
E9PCY7	13	heart_evidence
Q8IYB8	6	heart_evidence
Q5T9B7	84	heart_evidence
P02749	17	heart_evidence
O43301	6	heart_evidence
P04433	2	heart_evidence
P01623	11	heart_evidence
Q9BXW7-2	9	heart_evidence
P45880	116	heart_evidence
Q71UI9	6	heart_evidence
P51149	25	heart_evidence
Q99832-3	28	heart_evidence
P69891	13	heart_evidence
P00441	44	heart_evidence
P04114	24	heart_evidence
H0UI06	6	heart_evidence
P45974-2	12	heart_evidence
P61626	21	heart_evidence
O95167	17	heart_evidence
Q5JTV8	7	heart_evidence
Q8NC56	8	heart_evidence
P0C7P0	9	heart_evidence
Q14118	41	heart_evidence
J3QRS3	12	heart_evidence
I3L3H2	1	heart_evidence
O94875-7	2	heart_evidence
Q9P1Z2-4	2	heart_evidence
Q01469	53	heart_evidence
P61981	56	heart_evidence
K7ER15	7	heart_evidence
P04217	20	heart_evidence
Q9NP92	3	heart_evidence
F5H5P2	21	heart_evidence
P12109	304	heart_evidence
P05023-4	37	heart_evidence
P62195-2	7	heart_evidence
Q8IXX5-2	1	heart_evidence
Q96BQ5	8	heart_evidence
P62333	4	heart_evidence
E9PHT6	9	heart_evidence
Q8TCS8	16	heart_evidence
P51687	12	heart_evidence
P62906	14	heart_evidence
Q14108	20	heart_evidence
Q9UH90	5	heart_evidence
Q15046	25	heart_evidence
P06733	55	heart_evidence
B4E022	15	heart_evidence
P25788-2	14	heart_evidence
B7Z1R5	16	heart_evidence
P68366	6	heart_evidence
M0QY17	1	heart_evidence
P00738	98	heart_evidence
O14980	19	heart_evidence
Q6P4E4	8	heart_evidence
O00629	13	heart_evidence
P07738	9	heart_evidence
Q9H330-4	6	heart_evidence
A6NKH4	4	heart_evidence
F8W9L8	2	heart_evidence
P82675	8	heart_evidence
Q9UKU7	5	heart_evidence
Q9UIJ7	26	heart_evidence
J3KS22	43	heart_evidence
Q96FQ6	5	heart_evidence
Q86UT6	21	heart_evidence
P51553	26	heart_evidence
P63000	19	heart_evidence
P46821	3	heart_evidence
F8WE28	1	heart_evidence
P06744	87	heart_evidence
O75155-2	7	heart_evidence
H0YJ66	3	heart_evidence
P50454	12	heart_evidence
P01009	163	heart_evidence
Q9Y2D5	6	heart_evidence
C9J2C0	11	heart_evidence
REV__H0YJ04	1	heart_evidence
P43490	25	heart_evidence
M0R0G9	2	heart_evidence
Q15118	4	heart_evidence
P00488	24	heart_evidence
Q08426	5	heart_evidence
P42126	43	heart_evidence
B4DFC9	2	heart_evidence
P00918	34	heart_evidence
Q9UKV8-2	4	heart_evidence
P04004	38	heart_evidence
F8WJN3	2	heart_evidence
P10155-3	7	heart_evidence
F5GXC8	32	heart_evidence
Q04917	18	heart_evidence
P27348	35	heart_evidence
P31946-2	14	heart_evidence
Q5TA50	2	heart_evidence
P35573	63	heart_evidence
Q13011	124	heart_evidence
C9JEL3	1	heart_evidence
P21281	8	heart_evidence
A6NDG6	7	heart_evidence
P23368	29	heart_evidence
Q9BSJ8	13	heart_evidence
Q13057	4	heart_evidence
O75915	42	heart_evidence
P61328-2	3	heart_evidence
C9JJ19	6	heart_evidence
K7EJ02	1	heart_evidence
P43487	3	heart_evidence
P00395	47	heart_evidence
O14602	5	heart_evidence
Q93052	24	heart_evidence
Q9H845	28	heart_evidence
O15145	8	heart_evidence
O14773-2	36	heart_evidence
Q9NUB1	59	heart_evidence
O14949	29	heart_evidence
P02743	48	heart_evidence
Q86Y39	28	heart_evidence
P07814	7	heart_evidence
F6SKP1	7	heart_evidence
Q04446	43	heart_evidence
J3KNW4	292	heart_evidence
Q16586	20	heart_evidence
O00186	7	heart_evidence
Q9H511	6	heart_evidence
P62979	100	heart_evidence
P14618	11	heart_evidence
P01859	30	heart_evidence
P15090	33	heart_evidence
P05556-2	31	heart_evidence
Q04760-2	18	heart_evidence
P58546	9	heart_evidence
Q16795	40	heart_evidence
P62834	15	heart_evidence
Q8WV74	3	heart_evidence
P63261	81	heart_evidence
H0YF29	5	heart_evidence
B1AP13	5	heart_evidence
Q9NYL2-2	17	heart_evidence
Q13228	41	heart_evidence
E7ESZ7	70	heart_evidence
P08603	16	heart_evidence
Q9BVK6	9	heart_evidence
F8VU65	8	heart_evidence
P10606	25	heart_evidence
R4GMR5	7	heart_evidence
B4DP17	3	heart_evidence
P62987	2	heart_evidence
Q96FX8	3	heart_evidence
O43920	20	heart_evidence
Q7Z4I7-3	1	heart_evidence
P04003	17	heart_evidence
Q8N4Q0	8	heart_evidence
P24539	104	heart_evidence
E9PQR7	4	heart_evidence
Q99460-2	24	heart_evidence
B5MBZ8	8	heart_evidence
P31949	10	heart_evidence
Q9Y5L4	10	heart_evidence
Q8IYQ7	11	heart_evidence
Q9GZT3-2	12	heart_evidence
Q969Z3	11	heart_evidence
P27797	57	heart_evidence
P43304-2	17	heart_evidence
Q5TGZ0	8	heart_evidence
B1AHL2	10	heart_evidence
P21266	39	heart_evidence
Q5JTJ3-3	3	heart_evidence
E5RJ08	3	heart_evidence
P49721	9	heart_evidence
H3BRN4	17	heart_evidence
Q969Z0	13	heart_evidence
O60662-2	15	heart_evidence
Q9UKX3	55	heart_evidence
Q9H3H3	3	heart_evidence
J3KQ73	6	heart_evidence
Q86VU5	7	heart_evidence
P31749	3	heart_evidence
P30043	46	heart_evidence
P21397	56	heart_evidence
P10599	18	heart_evidence
Q9NZJ7-2	10	heart_evidence
C9JV77	9	heart_evidence
P62306	7	heart_evidence
B7Z2R9	7	heart_evidence
Q9BZL1	6	heart_evidence
P17302	50	heart_evidence
P62280	9	heart_evidence
I3L430	6	heart_evidence
P50897	12	heart_evidence
C9JC99	14	heart_evidence
Q9UBF6	2	heart_evidence
P54646	15	heart_evidence
P39687	14	heart_evidence
C9JF17	18	heart_evidence
Q9UHG3	32	heart_evidence
Q5BKX8	21	heart_evidence
Q9NTG7	15	heart_evidence
Q9ULP0-3	9	heart_evidence
P56277	2	heart_evidence
P54652	25	heart_evidence
Q14BN4	45	heart_evidence
Q96JB5-2	3	heart_evidence
Q9BYC9	3	heart_evidence
P48506	11	heart_evidence
P02790	64	heart_evidence
P21291	15	heart_evidence
Q9GZM7	65	heart_evidence
J3KN67	3	heart_evidence
Q9HCP6	46	heart_evidence
P21953	11	heart_evidence
Q96CX2	3	heart_evidence
A1L0T0	18	heart_evidence
O95292	20	heart_evidence
Q9P0L0	32	heart_evidence
A1L188	3	heart_evidence
P54868	18	heart_evidence
Q15172	5	heart_evidence
Q5URX0	9	heart_evidence
P07737	31	heart_evidence
Q13564-2	13	heart_evidence
Q8NBU5	9	heart_evidence
Q96EL3	3	heart_evidence
Q14254	22	heart_evidence
P53621	4	heart_evidence
J3KNQ4	11	heart_evidence
Q8WX93-3	60	heart_evidence
O75323	61	heart_evidence
P11177	74	heart_evidence
Q96I59	4	heart_evidence
P56381	14	heart_evidence
P49406	8	heart_evidence
O15173	11	heart_evidence
B0YIW2	6	heart_evidence
P62701	20	heart_evidence
Q14139	5	heart_evidence
P01877	5	heart_evidence
P01876	49	heart_evidence
O43402-2	1	heart_evidence
O00479	1	heart_evidence
Q9NQW7-2	11	heart_evidence
P81605	27	heart_evidence
O43237	7	heart_evidence
P18085	9	heart_evidence
P84077	22	heart_evidence
P49720	5	heart_evidence
P62805	101	heart_evidence
P60174-1	99	heart_evidence
Q9Y399	7	heart_evidence
Q9Y3Z3	20	heart_evidence
Q13616	6	heart_evidence
Q99471	4	heart_evidence
Q9BYV6-2	6	heart_evidence
P60709	2	heart_evidence
F8W8D0	14	heart_evidence
Q92901	8	heart_evidence
Q9Y4W6	86	heart_evidence
O60237	33	heart_evidence
H3BP28	18	heart_evidence
Q9Y291	5	heart_evidence
P06748-3	10	heart_evidence
P50552	4	heart_evidence
P18077	9	heart_evidence
P63244	17	heart_evidence
P47756	22	heart_evidence
Q0VAN0	1	heart_evidence
Q15111	8	heart_evidence
F5H6I0	13	heart_evidence
P20774	11	heart_evidence
P23946	15	heart_evidence
Q6PI78	10	heart_evidence
P12236	39	heart_evidence
P23284	12	heart_evidence
Q9Y3C6	10	heart_evidence
P32969	9	heart_evidence
I3L0N3	9	heart_evidence
B1AJQ6	2	heart_evidence
P31937	33	heart_evidence
E9PGN7	28	heart_evidence
P30041	63	heart_evidence
E7EQG2	12	heart_evidence
O75531	4	heart_evidence
Q96EY1-2	4	heart_evidence
P16435	14	heart_evidence
P61604	11	heart_evidence
P02452	26	heart_evidence
P15848	3	heart_evidence
P10109	6	heart_evidence
P27635	12	heart_evidence
C9JIZ6	41	heart_evidence
B1ALD8	26	heart_evidence
P51911	3	heart_evidence
B7Z2X9	5	heart_evidence
Q08043	2	heart_evidence
P31942-3	4	heart_evidence
P68104	23	heart_evidence
O60884	12	heart_evidence
Q92504	1	heart_evidence
Q96DC8	16	heart_evidence
P08670	146	heart_evidence
O75208	29	heart_evidence
P28072	7	heart_evidence
Q63ZY3-3	6	heart_evidence
E7ESS4	1	heart_evidence
P37802	25	heart_evidence
P16989-2	12	heart_evidence
Q8WVC2	5	heart_evidence
E9PMR4	17	heart_evidence
P07919	34	heart_evidence
Q96DE0-3	2	heart_evidence
Q9Y676	5	heart_evidence
Q9H2K0	6	heart_evidence
Q96HY7	14	heart_evidence
Q00688	8	heart_evidence
E7ESL0	3	heart_evidence
G5E9S8	9	heart_evidence
Q6GMV3	2	heart_evidence
E7EMZ9	2	heart_evidence
E7EMC7	4	heart_evidence
Q96EX1	3	heart_evidence
O75368	7	heart_evidence
P36969-2	13	heart_evidence
P49257	19	heart_evidence
P35527	665	heart_evidence
Q9Y3A5	18	heart_evidence
P46777	10	heart_evidence
Q9UHQ9	56	heart_evidence
P49588	9	heart_evidence
P12956	37	heart_evidence
P51665	8	heart_evidence
Q9NQE9	3	heart_evidence
Q8TDX7	4	heart_evidence
REV__G3V5V7	3	heart_evidence
P07858	47	heart_evidence
P62753	11	heart_evidence
P55290	41	heart_evidence
K7EK07	53	heart_evidence
P04430	1	heart_evidence
P80362	5	heart_evidence
P01613	1	heart_evidence
P01611	2	heart_evidence
P01598	2	heart_evidence
H3BQF1	3	heart_evidence
Q9H2H8	8	heart_evidence
Q5TFE4	2	heart_evidence
P01625	5	heart_evidence
P01617	4	heart_evidence
O75131	23	heart_evidence
P02763	34	heart_evidence
P61160	6	heart_evidence
Q13619-2	10	heart_evidence
P13667	17	heart_evidence
Q15056-2	13	heart_evidence
E9PMB9	12	heart_evidence
Q53GQ0	11	heart_evidence
Q7Z7H5-3	1	heart_evidence
Q93100-4	19	heart_evidence
P63151	11	heart_evidence
P00338	36	heart_evidence
O95372	5	heart_evidence
Q99714	25	heart_evidence
P60903	41	heart_evidence
Q86UY0	6	heart_evidence
Q9H3K6	2	heart_evidence
Q93034	6	heart_evidence
P12277	119	heart_evidence
E7EU23	41	heart_evidence
Q330K2-2	6	heart_evidence
P53985	5	heart_evidence
Q96KP4	21	heart_evidence
J3QK90	6	heart_evidence
Q5W0H4	9	heart_evidence
F5GYC4	3	heart_evidence
F5H442	5	heart_evidence
P08758	31	heart_evidence
H0YMV8	7	heart_evidence
P42677	1	heart_evidence
O00571-2	27	heart_evidence
G3V1K0	1	heart_evidence
P00492	9	heart_evidence
P49419-2	30	heart_evidence
Q9NVJ2	10	heart_evidence
Q96B96	8	heart_evidence
F8W7G7	7	heart_evidence
Q9Y3B7	5	heart_evidence
P82664	5	heart_evidence
O15273	40	heart_evidence
O75439	12	heart_evidence
Q9Y547	2	heart_evidence
B4DHT5	10	heart_evidence
P68133	58	heart_evidence
G3V4U0	10	heart_evidence
Q5W145	27	heart_evidence
Q15327	6	heart_evidence
CON__P02666	4	heart_evidence
Q92973-2	16	heart_evidence
P82909	11	heart_evidence
Q9H0P0-1	2	heart_evidence
O95810	43	heart_evidence
Q92499	25	heart_evidence
Q12907	4	heart_evidence
Q9ULD0	1	heart_evidence
Q9Y285	14	heart_evidence
A6NIT2	3	heart_evidence
REV__Q8N6Y2	4	heart_evidence
Q9UK45	2	heart_evidence
Q15181	5	heart_evidence
P0DJI8	7	heart_evidence
F8WBK5	3	heart_evidence
Q9BRA2	10	heart_evidence
P47985	61	heart_evidence
Q13347	7	heart_evidence
P08697	7	heart_evidence
Q9NX14	19	heart_evidence
Q9UBR2	13	heart_evidence
O95139	19	heart_evidence
P11137-3	2	heart_evidence
F5H2A7	7	heart_evidence
F5H6I7	4	heart_evidence
O75923	17	heart_evidence
Q6P1A2	7	heart_evidence
J3KPM9	6	heart_evidence
F8W717	2	heart_evidence
H3BT71	6	heart_evidence
O95298	36	heart_evidence
Q00G26	3	heart_evidence
REV__Q9UPE1-2	2	heart_evidence
Q0VAK6-2	3	heart_evidence
Q32Q12	35	heart_evidence
Q16531	35	heart_evidence
Q9Y5X1	6	heart_evidence
P17568	41	heart_evidence
Q8IUX1-4	2	heart_evidence
P62277	11	heart_evidence
P48728-3	7	heart_evidence
P10644	27	heart_evidence
Q8NBF2	14	heart_evidence
Q99584	8	heart_evidence
Q969Q0	5	heart_evidence
Q8NCN5	8	heart_evidence
Q15459	5	heart_evidence
P13489	32	heart_evidence
Q9HAT2	24	heart_evidence
Q96PE7	13	heart_evidence
B1AKV4	5	heart_evidence
E9PAV3	54	heart_evidence
O14787-2	2	heart_evidence
F5H2Q7	4	heart_evidence
J3KTF5	1	heart_evidence
P01834	50	heart_evidence
Q14011	4	heart_evidence
H0YJ30	2	heart_evidence
P46976-2	38	heart_evidence
P17858	10	heart_evidence
O75891	10	heart_evidence
P61019	16	heart_evidence
J3QL64	7	heart_evidence
Q02487-2	18	heart_evidence
P49755	7	heart_evidence
Q9BX66	3	heart_evidence
F6U1T9	1	heart_evidence
Q9Y5M8	6	heart_evidence
Q16864	4	heart_evidence
Q10713	27	heart_evidence
P09110	7	heart_evidence
Q15119	10	heart_evidence
H7C5G1	2	heart_evidence
P50224	10	heart_evidence
P55735	6	heart_evidence
Q04837	11	heart_evidence
P16152	16	heart_evidence
P23297	43	heart_evidence
Q16352	4	heart_evidence
O75534-2	5	heart_evidence
K7ELC7	8	heart_evidence
E7EU96	5	heart_evidence
P36507	9	heart_evidence
Q6R327	1	heart_evidence
P01871	18	heart_evidence
P39019	16	heart_evidence
B4DP21	9	heart_evidence
P00156	20	heart_evidence
P11171-6	2	heart_evidence
Q8N8N7	8	heart_evidence
P52907	4	heart_evidence
Q9Y512	63	heart_evidence
Q9BXJ8-2	4	heart_evidence
D3YTJ1	26	heart_evidence
P50238	3	heart_evidence
Q96AC1	53	heart_evidence
A8MWK3	113	heart_evidence
Q86SX6	3	heart_evidence
E9PC52	6	heart_evidence
Q5T6W5	31	heart_evidence
Q6NUK1	10	heart_evidence
P26599	9	heart_evidence
Q13162	7	heart_evidence
S4R435	16	heart_evidence
P07195	215	heart_evidence
P07203	11	heart_evidence
O75934	1	heart_evidence
Q05639	189	heart_evidence
P61081	5	heart_evidence
Q9BU61	12	heart_evidence
B4DXE2	7	heart_evidence
P52294	4	heart_evidence
Q9NRV9	11	heart_evidence
O60925	4	heart_evidence
F5GZZ9	2	heart_evidence
E9PGZ1	23	heart_evidence
Q3ZCM7	8	heart_evidence
B4E1D7	5	heart_evidence
D6RA88	32	heart_evidence
J3KTL2	4	heart_evidence
Q13283	3	heart_evidence
Q8NC51-3	11	heart_evidence
Q9Y3D2	7	heart_evidence
J3KQ88	4	heart_evidence
P63172	3	heart_evidence
Q9H444	4	heart_evidence
F5GWR1	1	heart_evidence
Q96AN5	8	heart_evidence
P0CAP1	29	heart_evidence
O76094-2	6	heart_evidence
E9PHM2	7	heart_evidence
P19338	16	heart_evidence
G3XAP3	2	heart_evidence
J3KTA4	4	heart_evidence
Q9Y241	14	heart_evidence
K7EQJ5	7	heart_evidence
H7C1I9	2	heart_evidence
P23634-5	16	heart_evidence
Q12906-5	10	heart_evidence
B4DNT0	3	heart_evidence
O15235	7	heart_evidence
Q14894	37	heart_evidence
Q9Y263	12	heart_evidence
Q14714	9	heart_evidence
P02760	34	heart_evidence
S4R3N1	14	heart_evidence
P51888	60	heart_evidence
A8MXP9	15	heart_evidence
F5H335	7	heart_evidence
A6NN80	1	heart_evidence
O43181	17	heart_evidence
P07099	11	heart_evidence
B4DS13	3	heart_evidence
F8W7Q4	26	heart_evidence
P67809	4	heart_evidence
P28161	39	heart_evidence
Q9UEY8-2	4	heart_evidence
B9A057	1	heart_evidence
P01031	10	heart_evidence
P63241	26	heart_evidence
P03923	1	heart_evidence
G3V3J9	1	heart_evidence
P78417	50	heart_evidence
Q8TAE6	2	heart_evidence
B5MC59	1	heart_evidence
F8W6I7	15	heart_evidence
P51991	12	heart_evidence
P22626	58	heart_evidence
Q9BS26	8	heart_evidence
F8W8Z9	5	heart_evidence
CON__P02662	20	heart_evidence
O75348	2	heart_evidence
F5H8J3	2	heart_evidence
O00299	13	heart_evidence
A2A369	2	heart_evidence
Q969G5	7	heart_evidence
P30837	5	heart_evidence
REV__Q14542-3	2	heart_evidence
Q9Y3U8	4	heart_evidence
Q9Y2W7-3	1	heart_evidence
Q8N766-4	7	heart_evidence
Q8N490-2	3	heart_evidence
J3QL56	11	heart_evidence
K7ERI9	5	heart_evidence
Q01105-3	3	heart_evidence
P30042	61	heart_evidence
Q9Y5J7	5	heart_evidence
Q96C19	5	heart_evidence
Q6ICJ4	4	heart_evidence
Q9HBL7	8	heart_evidence
P48507	2	heart_evidence
P68871	502	heart_evidence
P02042	49	heart_evidence
Q8WWC4	6	heart_evidence
E7EVJ4	3	heart_evidence
B5MCI0	3	heart_evidence
C9IY40	1	heart_evidence
Q14914-2	9	heart_evidence
P62857	5	heart_evidence
B7Z1L3	3	heart_evidence
H0YGR4	9	heart_evidence
P48637	10	heart_evidence
O43776	9	heart_evidence
F8VSA6	8	heart_evidence
Q5VZU9	3	heart_evidence
B4DEX5	3	heart_evidence
P62937	59	heart_evidence
P25940	3	heart_evidence
P35625	6	heart_evidence
H0Y4E0	1	heart_evidence
Q9BV81	1	heart_evidence
Q15651	5	heart_evidence
E5RHC7	1	heart_evidence
C9J712	2	heart_evidence
C9J0J7	2	heart_evidence
Q9UFN0	10	heart_evidence
Q9Y3I0	27	heart_evidence
B3KW70	39	heart_evidence
B4DUC8	3	heart_evidence
P21796	121	heart_evidence
E7ET33	2	heart_evidence
F5H702	2	heart_evidence
P19652	9	heart_evidence
Q8N183	7	heart_evidence
K7ESE8	3	heart_evidence
O95210	6	heart_evidence
Q96MR6	4	heart_evidence
E9PDF6	2	heart_evidence
P38117	94	heart_evidence
B5MCP9	5	heart_evidence
Q9NR31	4	heart_evidence
Q5T5C7	8	heart_evidence
H7C1D4	7	heart_evidence
Q9H3Z4-2	4	heart_evidence
A6NJX6	1	heart_evidence
H0YA18	2	heart_evidence
P29218	11	heart_evidence
A6NLG9	26	heart_evidence
Q9Y305	41	heart_evidence
Q9HBU9	7	heart_evidence
K7ESM5	5	heart_evidence
P20674	28	heart_evidence
Q9UBV8	2	heart_evidence
P83111	18	heart_evidence
Q00325	201	heart_evidence
Q6P4Q7	1	heart_evidence
E7EWU3	4	heart_evidence
P56385	38	heart_evidence
Q9UBW8	8	heart_evidence
P30046	13	heart_evidence
Q9Y276	16	heart_evidence
Q9UHA4	7	heart_evidence
P62714	1	heart_evidence
Q02338	45	heart_evidence
P33151	3	heart_evidence
Q9UMX5	3	heart_evidence
Q6P5Q4	23	heart_evidence
P11055	20	heart_evidence
E7EM64	6	heart_evidence
P62241	9	heart_evidence
F5H2N6	3	heart_evidence
D3YTB1	3	heart_evidence
Q9NPL8	10	heart_evidence
H0YI09	8	heart_evidence
P68402	5	heart_evidence
Q9BVV7	10	heart_evidence
P02794	61	heart_evidence
Q6IPR1	2	heart_evidence
S4R371	179	heart_evidence
H0Y886	19	heart_evidence
E9PEL9	10	heart_evidence
B4DL14	53	heart_evidence
Q07283	2	heart_evidence
E9PIT3	15	heart_evidence
H3BRV0	9	heart_evidence
F5GZ54	1	heart_evidence
E9PHS0	5	heart_evidence
Q9BYN8	2	heart_evidence
P25815	3	heart_evidence
Q14764	10	heart_evidence
O75438	6	heart_evidence
Q02818	3	heart_evidence
Q9P2X0	2	heart_evidence
F2Z2U8	9	heart_evidence
E9PGZ4	7	heart_evidence
P51668	2	heart_evidence
Q9UIQ6-3	5	heart_evidence
G3V5B9	1	heart_evidence
Q6IAN0	6	heart_evidence
H7BZG6	1	heart_evidence
J3KNF8	12	heart_evidence
Q9NTX5-3	3	heart_evidence
P30085	14	heart_evidence
Q9Y6B6	7	heart_evidence
H7C2W9	7	heart_evidence
C9JCK3	1	heart_evidence
Q6UW78	2	heart_evidence
E9PDL6	6	heart_evidence
P14209-3	4	heart_evidence
H7C1U8	18	heart_evidence
J3KN00	37	heart_evidence
H7C5M9	5	heart_evidence
D3DQV9	4	heart_evidence
Q9BW72	5	heart_evidence
H0YM76	1	heart_evidence
B0FLL2	18	heart_evidence
B0YIW6	3	heart_evidence
E9PPW7	37	heart_evidence
Q8NCW5-2	12	heart_evidence
Q8WY91-2	2	heart_evidence
P07451	4	heart_evidence
P01903	3	heart_evidence
O43677	2	heart_evidence
P01860	22	heart_evidence
Q5TFJ7	2	heart_evidence
E9PK52	4	heart_evidence
Q96T66-2	3	heart_evidence
REV__Q99963-2	1	heart_evidence
Q9UII2	17	heart_evidence
P00167	14	heart_evidence
P84095	5	heart_evidence
P49914	2	heart_evidence
P53999	4	heart_evidence
J3QQT2	9	heart_evidence
P82933	3	heart_evidence
E9PP55	1	heart_evidence
O43272	3	heart_evidence
Q96JJ7	4	heart_evidence
P22102	5	heart_evidence
Q86TP1	6	heart_evidence
F5H2F4	31	heart_evidence
O75112-4	15	heart_evidence
B4E3J8	3	heart_evidence
Q13232	7	heart_evidence
P14672	10	heart_evidence
P19237	10	heart_evidence
Q06124-2	8	heart_evidence
Q969H8	4	heart_evidence
Q8TCJ2	2	heart_evidence
REV__H0Y7N4	2	heart_evidence
P62993	8	heart_evidence
Q14103-3	12	heart_evidence
C9JWC3	16	heart_evidence
Q13510	53	heart_evidence
Q9BXP5-5	3	heart_evidence
E2QRM6	14	heart_evidence
Q9UJC5	3	heart_evidence
Q9BWD3	2	heart_evidence
REV__Q13439-3	3	heart_evidence
Q8TAT6	10	heart_evidence
Q15370	15	heart_evidence
P00414	83	heart_evidence
Q9NX40	11	heart_evidence
S4R303	4	heart_evidence
H0YK48	2	heart_evidence
P30044-2	36	heart_evidence
P17612	14	heart_evidence
Q8ND71	3	heart_evidence
Q9H7C9	9	heart_evidence
Q969V5	2	heart_evidence
H0YK65	1	heart_evidence
Q4G0F5	2	heart_evidence
F5H050	5	heart_evidence
H7C0V9	2	heart_evidence
P04350	5	heart_evidence
P20042	4	heart_evidence
P61586	28	heart_evidence
O43741	6	heart_evidence
Q9UKG1	11	heart_evidence
O95573	13	heart_evidence
Q7L775	4	heart_evidence
O75380	31	heart_evidence
G3V2V8	6	heart_evidence
Q13418	38	heart_evidence
P56556	39	heart_evidence
P01765	3	heart_evidence
Q7L5N7-2	1	heart_evidence
F5GZN3	8	heart_evidence
B8ZZQ6	1	heart_evidence
Q13618-2	5	heart_evidence
D6R9P3	1	heart_evidence
Q07507	10	heart_evidence
O95168	28	heart_evidence
Q969X5-2	3	heart_evidence
Q15717	6	heart_evidence
K7EM18	9	heart_evidence
Q86WA6-2	11	heart_evidence
H7BXH2	5	heart_evidence
Q14165	9	heart_evidence
P05546	6	heart_evidence
Q99643	18	heart_evidence
Q96H20-2	3	heart_evidence
Q8WXF1-2	2	heart_evidence
P35237	43	heart_evidence
Q86XR7-2	4	heart_evidence
Q9H008	2	heart_evidence
J3KQ32	9	heart_evidence
P51648	8	heart_evidence
D6RA08	3	heart_evidence
F5GYC1	5	heart_evidence
Q9NP90	1	heart_evidence
P30040	4	heart_evidence
F8VXU5	10	heart_evidence
P18859	6	heart_evidence
B0QY89	12	heart_evidence
P36405	7	heart_evidence
P61020	11	heart_evidence
Q9BYV2	1	heart_evidence
Q15691	8	heart_evidence
O43924	2	heart_evidence
P51571	3	heart_evidence
E9PI68	3	heart_evidence
Q00577	10	heart_evidence
H3BPT0	3	heart_evidence
Q15388	3	heart_evidence
Q9BTV4	4	heart_evidence
E7EQB2	5	heart_evidence
Q9BX66-6	1	heart_evidence
O94875-2	24	heart_evidence
P53007	9	heart_evidence
K7EMC7	3	heart_evidence
P35613-2	15	heart_evidence
Q9H1E5	4	heart_evidence
P15088	5	heart_evidence
P53004	5	heart_evidence
B4DJ45	3	heart_evidence
H7C5Q1	1	heart_evidence
H0YHG0	2	heart_evidence
Q9H488-2	1	heart_evidence
P62273	9	heart_evidence
H7C2N7	1	heart_evidence
P00740	18	heart_evidence
A6PVN5	3	heart_evidence
H0Y8X4	4	heart_evidence
M0R061	1	heart_evidence
P49789	12	heart_evidence
O00165-5	2	heart_evidence
O94973	4	heart_evidence
Q9P2B2	6	heart_evidence
P49458	7	heart_evidence
Q9UMS4	6	heart_evidence
P09132	2	heart_evidence
O60220	1	heart_evidence
REV__E7EQ67	1	heart_evidence
P49023-2	2	heart_evidence
Q9Y2Q5	5	heart_evidence
E9PGT6	5	heart_evidence
Q9UI09	56	heart_evidence
O75874	9	heart_evidence
Q5T7C4	19	heart_evidence
P69905	340	heart_evidence
Q8NE79	9	heart_evidence
Q75MG1	7	heart_evidence
Q8N5M1	6	heart_evidence
P15374	8	heart_evidence
CON__Q32MB2	2	heart_evidence
H0YLH3	2	heart_evidence
A8MU58	6	heart_evidence
A3KMH1-3	2	heart_evidence
B2R5P6	19	heart_evidence
C9IZE4	9	heart_evidence
P51589	3	heart_evidence
Q9Y2Z9-3	23	heart_evidence
Q9HA65-2	4	heart_evidence
J3KNF4	2	heart_evidence
Q9H3G5	5	heart_evidence
P61221	8	heart_evidence
P62244	7	heart_evidence
P22352	20	heart_evidence
H3BTL1	2	heart_evidence
P50336	3	heart_evidence
Q9P0S9	10	heart_evidence
P51884	50	heart_evidence
P02747	5	heart_evidence
P34931	3	heart_evidence
P17931	21	heart_evidence
Q5SRQ3	3	heart_evidence
P48059-3	6	heart_evidence
P61254	8	heart_evidence
K7EQG4	7	heart_evidence
P34096	4	heart_evidence
E5RFK4	2	heart_evidence
Q9BX66-5	2	heart_evidence
Q96G95	2	heart_evidence
C9JVN9	8	heart_evidence
B1AK13	1	heart_evidence
F5H325	1	heart_evidence
H7BY10	8	heart_evidence
P31150	20	heart_evidence
P37108	5	heart_evidence
C9J6N9	4	heart_evidence
P68431	4	heart_evidence
Q71DI3	2	heart_evidence
H7C3R6	1	heart_evidence
Q9Y608	3	heart_evidence
O96011	3	heart_evidence
E9PMT2	1	heart_evidence
Q9BPW8	17	heart_evidence
P04207	2	heart_evidence
P80748	3	heart_evidence
Q5VY30	5	heart_evidence
P18669	45	heart_evidence
Q86U28	4	heart_evidence
B8ZZX2	3	heart_evidence
P48047	54	heart_evidence
E7ER97	2	heart_evidence
O75475-3	3	heart_evidence
Q8WWP7	2	heart_evidence
P24844	3	heart_evidence
O43143	2	heart_evidence
P43652	2	heart_evidence
Q5JPC9	2	heart_evidence
O60826	6	heart_evidence
Q8WWV3	2	heart_evidence
B7Z7P8	6	heart_evidence
A6ND22	4	heart_evidence
Q13405	3	heart_evidence
Q99757	5	heart_evidence
C9JHG2	2	heart_evidence
P31153	4	heart_evidence
P22307-7	9	heart_evidence
C9J236	1	heart_evidence
Q9ULC4-2	2	heart_evidence
E9PR30	2	heart_evidence
H0Y4R1	6	heart_evidence
E9PEP6	4	heart_evidence
E9PP23	3	heart_evidence
E9PJE4	1	heart_evidence
H6UMI1	4	heart_evidence
Q13885	5	heart_evidence
P09234	1	heart_evidence
Q6ZMP0-2	5	heart_evidence
H7C4M9	1	heart_evidence
F5H459	1	heart_evidence
J3QLS3	8	heart_evidence
O00483	28	heart_evidence
P60468	3	heart_evidence
I3L1R7	5	heart_evidence
M0QWZ7	8	heart_evidence
H7C4C1	1	heart_evidence
E7END7	5	heart_evidence
Q9H0U4	19	heart_evidence
H0Y7V6	12	heart_evidence
B4E1J0	4	heart_evidence
B4DLN1	4	heart_evidence
B4DV96	1	heart_evidence
D3YTI9	3	heart_evidence
Q9NPJ3	8	heart_evidence
K7EQB1	1	heart_evidence
B4DJA5	4	heart_evidence
B4DG27	7	heart_evidence
Q9NP72	7	heart_evidence
P06396	2	heart_evidence
P17813-2	2	heart_evidence
P53701	2	heart_evidence
P02461	5	heart_evidence
P20908	4	heart_evidence
F8WB74	6	heart_evidence
Q15848	7	heart_evidence
Q96EL2	4	heart_evidence
H0YNG3	3	heart_evidence
Q9H773	1	heart_evidence
Q13151	4	heart_evidence
H3BM67	6	heart_evidence
P15289-2	1	heart_evidence
C9J8T6	14	heart_evidence
Q14432	16	heart_evidence
Q14677-2	2	heart_evidence
P16930	3	heart_evidence
D6RDM7	2	heart_evidence
Q8WXI4-2	2	heart_evidence
CON__Q86YZ3	221	heart_evidence
Q9NZJ6	14	heart_evidence
F2Z2Y6	2	heart_evidence
U3KQ84	2	heart_evidence
B1ALC0	3	heart_evidence
O95881	3	heart_evidence
B4DHE8	5	heart_evidence
P27658	5	heart_evidence
H7BZD3	1	heart_evidence
Q96EY8	7	heart_evidence
P56192	7	heart_evidence
Q6VY07	2	heart_evidence
C9JUL4	2	heart_evidence
F5H4J2	1	heart_evidence
O75533	3	heart_evidence
B7Z2A7	2	heart_evidence
Q96QR8	1	heart_evidence
Q02221	37	heart_evidence
P24310	11	heart_evidence
H3BTB7	4	heart_evidence
O00401	1	heart_evidence
P53597	54	heart_evidence
Q9Y235	11	heart_evidence
Q9GZY8-2	5	heart_evidence
B0S8I7	1	heart_evidence
P80511	3	heart_evidence
B4DNJ6	4	heart_evidence
P01042	2	heart_evidence
H0Y6I8	3	heart_evidence
Q14249	1	heart_evidence
F5GYK4	2	heart_evidence
Q96KR6	2	heart_evidence
P43034	10	heart_evidence
Q5JNZ5	4	heart_evidence
Q14410	1	heart_evidence
Q8NHG7	1	heart_evidence
Q9UN37	3	heart_evidence
P09668	3	heart_evidence
P05997	3	heart_evidence
Q9Y3D6	15	heart_evidence
G3V5Z7	13	heart_evidence
H0YNN4	2	heart_evidence
K7ELQ9	10	heart_evidence
Q13425-2	3	heart_evidence
Q9HB90	3	heart_evidence
Q9NUQ9	2	heart_evidence
Q9UJS0	5	heart_evidence
O43399	18	heart_evidence
Q8TDQ7	2	heart_evidence
O14548	6	heart_evidence
F5H5I6	3	heart_evidence
P55795	3	heart_evidence
Q6P587	7	heart_evidence
G5E9F5	5	heart_evidence
P60201	8	heart_evidence
Q9BXN1	6	heart_evidence
Q9BYX7	1	heart_evidence
F5H1F3	1	heart_evidence
P26196	10	heart_evidence
M0R226	2	heart_evidence
P62312	6	heart_evidence
Q49AN9	5	heart_evidence
P41227-2	2	heart_evidence
Q9Y2V2	3	heart_evidence
K7EJB8	1	heart_evidence
Q8NCA5-2	4	heart_evidence
F8W914	6	heart_evidence
P03886	21	heart_evidence
H0Y2Y8	5	heart_evidence
B4DUX5	4	heart_evidence
E7EQ72	1	heart_evidence
O15327	2	heart_evidence
P30711	2	heart_evidence
P05186-3	1	heart_evidence
Q5T8U5	5	heart_evidence
P53384-2	1	heart_evidence
P62942	10	heart_evidence
P68036-2	9	heart_evidence
O00764	7	heart_evidence
Q9NYU2-2	4	heart_evidence
B4DLH2	1	heart_evidence
G5E9E8	3	heart_evidence
Q8N4Q1	5	heart_evidence
C9J2G3	1	heart_evidence
H0YGL6	13	heart_evidence
E7EV99	5	heart_evidence
P30419	2	heart_evidence
B7Z254	13	heart_evidence
P16157-7	1	heart_evidence
S4R329	2	heart_evidence
Q5U651	3	heart_evidence
J3KNQ3	5	heart_evidence
H0YJ34	1	heart_evidence
C9IYS5	1	heart_evidence
Q16647	4	heart_evidence
B4DZI8	11	heart_evidence
Q9H617	1	heart_evidence
Q92945	4	heart_evidence
A6NIV2	4	heart_evidence
P21964-2	6	heart_evidence
O94929-3	6	heart_evidence
O94925-2	2	heart_evidence
P13796	4	heart_evidence
Q13177	4	heart_evidence
B4DJ10	5	heart_evidence
O43504	8	heart_evidence
E7ETB3	17	heart_evidence
P04279-2	1	heart_evidence
G3V2U7	2	heart_evidence
P14621	10	heart_evidence
P51148	3	heart_evidence
Q92629-2	19	heart_evidence
P07305	30	heart_evidence
Q4G176	5	heart_evidence
P12955-2	5	heart_evidence
Q08357	6	heart_evidence
H3BNF0	3	heart_evidence
P26885	9	heart_evidence
Q92905	5	heart_evidence
Q9NR45	4	heart_evidence
P25787	10	heart_evidence
Q9Y5S9-2	1	heart_evidence
G3V3B7	1	heart_evidence
B4DVH1	1	heart_evidence
P13674-2	4	heart_evidence
H0Y5W0	5	heart_evidence
G3V2Y4	2	heart_evidence
D6RCK3	2	heart_evidence
H0YAC6	8	heart_evidence
K7EK20	1	heart_evidence
H7C5B8	4	heart_evidence
Q96LW7-2	7	heart_evidence
K7EQ05	2	heart_evidence
A6NGJ0	5	heart_evidence
P62316	5	heart_evidence
P18031	3	heart_evidence
P42766	5	heart_evidence
M0R2U2	1	heart_evidence
H7C229	1	heart_evidence
Q16543	9	heart_evidence
Q9H4X1-2	1	heart_evidence
Q96E52	3	heart_evidence
P37198	1	heart_evidence
E5RIT6	1	heart_evidence
Q02127	4	heart_evidence
Q9H993	8	heart_evidence
G5E9R5	7	heart_evidence
D6RCD0	3	heart_evidence
Q15393	2	heart_evidence
P56537	2	heart_evidence
O94903	7	heart_evidence
G3V4F7	1	heart_evidence
F8WCR1	1	heart_evidence
Q7RTV0	3	heart_evidence
P61764	2	heart_evidence
E5RJI7	2	heart_evidence
P46781	12	heart_evidence
Q15019	8	heart_evidence
F8W9B8	7	heart_evidence
O95352-3	1	heart_evidence
H0YAG5	1	heart_evidence
C9JEV6	7	heart_evidence
P04275	6	heart_evidence
Q69YU5	1	heart_evidence
Q12768	4	heart_evidence
O60783	4	heart_evidence
Q9NZ08	3	heart_evidence
P55957	1	heart_evidence
Q5JUV6	1	heart_evidence
Q92665	4	heart_evidence
Q15813	1	heart_evidence
U5GXS2	1	heart_evidence
Q5JZG9	2	heart_evidence
Q9NZ32	2	heart_evidence
Q53S58	2	heart_evidence
P30533	2	heart_evidence
Q96P70	1	heart_evidence
E9PPC8	3	heart_evidence
E7EUT8	1	heart_evidence
P08185	5	heart_evidence
O43852-2	6	heart_evidence
Q99735	6	heart_evidence
J3QR09	5	heart_evidence
Q8N5K1	5	heart_evidence
O00487	4	heart_evidence
Q9Y376	4	heart_evidence
K7EKW4	5	heart_evidence
A6QRG9	1	heart_evidence
E7EWW9	5	heart_evidence
K7EQ90	1	heart_evidence
Q8NDH3-3	1	heart_evidence
P51178	2	heart_evidence
Q0P5T2	3	heart_evidence
B0QYF7	1	heart_evidence
E9PKT9	4	heart_evidence
D6RBW1	4	heart_evidence
M0QYW5	1	heart_evidence
H7C2H7	1	heart_evidence
Q09028-4	2	heart_evidence
E5RID7	2	heart_evidence
Q9NRN7	2	heart_evidence
B4DDV1	2	heart_evidence
C9JTJ1	1	heart_evidence
B4DZT2	1	heart_evidence
P04196	1	heart_evidence
M0R208	2	heart_evidence
H0YAT2	4	heart_evidence
D6RH20	3	heart_evidence
O14896	3	heart_evidence
Q58FF8	2	heart_evidence
B3KVN2	3	heart_evidence
Q6UXV4	44	heart_evidence
Q04941	4	heart_evidence
Q969S9-5	4	heart_evidence
Q969P0-3	2	heart_evidence
H0YGT2	1	heart_evidence
Q9UHD8-7	9	heart_evidence
Q6QEF8-5	6	heart_evidence
Q9ULV4	4	heart_evidence
K7ESP4	5	heart_evidence
Q9Y2S2-2	3	heart_evidence
Q96JG6-3	2	heart_evidence
Q6IAA8	11	heart_evidence
E9PKH0	5	heart_evidence
E9PJF0	1	heart_evidence
REV__P10966-7	1	heart_evidence
Q5VXJ5	11	heart_evidence
Q9UMY4-2	2	heart_evidence
P0CW22	12	heart_evidence
P05164-2	5	heart_evidence
E5RIK5	1	heart_evidence
E9PEB5	11	heart_evidence
Q99880	2	heart_evidence
P29992	7	heart_evidence
Q16611	1	heart_evidence
Q15029-2	3	heart_evidence
Q96E11-8	2	heart_evidence
REV__O75829-2	1	heart_evidence
H0YAC1	3	heart_evidence
E9PLS9	3	heart_evidence
P62136	3	heart_evidence
P03928	17	heart_evidence
C9JQ41	5	heart_evidence
E9PJK1	13	heart_evidence
Q9Y3E1	1	heart_evidence
REV__Q9BTW9-5	1	heart_evidence
P06727	9	heart_evidence
F8W031	3	heart_evidence
Q8WXU2-3	5	heart_evidence
REV__Q9BYV2	3	heart_evidence
H3BR99	1	heart_evidence
P63173	12	heart_evidence
P62304	4	heart_evidence
C9JLU1	1	heart_evidence
H0Y394	2	heart_evidence
Q6IAK0	1	heart_evidence
O43676	9	heart_evidence
Q5W0A2	2	heart_evidence
D6RBS5	1	heart_evidence
CON__Q3ZBD7	5	heart_evidence
P17900	3	heart_evidence
G5E9F8	4	heart_evidence
J3QLQ6	7	heart_evidence
Q08722-2	1	heart_evidence
P00403	50	heart_evidence
Q03013-2	1	heart_evidence
H7BYV6	1	heart_evidence
Q92688-2	5	heart_evidence
Q9P225-2	2	heart_evidence
B4DVY1	4	heart_evidence
J3QLE5	2	heart_evidence
D6RC14	1	heart_evidence
P60891	8	heart_evidence
Q9BX46	2	heart_evidence
O14807	1	heart_evidence
G3V158	1	heart_evidence
P17152	6	heart_evidence
P14174	14	heart_evidence
P46940	5	heart_evidence
REV__Q14D04-2	1	heart_evidence
Q8WUD1	2	heart_evidence
J3QT87	2	heart_evidence
Q5U5X0	3	heart_evidence
F5H6P7	2	heart_evidence
Q9UNH7	1	heart_evidence
P14324-2	1	heart_evidence
B3KSH1	6	heart_evidence
O60488-2	3	heart_evidence
CON__Q6T181	1	heart_evidence
U3KQK5	10	heart_evidence
Q9NRX4	14	heart_evidence
Q5VWC4	7	heart_evidence
REV__O94759-3	2	heart_evidence
A6NF51	4	heart_evidence
REV__P55916-2	3	heart_evidence
P12882	56	heart_evidence
I3L3E4	1	heart_evidence
P05387	2	heart_evidence
Q16718	21	heart_evidence
P04632	16	heart_evidence
Q07666-2	3	heart_evidence
REV__F8W840	1	heart_evidence
P48061-2	1	heart_evidence
C9JDC5	1	heart_evidence
Q12905	4	heart_evidence
Q96BW5-2	1	heart_evidence
P57105	5	heart_evidence
G3V203	6	heart_evidence
C9JS50	3	heart_evidence
Q5RI15	3	heart_evidence
I3NI52	2	heart_evidence
O14907	9	heart_evidence
F8WAE5	3	heart_evidence
O60869-2	2	heart_evidence
B1AKG0	5	heart_evidence
Q969V3-2	2	heart_evidence
Q5T190	1	heart_evidence
Q9BVA1	1	heart_evidence
P59666	12	heart_evidence
Q9NX47	1	heart_evidence
P02786	4	heart_evidence
Q02750	3	heart_evidence
K7EMR7	5	heart_evidence
A6NHZ5	2	heart_evidence
P49841	2	heart_evidence
I3L0X9	6	heart_evidence
Q96I24-2	1	heart_evidence
O75688	2	heart_evidence
E9PGB5	1	heart_evidence
Q9HAB8-2	1	heart_evidence
J3KQA9	1	heart_evidence
Q5T123	9	heart_evidence
C9J8Q1	3	heart_evidence
O15239	11	heart_evidence
Q8N3J5	4	heart_evidence
C9JD32	6	heart_evidence
REV__H3BP27	1	heart_evidence
Q9H8Y8-2	1	heart_evidence
Q13505-3	6	heart_evidence
P28482	5	heart_evidence
Q13217	2	heart_evidence
E9PJT1	2	heart_evidence
P01714	6	heart_evidence
Q70IA6-2	2	heart_evidence
Q8IX04-6	3	heart_evidence
Q12904	1	heart_evidence
Q15526-2	6	heart_evidence
D6RJA0	2	heart_evidence
H0Y614	2	heart_evidence
O14974-5	3	heart_evidence
Q15075	2	heart_evidence
P53990-2	4	heart_evidence
P82914	2	heart_evidence
O95747	4	heart_evidence
F5H3S6	2	heart_evidence
Q9NZN3	5	heart_evidence
P49207	5	heart_evidence
P62736	1	heart_evidence
G8JLM0	3	heart_evidence
D6RAW0	6	heart_evidence
Q53EL6-2	1	heart_evidence
Q8IZQ5	1	heart_evidence
H3BPC4	1	heart_evidence
P06702	18	heart_evidence
A6NNI4	1	heart_evidence
O76070	2	heart_evidence
K7EK00	4	heart_evidence
E5RJR5	4	heart_evidence
U3KQ12	1	heart_evidence
P62807	7	heart_evidence
P04080	17	heart_evidence
Q9BXX0	1	heart_evidence
P46778	4	heart_evidence
P26583	9	heart_evidence
F8W0P7	1	heart_evidence
K7EIJ0	3	heart_evidence
A8MUH7-2	1	heart_evidence
J3QT56	1	heart_evidence
REV__Q0VF96	2	heart_evidence
REV__A4D1T9	1	heart_evidence
O95721	2	heart_evidence
O60502-2	3	heart_evidence
A7E2Y1	6	heart_evidence
F5H7B0	2	heart_evidence
O43325	3	heart_evidence
P21695-2	1	heart_evidence
P23919	2	heart_evidence
Q8N3E9	1	heart_evidence
Q96C01	5	heart_evidence
P51813	1	heart_evidence
Q86VI4-2	1	heart_evidence
Q14CM0	1	heart_evidence
P56181	5	heart_evidence
P46779	11	heart_evidence
H0Y6Y8	5	heart_evidence
F8VZ45	3	heart_evidence
G3V5Q1	3	heart_evidence
H0YKB3	1	heart_evidence
H7C5F2	4	heart_evidence
O76041-2	1	heart_evidence
Q92575	3	heart_evidence
REV__Q6ZWB8	1	heart_evidence
E7ETK0	4	heart_evidence
Q9BTZ2	12	heart_evidence
CON__P20930	9	heart_evidence
Q5QPM2	3	heart_evidence
P62888	10	heart_evidence
E9PJ16	1	heart_evidence
B1AMS2	2	heart_evidence
P16104	3	heart_evidence
O75935-3	6	heart_evidence
Q13185	3	heart_evidence
Q10589-2	2	heart_evidence
H3BNX3	5	heart_evidence
H7C0Q6	1	heart_evidence
H3BMZ9	4	heart_evidence
E9PM35	1	heart_evidence
J3KNT0	8	heart_evidence
Q9H1K1	8	heart_evidence
F5H157	3	heart_evidence
O75251	24	heart_evidence
D6RFI1	1	heart_evidence
E7EUY0	2	heart_evidence
Q5HY81	2	heart_evidence
Q8N163-2	5	heart_evidence
Q9Y6C2	8	heart_evidence
M0R2A8	1	heart_evidence
REV__Q15149-6	4	heart_evidence
P36404	1	heart_evidence
Q96GD0	1	heart_evidence
O75027	6	heart_evidence
C9J8D4	1	heart_evidence
C9JHK9	1	heart_evidence
Q8WZ42-12	1	heart_evidence
B1AKD8	2	heart_evidence
E5RH35	1	heart_evidence
Q9BSF4	2	heart_evidence
R4GMU1	2	heart_evidence
A8MXV4	3	heart_evidence
E9PQ14	3	heart_evidence
Q53FT3	3	heart_evidence
Q9UEW8	2	heart_evidence
Q6DKK2	1	heart_evidence
V5IRT4	3	heart_evidence
Q13445	3	heart_evidence
Q8N474	4	heart_evidence
Q8IWA4-3	2	heart_evidence
P55145	1	heart_evidence
F8VVL1	3	heart_evidence
C9JQD1	2	heart_evidence
C9JRE2	2	heart_evidence
REV__P53370	5	heart_evidence
C9JAX1	10	heart_evidence
Q9H7D7-2	1	heart_evidence
K7ELY9	1	heart_evidence
P63218	5	heart_evidence
P47813	2	heart_evidence
Q32P50	5	heart_evidence
U3KPW6	8	heart_evidence
C4B7M2	7	heart_evidence
Q9BR76	3	heart_evidence
CON__P05787	7	heart_evidence
P61006	1	heart_evidence
Q15555-4	4	heart_evidence
P09493	84	heart_evidence
REV__E9PM19	3	heart_evidence
Q9HDC9	6	heart_evidence
E9PG22	7	heart_evidence
R4GN55	2	heart_evidence
O60664-4	3	heart_evidence
Q96B60	1	heart_evidence
H3BR35	2	heart_evidence
Q6ZUQ1	7	heart_evidence
H0YB02	1	heart_evidence
REV__A6NJG6	1	heart_evidence
K7ENG2	2	heart_evidence
F8VPF5	3	heart_evidence
G3V1N8	1	heart_evidence
K7EPS8	2	heart_evidence
I3L4H1	2	heart_evidence
K7EQ02	3	heart_evidence
Q7L523	3	heart_evidence
G3V5B3	1	heart_evidence
H7C2U8	1	heart_evidence
CON__P07477	23	heart_evidence
Q02218	5	heart_evidence
Q8TD19	2	heart_evidence
E9PB90	1	heart_evidence
P53396-2	5	heart_evidence
P62330	2	heart_evidence
D6R974	5	heart_evidence
C9JWL3	1	heart_evidence
P00748	1	heart_evidence
Q02224-3	5	heart_evidence
Q9H9J2	2	heart_evidence
B4DUE3	2	heart_evidence
P08240-2	4	heart_evidence
P60866	4	heart_evidence
Q71U36-2	3	heart_evidence
P60059	3	heart_evidence
Q6UWE0-2	2	heart_evidence
K7ERC8	2	heart_evidence
P00846	24	heart_evidence
K7ENE3	1	heart_evidence
P03891	14	heart_evidence
O60568	2	heart_evidence
Q5R3B4	38	heart_evidence
B1AHD1	3	heart_evidence
Q8N5M9	1	heart_evidence
A2IDC6	2	heart_evidence
K7EN59	1	heart_evidence
Q14696	2	heart_evidence
C9JVB6	2	heart_evidence
Q8WX93-9	2	heart_evidence
F8WAR6	2	heart_evidence
E9PGE5	2	heart_evidence
REV__Q5VZ46-2	3	heart_evidence
Q9UBB6-2	2	heart_evidence
K7ERW9	2	heart_evidence
E7EP00	4	heart_evidence
F5GX77	2	heart_evidence
D6RDA2	1	heart_evidence
O14561	26	heart_evidence
J3KN69	14	heart_evidence
O43390	5	heart_evidence
P35556	2	heart_evidence
H3BV41	3	heart_evidence
REV__Q07973-3	1	heart_evidence
Q12805-2	3	heart_evidence
H3BM14	4	heart_evidence
P51654	1	heart_evidence
Q86VS8	1	heart_evidence
Q9HBI1-3	2	heart_evidence
Q9UGI8-2	2	heart_evidence
D6RF35	1	heart_evidence
E9PJ81	1	heart_evidence
Q5SZR1	3	heart_evidence
P41250	2	heart_evidence
K7ER90	2	heart_evidence
P57053	7	heart_evidence
Q5SYF5	1	heart_evidence
F5GY80	2	heart_evidence
Q9Y3B4	3	heart_evidence
F5H715	1	heart_evidence
E9PDQ5	2	heart_evidence
R4GMN6	2	heart_evidence
M0QXM3	3	heart_evidence
Q6DT37	6	heart_evidence
P63092-3	5	heart_evidence
F5GXK8	2	heart_evidence
Q9H2D6-5	4	heart_evidence
H0YGW7	2	heart_evidence
G3V3G9	5	heart_evidence
REV__Q5JSL3	2	heart_evidence
REV__H7BZN3	4	heart_evidence
Q5T749	9	heart_evidence
G3V5F4	1	heart_evidence
Q9ULU8-5	1	heart_evidence
M0R0F9	1	heart_evidence
J3QRU4	1	heart_evidence
Q9H0U6	1	heart_evidence
F5GX61	1	heart_evidence
Q13813-3	10	heart_evidence
H7C4P8	32	heart_evidence
H0YNP9	1	heart_evidence
REV__Q6AI12	1	heart_evidence
H3BQ48	2	heart_evidence
REV__Q8TDM6-2	2	heart_evidence
P02100	4	heart_evidence
P62314	3	heart_evidence
P84074	2	heart_evidence
H0Y332	1	heart_evidence
Q9P0M6	1	heart_evidence
Q96GE9-2	3	heart_evidence
P11717	2	heart_evidence
P01825	1	heart_evidence
Q32MZ4-4	1	heart_evidence
C9JME8	1	heart_evidence
Q9Y333	4	heart_evidence
Q6PML9	2	heart_evidence
P62072	2	heart_evidence
Q9BRF8	6	heart_evidence
O75394	2	heart_evidence
CON__P08727	2	heart_evidence
Q5H8X8	1	heart_evidence
Q8WVV4	2	heart_evidence
B7Z229	2	heart_evidence
M0R165	4	heart_evidence
O15400-2	5	heart_evidence
H0YA80	1	heart_evidence
E9PE17	3	heart_evidence
H3BVG0	2	heart_evidence
G3V4P8	2	heart_evidence
Q8TCA0-3	1	heart_evidence
Q9Y266	2	heart_evidence
B7Z3E2	1	heart_evidence
E9PMH2	1	heart_evidence
E9PLL6	4	heart_evidence
B4DI26	2	heart_evidence
P55001-3	6	heart_evidence
Q9HB40-2	2	heart_evidence
Q15695	1	heart_evidence
K7EKG4	2	heart_evidence
F8W8Y4	1	heart_evidence
E9PFW3	5	heart_evidence
P15954	14	heart_evidence
Q567Q0	1	heart_evidence
O60237-4	6	heart_evidence
P78543	1	heart_evidence
I3L1K7	1	heart_evidence
F8W870	1	heart_evidence
Q8WUY1	6	heart_evidence
O75781-2	2	heart_evidence
E9PP75	1	heart_evidence
P20338	1	heart_evidence
C9JRL4	1	heart_evidence
A8MTT3	3	heart_evidence
REV__Q96ST8-3	3	heart_evidence
S4R354	1	heart_evidence
P56539	2	heart_evidence
O75663-2	3	heart_evidence
B4DE93	1	heart_evidence
Q86YA3-2	1	heart_evidence
Q13033-2	2	heart_evidence
REV__Q9NWT8	1	heart_evidence
H3BS66	1	heart_evidence
E9PDE8	4	heart_evidence
E5RFG1	8	heart_evidence
REV__E9PCY0	1	heart_evidence
F8WDZ3	1	heart_evidence
P23434	4	heart_evidence
H7BYV1	8	heart_evidence
Q6ZP98	1	heart_evidence
Q9H5V7	1	heart_evidence
Q9UBB4	3	heart_evidence
Q96FJ2	22	heart_evidence
P63167	3	heart_evidence
H0YLR3	1	heart_evidence
P08493	3	heart_evidence
Q12955-5	3	heart_evidence
B5MD23	1	heart_evidence
P51398-2	2	heart_evidence
O75844	1	heart_evidence
P82663	3	heart_evidence
E5RGY0	1	heart_evidence
P07711	2	heart_evidence
S4R369	1	heart_evidence
Q8N4V1	3	heart_evidence
Q9BT09	1	heart_evidence
C9J1Z8	2	heart_evidence
Q9Y5U9	7	heart_evidence
P15531	4	heart_evidence
Q9GZP4-2	1	heart_evidence
O75569-3	3	heart_evidence
J3QL71	4	heart_evidence
J3QL14	1	heart_evidence
P13535	1	heart_evidence
Q96DZ1-3	2	heart_evidence
REV__Q9P2D7-2	3	heart_evidence
J3KQU9	2	heart_evidence
E9PKV2	1	heart_evidence
E9PQY2	2	heart_evidence
P61009	2	heart_evidence
B4E3L0	1	heart_evidence
E7ES19	12	heart_evidence
E7EMB1	3	heart_evidence
F6T1Q0	2	heart_evidence
E9PBZ9	1	heart_evidence
Q9H8E8-2	4	heart_evidence
E5RG91	2	heart_evidence
P01781	1	heart_evidence
P01772	1	heart_evidence
Q86WV7	1	heart_evidence
P03950	2	heart_evidence
C9JR67	2	heart_evidence
F5H5A9	1	heart_evidence
H7C2P7	2	heart_evidence
Q9Y6H1	3	heart_evidence
REV__P01712	8	heart_evidence
Q9UHP9	1	heart_evidence
REV__K7ELH8	4	heart_evidence
A2A2V1	3	heart_evidence
G5E972	2	heart_evidence
F5H843	8	heart_evidence
Q92900-2	1	heart_evidence
Q709F0-3	3	heart_evidence
E9PPP7	1	heart_evidence
E7EQ49	2	heart_evidence
Q16891-3	9	heart_evidence
P60602-2	4	heart_evidence
Q7L4S7	1	heart_evidence
J3KS15	2	heart_evidence
P23083	3	heart_evidence
Q8N0X4	3	heart_evidence
Q7Z7F7	1	heart_evidence
P46108-2	2	heart_evidence
Q96S99	1	heart_evidence
A4UGR9-2	6	heart_evidence
B7ZM02	1	heart_evidence
B5MBW9	2	heart_evidence
Q9Y305-4	3	heart_evidence
O43819	5	heart_evidence
P01112	1	heart_evidence
Q5T6N2	17	heart_evidence
P60953	12	heart_evidence
Q96I36	3	heart_evidence
Q9P000	2	heart_evidence
Q5TGM0	2	heart_evidence
Q9Y320-2	1	heart_evidence
P60228	3	heart_evidence
G3V126	1	heart_evidence
Q13064	1	heart_evidence
O60237-3	1	heart_evidence
Q68EM7-2	2	heart_evidence
Q5TB30-2	4	heart_evidence
P10636	2	heart_evidence
H7C4S4	1	heart_evidence
K4DIA1	1	heart_evidence
F8W785	1	heart_evidence
F2Z2B0	1	heart_evidence
C9JA28	1	heart_evidence
Q9NZD4	1	heart_evidence
Q6UWS5	1	heart_evidence
E7ESJ7	2	heart_evidence
Q9Y371	2	heart_evidence
B7ZC39	2	heart_evidence
E7EWM1	1	heart_evidence
P54577	2	heart_evidence
Q8WY22	6	heart_evidence
P51151	1	heart_evidence
Q8WZ42-3	2	heart_evidence
Q8WZ42-2	3	heart_evidence
E9PHI4	5	heart_evidence
P61224-3	3	heart_evidence
M0QZ75	1	heart_evidence
P15151-3	4	heart_evidence
K7ERG9	2	heart_evidence
C9JTD3	1	heart_evidence
B4DFN6	1	heart_evidence
P01700	2	heart_evidence
B4DH42	1	heart_evidence
P08246	3	heart_evidence
P24311	11	heart_evidence
REV__D6RF07	4	heart_evidence
Q3KQV9	1	heart_evidence
Q8WX93-4	1	heart_evidence
J3QQP6	1	heart_evidence
Q8TEA8	2	heart_evidence
O95197-3	4	heart_evidence
Q8NDC0	1	heart_evidence
Q9NRX5	1	heart_evidence
P49748	20	heart_evidence
H7BZJ3	1	heart_evidence
Q7Z4G1	1	heart_evidence
P01743	2	heart_evidence
Q5T093	2	heart_evidence
C9JA07	2	heart_evidence
Q9NZJ9	8	heart_evidence
P10412	1	heart_evidence
A6NHL2-2	1	heart_evidence
J3KQ45	1	heart_evidence
Q9Y3D0	3	heart_evidence
O76031	2	heart_evidence
C9JYN0	4	heart_evidence
CON__P02538	3	heart_evidence
E9PQB5	1	heart_evidence
C9J0K6	2	heart_evidence
Q96CT7	2	heart_evidence
P02652	4	heart_evidence
Q8TBQ9	2	heart_evidence
Q8N5X7	1	heart_evidence
Q9Y678	3	heart_evidence
C9J0G0	2	heart_evidence
Q9UDY2-6	1	heart_evidence
CON__P02668	4	heart_evidence
O15254-2	2	heart_evidence
O14639-5	2	heart_evidence
REV__B4E2G4	6	heart_evidence
P00739	1	heart_evidence
Q9Y534	3	heart_evidence
Q16851-2	1	heart_evidence
B5TY33	2	heart_evidence
Q16186	3	heart_evidence
C9JA05	2	heart_evidence
E9PMU9	1	heart_evidence
O94875-8	1	heart_evidence
Q8TF72	13	heart_evidence
B4DIV7	1	heart_evidence
Q13542	1	heart_evidence
Q5SXM7	1	heart_evidence
H3BU49	2	heart_evidence
REV__F8W1J9	1	heart_evidence
Q8TCC3	2	heart_evidence
H7BYX8	1	heart_evidence
P03897	8	heart_evidence
I3L245	1	heart_evidence
Q9BUT1	3	heart_evidence
P52306-6	1	heart_evidence
Q9H0B6-2	1	heart_evidence
O94875-4	7	heart_evidence
P02545-2	4	heart_evidence
O43399-2	2	heart_evidence
Q86UE4	1	heart_evidence
U3KQ85	1	heart_evidence
P01717	2	heart_evidence
J3QL05	8	heart_evidence
Q99766	2	heart_evidence
Q9Y6I3-3	1	heart_evidence
Q15847	1	heart_evidence
P01771	1	heart_evidence
H3BM18	1	heart_evidence
Q5VSN0	1	heart_evidence
H7BZT4	2	heart_evidence
F6U236	2	heart_evidence
E7ENV7	1	heart_evidence
P11166	2	heart_evidence
Q5T750	1	heart_evidence
P42773	2	heart_evidence
E7EUG3	2	heart_evidence
K7EP23	1	heart_evidence
Q9BV86-2	2	heart_evidence
P36959	3	heart_evidence
Q5SRN7	2	heart_evidence
A2AEA2	2	heart_evidence
P30685	5	heart_evidence
Q9ULC0-2	2	heart_evidence
P31689-2	2	heart_evidence
E7EPV7	2	heart_evidence
Q9NX20	1	heart_evidence
P46109	1	heart_evidence
C9J1X0	1	heart_evidence
CON__P02676	1	heart_evidence
D6REA0	2	heart_evidence
Q6P1L8	3	heart_evidence
Q96S44	1	heart_evidence
F8W6G1	1	heart_evidence
CON__Q8N1N4-2	2	heart_evidence
J3KQ48	1	heart_evidence
O43464-2	1	heart_evidence
Q96HC4-3	1	heart_evidence
C9JXA7	1	heart_evidence
Q5T2H3	1	heart_evidence
E7EWQ4	1	heart_evidence
E7EUI7	1	heart_evidence
Q86YP9	2	heart_evidence
P01861	7	heart_evidence
P08579	2	heart_evidence
F8W9V1	1	heart_evidence
P82921	3	heart_evidence
P12273	1	heart_evidence
B4DZN9	1	heart_evidence
H3BQ06	1	heart_evidence
Q07002	1	heart_evidence
K7ELQ0	2	heart_evidence
B4DJP7	4	heart_evidence
Q96HY6-2	1	heart_evidence
B7Z8V7	1	heart_evidence
H0Y8N7	1	heart_evidence
E5RGN3	1	heart_evidence
Q5TBH6	1	heart_evidence
Q15678	1	heart_evidence
CON__Q3SX09	2	heart_evidence
K7EP46	2	heart_evidence
G3V448	1	heart_evidence
P17066	13	heart_evidence
Q5JVF3-3	1	heart_evidence
F5H7F6	1	heart_evidence
Q8IVP5	2	heart_evidence
H7C0I0	2	heart_evidence
Q14558	1	heart_evidence
REV__Q96TA2-3	5	heart_evidence
REV__Q9UBN7-2	1	heart_evidence
Q8WVI0	2	heart_evidence
E9PGH5	3	heart_evidence
REV__A6NJ78	1	heart_evidence
Q8N8S7-2	2	heart_evidence
Q9UBX3	1	heart_evidence
Q5EBL4-2	1	heart_evidence
B7Z3C7	1	heart_evidence
H0YE57	1	heart_evidence
H7C024	3	heart_evidence
Q9NPQ8-2	2	heart_evidence
REV__E7EX53	1	heart_evidence
E9PIE4	1	heart_evidence
Q86X83	1	heart_evidence
Q9UJ68-2	4	heart_evidence
P31947-2	4	heart_evidence
A8K7Q2	1	heart_evidence
Q14697-2	2	heart_evidence
Q15149-3	2	heart_evidence
H3BRY5	1	heart_evidence
P26640	1	heart_evidence
Q9Y3L5	1	heart_evidence
H9KV70	1	heart_evidence
Q14353	1	heart_evidence
P36639-4	1	heart_evidence
H3BPH4	1	heart_evidence
H0YJC6	5	heart_evidence
Q9P015	2	heart_evidence
Q6P577	2	heart_evidence
Q08554-2	2	heart_evidence
Q53S33	1	heart_evidence
Q9BTM9	2	heart_evidence
Q15386	1	heart_evidence
E9PD39	6	heart_evidence
Q8IYS1	1	heart_evidence
O75112-2	19	heart_evidence
B8ZZB8	1	heart_evidence
B4E220	3	heart_evidence
F5H0Y3	1	heart_evidence
Q9BRJ2	1	heart_evidence
H3BN98	1	heart_evidence
F8WF27	1	heart_evidence
Q5T0D9	1	heart_evidence
P13760	1	heart_evidence
F8W0M9	1	heart_evidence
E9PQD8	1	heart_evidence
Q9BSF0	1	heart_evidence
Q9BWJ5	3	heart_evidence
A6NLH6	1	heart_evidence
O95376	1	heart_evidence
S4R3P0	1	heart_evidence
Q5HYI8	1	heart_evidence
S4R2X5	1	heart_evidence
Q9UJU6-2	1	heart_evidence
H0YGS3	3	heart_evidence
