Leading Razor Protein	N	tissue
Q86U42-2	1	pancreas_evidence
P36578	60	pancreas_evidence
P51608-2	28	pancreas_evidence
P28482-2	14	pancreas_evidence
P09417	10	pancreas_evidence
Q8WVM8	19	pancreas_evidence
Q9Y2Z0-2	3	pancreas_evidence
E9PJF0	4	pancreas_evidence
D6RBD7	2	pancreas_evidence
Q00796	11	pancreas_evidence
Q15005	19	pancreas_evidence
O00231	17	pancreas_evidence
P55263-3	7	pancreas_evidence
P07954-2	21	pancreas_evidence
O94826	13	pancreas_evidence
P35221	64	pancreas_evidence
Q9UL25	6	pancreas_evidence
Q96T51	6	pancreas_evidence
P08107	63	pancreas_evidence
Q16853	28	pancreas_evidence
Q13423	24	pancreas_evidence
O43598	6	pancreas_evidence
C9JRZ6	10	pancreas_evidence
E7ESM9	4	pancreas_evidence
P53618	55	pancreas_evidence
Q92506	5	pancreas_evidence
D6RGI3	29	pancreas_evidence
Q5VWZ2-2	6	pancreas_evidence
P08559-3	13	pancreas_evidence
P14555	3	pancreas_evidence
Q9UDW1	2	pancreas_evidence
J9JID7	63	pancreas_evidence
Q7KZF4	96	pancreas_evidence
Q13087-2	70	pancreas_evidence
E7EPT4	5	pancreas_evidence
P35749-4	123	pancreas_evidence
O95336	8	pancreas_evidence
CON__P02768-1	809	pancreas_evidence
Q01813	16	pancreas_evidence
Q14980	66	pancreas_evidence
Q9UNF0-2	15	pancreas_evidence
Q9UBQ7	16	pancreas_evidence
B4DNI9	3	pancreas_evidence
P02766	21	pancreas_evidence
Q6ZN40	83	pancreas_evidence
P51452	4	pancreas_evidence
Q86VP6	55	pancreas_evidence
E9PCN5	1	pancreas_evidence
Q15293	8	pancreas_evidence
M0QXF9	10	pancreas_evidence
P30038-2	5	pancreas_evidence
Q92616	18	pancreas_evidence
O75569-3	5	pancreas_evidence
J3KSI4	4	pancreas_evidence
Q8IZ83	14	pancreas_evidence
Q08211	68	pancreas_evidence
B8ZZQ6	2	pancreas_evidence
Q9Y2A7	16	pancreas_evidence
Q01995	88	pancreas_evidence
Q15149-8	564	pancreas_evidence
P09496-2	6	pancreas_evidence
P20962	3	pancreas_evidence
P11586	46	pancreas_evidence
Q96FW1	5	pancreas_evidence
P29966	10	pancreas_evidence
P07108	6	pancreas_evidence
P12111-2	1091	pancreas_evidence
O94906	14	pancreas_evidence
P00390-5	16	pancreas_evidence
P54707	1	pancreas_evidence
P33176	31	pancreas_evidence
O95372	3	pancreas_evidence
J3QSV6	8	pancreas_evidence
B4DZI8	57	pancreas_evidence
P62258	54	pancreas_evidence
P35908	229	pancreas_evidence
P04406	71	pancreas_evidence
P05091	20	pancreas_evidence
Q6XQN6-3	5	pancreas_evidence
Q3LXA3	17	pancreas_evidence
P09758	6	pancreas_evidence
E7ERF4	3	pancreas_evidence
Q8N1G4	18	pancreas_evidence
Q9Y490	247	pancreas_evidence
P28838-2	26	pancreas_evidence
Q9BQ69	3	pancreas_evidence
P27694	10	pancreas_evidence
O75369-2	255	pancreas_evidence
J3KRF7	2	pancreas_evidence
P60468	9	pancreas_evidence
Q8N5M9	2	pancreas_evidence
P26641	32	pancreas_evidence
P52272-2	70	pancreas_evidence
P98160	620	pancreas_evidence
Q9Y230	14	pancreas_evidence
F8WB69	1	pancreas_evidence
Q15833-2	6	pancreas_evidence
O43795-2	30	pancreas_evidence
Q9UQ80	23	pancreas_evidence
H3BMM5	2	pancreas_evidence
P78371	29	pancreas_evidence
P36269-2	20	pancreas_evidence
Q92804-2	8	pancreas_evidence
H3BPE7	4	pancreas_evidence
Q9UHB9	35	pancreas_evidence
P07741-2	15	pancreas_evidence
P35232	15	pancreas_evidence
Q9P2E9	361	pancreas_evidence
O14744-2	11	pancreas_evidence
O00534	12	pancreas_evidence
B5MBZ0	29	pancreas_evidence
Q9NP79	3	pancreas_evidence
P11766	29	pancreas_evidence
P34897-3	12	pancreas_evidence
CON__P08727	147	pancreas_evidence
P12081-4	13	pancreas_evidence
Q9NRV9	5	pancreas_evidence
Q9BRX8-2	5	pancreas_evidence
G3V1D4	4	pancreas_evidence
Q96HJ9-2	7	pancreas_evidence
Q13813	384	pancreas_evidence
P07814	65	pancreas_evidence
Q6PGP7	17	pancreas_evidence
Q9NRN5-2	4	pancreas_evidence
Q9BY43	4	pancreas_evidence
P61586	17	pancreas_evidence
P62851	13	pancreas_evidence
D3YTB1	21	pancreas_evidence
O95831	27	pancreas_evidence
P55084	33	pancreas_evidence
Q96KP4	22	pancreas_evidence
Q9BS40	3	pancreas_evidence
P02792	29	pancreas_evidence
Q16891-2	56	pancreas_evidence
Q96G03	27	pancreas_evidence
P14923	49	pancreas_evidence
O94875-11	71	pancreas_evidence
P01019	9	pancreas_evidence
P18206-2	187	pancreas_evidence
P25787	7	pancreas_evidence
E9PL22	70	pancreas_evidence
Q8NBY1	3	pancreas_evidence
O75489	6	pancreas_evidence
P31146	10	pancreas_evidence
Q96TA1-2	30	pancreas_evidence
Q15181	7	pancreas_evidence
Q15233	29	pancreas_evidence
Q92979	2	pancreas_evidence
P0CG05	27	pancreas_evidence
Q9BRP8-2	2	pancreas_evidence
E5RGS4	3	pancreas_evidence
P37837	28	pancreas_evidence
H7C2L4	7	pancreas_evidence
J3KPS3	34	pancreas_evidence
P35520	6	pancreas_evidence
Q15075	53	pancreas_evidence
P09622	18	pancreas_evidence
Q969V3-2	15	pancreas_evidence
G3XAI2	115	pancreas_evidence
B1AK13	4	pancreas_evidence
P48052	58	pancreas_evidence
P01023	122	pancreas_evidence
O75367-2	19	pancreas_evidence
Q96HY6	9	pancreas_evidence
P31323	4	pancreas_evidence
P13861	16	pancreas_evidence
P14550	31	pancreas_evidence
P10412	62	pancreas_evidence
P09525	119	pancreas_evidence
Q92905	5	pancreas_evidence
P10643	33	pancreas_evidence
P26640	61	pancreas_evidence
G5EA52	91	pancreas_evidence
Q9UBV2	9	pancreas_evidence
P16870-2	31	pancreas_evidence
Q96N66	3	pancreas_evidence
B4DNJ6	3	pancreas_evidence
B7Z254	34	pancreas_evidence
I3L1P8	6	pancreas_evidence
P01042-3	5	pancreas_evidence
Q9HCC0-2	14	pancreas_evidence
Q14683	26	pancreas_evidence
Q86TX2	5	pancreas_evidence
P13667	105	pancreas_evidence
Q14204	200	pancreas_evidence
P13611-2	65	pancreas_evidence
P02649	8	pancreas_evidence
G3V4W0	37	pancreas_evidence
P22314	63	pancreas_evidence
Q13155	5	pancreas_evidence
Q5Y7A7	9	pancreas_evidence
P31153	12	pancreas_evidence
A6NMH6	4	pancreas_evidence
P10809	66	pancreas_evidence
Q14974	37	pancreas_evidence
Q99460-2	21	pancreas_evidence
H7BY36	7	pancreas_evidence
P12110	230	pancreas_evidence
Q8WUM4	61	pancreas_evidence
Q9BUT1	4	pancreas_evidence
B7Z3I9	8	pancreas_evidence
Q13435	17	pancreas_evidence
P12270	21	pancreas_evidence
P00326	5	pancreas_evidence
P00325	104	pancreas_evidence
B4DGU4	48	pancreas_evidence
P05023-4	85	pancreas_evidence
P09327	8	pancreas_evidence
P06733	71	pancreas_evidence
Q15046	34	pancreas_evidence
P15085	179	pancreas_evidence
P01024	152	pancreas_evidence
B7Z9I1	14	pancreas_evidence
O75955	12	pancreas_evidence
P02545	423	pancreas_evidence
P05141	22	pancreas_evidence
P12236	2	pancreas_evidence
P04083	50	pancreas_evidence
Q14019	5	pancreas_evidence
P52758	4	pancreas_evidence
P62873	10	pancreas_evidence
Q96QK1	30	pancreas_evidence
P31040	28	pancreas_evidence
P00558	78	pancreas_evidence
P48449-3	14	pancreas_evidence
P36915	7	pancreas_evidence
P62879	23	pancreas_evidence
Q99536	25	pancreas_evidence
P09382	19	pancreas_evidence
E9PBS1	7	pancreas_evidence
B1AHD1	4	pancreas_evidence
O95154	16	pancreas_evidence
P60981	17	pancreas_evidence
A0AVT1	9	pancreas_evidence
P12814	1	pancreas_evidence
O43707	249	pancreas_evidence
O95782-2	23	pancreas_evidence
P55259-3	121	pancreas_evidence
P35442	16	pancreas_evidence
P61247	38	pancreas_evidence
P63104	43	pancreas_evidence
P49368	33	pancreas_evidence
P04844	29	pancreas_evidence
J3KNL3	14	pancreas_evidence
P23396	48	pancreas_evidence
E5RHW4	11	pancreas_evidence
F8W8S0	21	pancreas_evidence
P08758	72	pancreas_evidence
O60832	18	pancreas_evidence
F8W9X7	17	pancreas_evidence
K7ENK9	3	pancreas_evidence
B4DUR9	3	pancreas_evidence
P42704	53	pancreas_evidence
S4R3N1	1	pancreas_evidence
P39060-2	54	pancreas_evidence
O95202	8	pancreas_evidence
P00441	11	pancreas_evidence
O75821	5	pancreas_evidence
P62495	9	pancreas_evidence
P61764	8	pancreas_evidence
Q9P2B2	32	pancreas_evidence
J3QL14	5	pancreas_evidence
Q9Y3Z3	35	pancreas_evidence
P48739	5	pancreas_evidence
H3BRV9	3	pancreas_evidence
O14737	4	pancreas_evidence
Q06830	37	pancreas_evidence
P14868	31	pancreas_evidence
P35579	773	pancreas_evidence
P11498	9	pancreas_evidence
P52907	6	pancreas_evidence
O95573	15	pancreas_evidence
F5GXX5	9	pancreas_evidence
P35237	29	pancreas_evidence
K7ES70	10	pancreas_evidence
P00915	22	pancreas_evidence
Q9Y285	19	pancreas_evidence
F5GXS0	65	pancreas_evidence
O43390	43	pancreas_evidence
Q5JR95	24	pancreas_evidence
P08238	88	pancreas_evidence
G8JLA8	35	pancreas_evidence
Q9UHB6	12	pancreas_evidence
E9PEN8	8	pancreas_evidence
P62269	27	pancreas_evidence
J3KQU0	9	pancreas_evidence
Q09666	449	pancreas_evidence
B4DL14	12	pancreas_evidence
P50914	24	pancreas_evidence
P06748-3	30	pancreas_evidence
Q09028-3	5	pancreas_evidence
O43301	10	pancreas_evidence
P06576	55	pancreas_evidence
P56192	20	pancreas_evidence
P68036-2	3	pancreas_evidence
P61106	5	pancreas_evidence
P47755	16	pancreas_evidence
CON__P13645	331	pancreas_evidence
P10301	9	pancreas_evidence
C9JFR7	6	pancreas_evidence
P07900	151	pancreas_evidence
Q96C19	7	pancreas_evidence
P50453	6	pancreas_evidence
G3V5I3	102	pancreas_evidence
P30740	37	pancreas_evidence
P31930	12	pancreas_evidence
P35580-4	133	pancreas_evidence
P26639	27	pancreas_evidence
Q01518	38	pancreas_evidence
P40939	60	pancreas_evidence
O00629	4	pancreas_evidence
P36871	39	pancreas_evidence
G3V1R9	8	pancreas_evidence
Q3SY69	50	pancreas_evidence
O75891	29	pancreas_evidence
Q9H4M9	7	pancreas_evidence
P41219	23	pancreas_evidence
H0Y7A7	23	pancreas_evidence
O43772	6	pancreas_evidence
Q12805-2	25	pancreas_evidence
Q9H223	20	pancreas_evidence
P62263	9	pancreas_evidence
P02787	104	pancreas_evidence
E9PIY1	3	pancreas_evidence
F5GZU3	10	pancreas_evidence
P04040	26	pancreas_evidence
Q92900-2	11	pancreas_evidence
B3KTC7	6	pancreas_evidence
CON__P48668	6	pancreas_evidence
Q9UHD8-7	16	pancreas_evidence
E7ES33	33	pancreas_evidence
J3KQ45	7	pancreas_evidence
B7Z7A3	10	pancreas_evidence
Q13263	22	pancreas_evidence
Q96JB2	4	pancreas_evidence
P09493-8	2	pancreas_evidence
CON__Q3KNV1	55	pancreas_evidence
Q02952-3	12	pancreas_evidence
P04264	507	pancreas_evidence
CON__P05787	281	pancreas_evidence
Q8NE62	7	pancreas_evidence
P49411	34	pancreas_evidence
P56182	1	pancreas_evidence
P21333-2	962	pancreas_evidence
Q8TC07-2	7	pancreas_evidence
Q9UHG2	7	pancreas_evidence
P14543	69	pancreas_evidence
P13796	25	pancreas_evidence
E9PLB0	3	pancreas_evidence
E5RIW3	8	pancreas_evidence
P07355	105	pancreas_evidence
P15880	29	pancreas_evidence
Q9Y3Q3	3	pancreas_evidence
Q86XR7-2	8	pancreas_evidence
P54317	45	pancreas_evidence
P01764	3	pancreas_evidence
P01766	2	pancreas_evidence
P15086	125	pancreas_evidence
P27824	95	pancreas_evidence
P36543	6	pancreas_evidence
P62913	23	pancreas_evidence
E9PJ81	2	pancreas_evidence
H2N331	2	pancreas_evidence
B4DIT7	177	pancreas_evidence
P11387	11	pancreas_evidence
Q9BWH2	5	pancreas_evidence
J3KTF8	21	pancreas_evidence
D6RA00	2	pancreas_evidence
Q9H4A4	20	pancreas_evidence
Q05682-5	131	pancreas_evidence
CON__P02769	20	pancreas_evidence
P67936	21	pancreas_evidence
Q96I24	3	pancreas_evidence
Q00839	99	pancreas_evidence
Q9BX68	5	pancreas_evidence
Q15155	28	pancreas_evidence
P07237	184	pancreas_evidence
Q9NZB2	11	pancreas_evidence
O14617-4	7	pancreas_evidence
P20700	40	pancreas_evidence
Q9UH99	29	pancreas_evidence
Q99805	5	pancreas_evidence
P16615	35	pancreas_evidence
E7EX90	24	pancreas_evidence
Q14697-2	112	pancreas_evidence
Q99832	30	pancreas_evidence
J3KN67	23	pancreas_evidence
Q13200	33	pancreas_evidence
Q12797-10	8	pancreas_evidence
P23246	41	pancreas_evidence
Q14244-3	3	pancreas_evidence
P15924	62	pancreas_evidence
Q4ZFW0	1	pancreas_evidence
P02647	30	pancreas_evidence
P09493-3	13	pancreas_evidence
P33121	35	pancreas_evidence
F2Z2U8	21	pancreas_evidence
Q14247	18	pancreas_evidence
Q5T1Z0	3	pancreas_evidence
Q02252	22	pancreas_evidence
B9ZVX0	8	pancreas_evidence
P50440-2	96	pancreas_evidence
F8WCF6	6	pancreas_evidence
Q15404	10	pancreas_evidence
O00505	2	pancreas_evidence
P51572	23	pancreas_evidence
I3L0N3	42	pancreas_evidence
P61088	11	pancreas_evidence
P41252	32	pancreas_evidence
P61158	18	pancreas_evidence
P80723	4	pancreas_evidence
P09874	49	pancreas_evidence
P02748	19	pancreas_evidence
B4E1K7	6	pancreas_evidence
P55268	23	pancreas_evidence
P24043	89	pancreas_evidence
H0YC27	1	pancreas_evidence
Q15437	42	pancreas_evidence
Q9NR28-2	6	pancreas_evidence
B4DUC8	5	pancreas_evidence
P13797	41	pancreas_evidence
Q16363-2	15	pancreas_evidence
C9JFE4	6	pancreas_evidence
F5H365	14	pancreas_evidence
O60493-2	6	pancreas_evidence
P07951-2	29	pancreas_evidence
Q96I15	13	pancreas_evidence
H3BNG9	1	pancreas_evidence
K7EQJ5	9	pancreas_evidence
Q15393	20	pancreas_evidence
Q7L1Q6-2	3	pancreas_evidence
P40429	45	pancreas_evidence
Q00059	4	pancreas_evidence
Q01081	4	pancreas_evidence
P30084	19	pancreas_evidence
P35241	18	pancreas_evidence
P22102	16	pancreas_evidence
Q14166	13	pancreas_evidence
P26373	41	pancreas_evidence
E9PLT1	10	pancreas_evidence
O95373	4	pancreas_evidence
Q6NVY1	19	pancreas_evidence
P11047	155	pancreas_evidence
P53396	50	pancreas_evidence
Q01082	299	pancreas_evidence
P55072	105	pancreas_evidence
Q7Z5L7	27	pancreas_evidence
E7ETT4	11	pancreas_evidence
P49189	20	pancreas_evidence
E9PLK3	31	pancreas_evidence
Q9H479	4	pancreas_evidence
E7EX17	18	pancreas_evidence
B4E241	9	pancreas_evidence
P17987	26	pancreas_evidence
Q00341	125	pancreas_evidence
Q9H3P7	10	pancreas_evidence
E9PF19	23	pancreas_evidence
E9PH64	5	pancreas_evidence
F5H897	16	pancreas_evidence
D6RGG3	209	pancreas_evidence
P49207	12	pancreas_evidence
D6RCD0	12	pancreas_evidence
P39059	19	pancreas_evidence
P61026	9	pancreas_evidence
P39023	62	pancreas_evidence
Q00610-2	285	pancreas_evidence
F8W7I9	9	pancreas_evidence
P35270	7	pancreas_evidence
P08253	9	pancreas_evidence
P13010	69	pancreas_evidence
P34932	23	pancreas_evidence
P10768	9	pancreas_evidence
O75881	1	pancreas_evidence
A6NLG9	127	pancreas_evidence
B4DR61	14	pancreas_evidence
O60506-2	26	pancreas_evidence
P11279	16	pancreas_evidence
C9JAB2	9	pancreas_evidence
P31939	32	pancreas_evidence
O00442	2	pancreas_evidence
Q07021	4	pancreas_evidence
P48147	26	pancreas_evidence
P01833	8	pancreas_evidence
O95394	15	pancreas_evidence
P50895	22	pancreas_evidence
J3KNN5	3	pancreas_evidence
Q93084-4	2	pancreas_evidence
P61011	13	pancreas_evidence
Q9BXP5-5	13	pancreas_evidence
P40926	47	pancreas_evidence
O15230	99	pancreas_evidence
P06396-2	94	pancreas_evidence
B3KUE5	4	pancreas_evidence
P08240	33	pancreas_evidence
K7EJQ7	5	pancreas_evidence
Q9Y678	61	pancreas_evidence
Q86UX7-2	8	pancreas_evidence
E9PF18	11	pancreas_evidence
P51858	12	pancreas_evidence
P08603	25	pancreas_evidence
Q15746-7	13	pancreas_evidence
P25311	11	pancreas_evidence
P60709	281	pancreas_evidence
P61163	9	pancreas_evidence
F5H6E2	57	pancreas_evidence
A2A283	1	pancreas_evidence
P41091	21	pancreas_evidence
Q92598-2	2	pancreas_evidence
Q9Y446	10	pancreas_evidence
P20618	5	pancreas_evidence
H0YKI0	1	pancreas_evidence
Q9Y6U3-2	3	pancreas_evidence
Q8NBX0	4	pancreas_evidence
Q9BWD1	5	pancreas_evidence
P12109	234	pancreas_evidence
P09669	8	pancreas_evidence
P13639	158	pancreas_evidence
P24752	23	pancreas_evidence
Q13616	4	pancreas_evidence
P06753-2	7	pancreas_evidence
P08294	15	pancreas_evidence
O94760	18	pancreas_evidence
P49748	50	pancreas_evidence
Q04446	20	pancreas_evidence
Q08AM6	9	pancreas_evidence
Q99878	35	pancreas_evidence
Q5JR08	1	pancreas_evidence
E9PNW4	7	pancreas_evidence
Q8NC56	6	pancreas_evidence
F8W786	5	pancreas_evidence
E9PFN5	7	pancreas_evidence
P40227	26	pancreas_evidence
P23381	12	pancreas_evidence
P18124	39	pancreas_evidence
K7EJT5	3	pancreas_evidence
P09455-2	1	pancreas_evidence
P55809	6	pancreas_evidence
Q15691	5	pancreas_evidence
P61604	12	pancreas_evidence
F5H7U0	17	pancreas_evidence
O14732	3	pancreas_evidence
P23141-3	17	pancreas_evidence
Q8WX93-4	30	pancreas_evidence
P22033	13	pancreas_evidence
P09543-2	9	pancreas_evidence
Q9Y696	8	pancreas_evidence
O94819	4	pancreas_evidence
B0UX83	3	pancreas_evidence
H7BYY1	6	pancreas_evidence
O43175	20	pancreas_evidence
P12814-3	97	pancreas_evidence
P06756-3	4	pancreas_evidence
Q9UJ70	10	pancreas_evidence
B7Z6B8	14	pancreas_evidence
B9A064	7	pancreas_evidence
O75340	6	pancreas_evidence
P62424	28	pancreas_evidence
Q16643	4	pancreas_evidence
Q6UXG2-3	13	pancreas_evidence
S4R3N9	1	pancreas_evidence
P35555	536	pancreas_evidence
P46777	31	pancreas_evidence
Q6NZI2	37	pancreas_evidence
O75083	38	pancreas_evidence
Q9UL12	30	pancreas_evidence
B5MC98	3	pancreas_evidence
P07585	177	pancreas_evidence
B4DIV7	7	pancreas_evidence
E7ENJ6	4	pancreas_evidence
Q9Y6Q5	6	pancreas_evidence
P10253	22	pancreas_evidence
P04746	206	pancreas_evidence
Q9NYK5	1	pancreas_evidence
Q9BSH5	3	pancreas_evidence
P18077	12	pancreas_evidence
P02462-2	91	pancreas_evidence
P30043	14	pancreas_evidence
P30520	1	pancreas_evidence
P46939	18	pancreas_evidence
P11532-10	3	pancreas_evidence
E9PGF5	32	pancreas_evidence
D6RD47	11	pancreas_evidence
Q9H993	3	pancreas_evidence
Q96C86	3	pancreas_evidence
B1ANR0	37	pancreas_evidence
Q99959-2	18	pancreas_evidence
B4DVE7	16	pancreas_evidence
P08572	91	pancreas_evidence
P62308	3	pancreas_evidence
Q96CS3	3	pancreas_evidence
Q03519	2	pancreas_evidence
P67775	9	pancreas_evidence
D6RG15	3	pancreas_evidence
P62140	18	pancreas_evidence
Q02543	29	pancreas_evidence
P61201	6	pancreas_evidence
O15031	10	pancreas_evidence
E7EUC7	16	pancreas_evidence
Q9BRZ2	1	pancreas_evidence
Q86UP2-2	44	pancreas_evidence
Q5T985	6	pancreas_evidence
P02675	51	pancreas_evidence
P50990	31	pancreas_evidence
H0YMB1	1	pancreas_evidence
P40925	21	pancreas_evidence
Q6PI48	7	pancreas_evidence
P62191	9	pancreas_evidence
S4R3Z2	2	pancreas_evidence
Q04828	10	pancreas_evidence
O14672	3	pancreas_evidence
Q16822	17	pancreas_evidence
Q96PK6	16	pancreas_evidence
Q4G0J3	4	pancreas_evidence
P50502	9	pancreas_evidence
M0R0Y2	5	pancreas_evidence
P30419-2	3	pancreas_evidence
O76094	32	pancreas_evidence
P48637	9	pancreas_evidence
Q15435	6	pancreas_evidence
O75223	3	pancreas_evidence
A8MXY0	3	pancreas_evidence
O75643	23	pancreas_evidence
Q99623	20	pancreas_evidence
Q9BR76	7	pancreas_evidence
P07339	31	pancreas_evidence
Q96EY7	5	pancreas_evidence
P15121	10	pancreas_evidence
A8MW49	3	pancreas_evidence
O75533	29	pancreas_evidence
P28066	8	pancreas_evidence
P28070	5	pancreas_evidence
O14980	31	pancreas_evidence
P62081	12	pancreas_evidence
P61221	14	pancreas_evidence
Q9NYL4	16	pancreas_evidence
O00567	30	pancreas_evidence
F8VXB1	2	pancreas_evidence
P09210	48	pancreas_evidence
P09960	28	pancreas_evidence
Q12904	9	pancreas_evidence
K7ENL3	17	pancreas_evidence
Q5JP53	19	pancreas_evidence
Q9NRG7-2	2	pancreas_evidence
F5GX39	3	pancreas_evidence
A6NN80	106	pancreas_evidence
P47897	44	pancreas_evidence
Q07960	17	pancreas_evidence
G3V5Z7	12	pancreas_evidence
Q92945	26	pancreas_evidence
O75146	7	pancreas_evidence
O60869-2	2	pancreas_evidence
Q02878	46	pancreas_evidence
O43242	26	pancreas_evidence
P02679-2	56	pancreas_evidence
Q5HY57	4	pancreas_evidence
P78527	73	pancreas_evidence
Q9P0M6	9	pancreas_evidence
P30153	22	pancreas_evidence
P19835	202	pancreas_evidence
P09467	11	pancreas_evidence
F8WJN3	9	pancreas_evidence
G3V2F7	7	pancreas_evidence
C9JXB8	13	pancreas_evidence
K7EKI8	6	pancreas_evidence
B4DK85	2	pancreas_evidence
P14866	26	pancreas_evidence
Q15366-6	13	pancreas_evidence
Q15365	33	pancreas_evidence
Q16555-2	64	pancreas_evidence
Q14195-2	21	pancreas_evidence
P23142-3	54	pancreas_evidence
Q15907	15	pancreas_evidence
O14818	8	pancreas_evidence
Q5JXH8	5	pancreas_evidence
C9J9K3	43	pancreas_evidence
O00468-2	27	pancreas_evidence
B7Z4B8	16	pancreas_evidence
Q9NYU2-2	45	pancreas_evidence
B3KUK2	26	pancreas_evidence
Q5JY65	3	pancreas_evidence
P28074	7	pancreas_evidence
Q13442	3	pancreas_evidence
Q92896	13	pancreas_evidence
A2A274	61	pancreas_evidence
Q9UQE7	24	pancreas_evidence
P15311	46	pancreas_evidence
B7Z1R5	26	pancreas_evidence
Q00765	10	pancreas_evidence
P11021	138	pancreas_evidence
P16403	6	pancreas_evidence
O00410	18	pancreas_evidence
P36957	11	pancreas_evidence
P11216	25	pancreas_evidence
Q8NC51-3	24	pancreas_evidence
O15511	4	pancreas_evidence
P16401	6	pancreas_evidence
Q96GK7	3	pancreas_evidence
Q9HAV7	1	pancreas_evidence
H0Y6T7	3	pancreas_evidence
Q9BS26	16	pancreas_evidence
Q5T123	5	pancreas_evidence
Q9NUJ1	3	pancreas_evidence
M0QYT5	2	pancreas_evidence
Q86UY0	19	pancreas_evidence
P51178	4	pancreas_evidence
Q6DD88	11	pancreas_evidence
P00367	35	pancreas_evidence
Q9BZQ8	37	pancreas_evidence
G8JLB2	30	pancreas_evidence
Q8N0U8	2	pancreas_evidence
B4DKY1	10	pancreas_evidence
Q17RN3	3	pancreas_evidence
C9JGI3	7	pancreas_evidence
Q96HR9	4	pancreas_evidence
P10155-3	16	pancreas_evidence
H0YH58	1	pancreas_evidence
P53621	91	pancreas_evidence
Q06210-2	41	pancreas_evidence
P35998	13	pancreas_evidence
P31948	36	pancreas_evidence
REV__A6H8Y1-5	1	pancreas_evidence
Q6NUQ4	24	pancreas_evidence
O75937	1	pancreas_evidence
P09455	13	pancreas_evidence
C9JIF9	13	pancreas_evidence
CON__P08730-1	1	pancreas_evidence
P17655	27	pancreas_evidence
CON__P02533	32	pancreas_evidence
E5RGX5	1	pancreas_evidence
B4DR64	4	pancreas_evidence
B3KVN2	2	pancreas_evidence
O43765	2	pancreas_evidence
Q02790	13	pancreas_evidence
P26038	92	pancreas_evidence
Q9Y617	13	pancreas_evidence
P19338	97	pancreas_evidence
Q14651	5	pancreas_evidence
O43678	3	pancreas_evidence
Q8WX92	3	pancreas_evidence
P15144	48	pancreas_evidence
CON__P19001	1	pancreas_evidence
Q9NR45	16	pancreas_evidence
B4E1J0	2	pancreas_evidence
P46940	138	pancreas_evidence
R4GMU1	13	pancreas_evidence
Q9Y265	11	pancreas_evidence
H0YKU1	3	pancreas_evidence
O95671-2	6	pancreas_evidence
Q14152	93	pancreas_evidence
P13521	5	pancreas_evidence
Q13740-2	13	pancreas_evidence
Q16762	14	pancreas_evidence
E7ETN3	10	pancreas_evidence
B4DJV2	15	pancreas_evidence
P22897	9	pancreas_evidence
B7Z7Z8	7	pancreas_evidence
F8W1R7	13	pancreas_evidence
Q9H2G2-2	2	pancreas_evidence
O14782	1	pancreas_evidence
Q15102	3	pancreas_evidence
Q16401-2	11	pancreas_evidence
F5GXC8	11	pancreas_evidence
H0Y555	1	pancreas_evidence
Q13232	5	pancreas_evidence
Q08257	22	pancreas_evidence
Q9Y5P6	10	pancreas_evidence
Q92499	43	pancreas_evidence
Q7L2H7	13	pancreas_evidence
P30050	14	pancreas_evidence
F5H0U5	3	pancreas_evidence
D6RAA6	4	pancreas_evidence
Q14258	14	pancreas_evidence
Q14764	78	pancreas_evidence
H3BPK3	5	pancreas_evidence
Q9HC38-2	13	pancreas_evidence
Q8IV08	3	pancreas_evidence
Q1KMD3	25	pancreas_evidence
P43155-2	14	pancreas_evidence
H3BS10	6	pancreas_evidence
H3BRN4	24	pancreas_evidence
P12429	24	pancreas_evidence
E7EXA3	4	pancreas_evidence
P49588	39	pancreas_evidence
B7Z651	1	pancreas_evidence
Q7L576	18	pancreas_evidence
P55010	4	pancreas_evidence
P05109	5	pancreas_evidence
Q02413	1	pancreas_evidence
Q6YN16	7	pancreas_evidence
P09211	17	pancreas_evidence
O14498	2	pancreas_evidence
Q5SSJ5	45	pancreas_evidence
E7EX73	21	pancreas_evidence
O95470	3	pancreas_evidence
H3BLU7	16	pancreas_evidence
Q8NBJ5	6	pancreas_evidence
P09972	4	pancreas_evidence
O95865	7	pancreas_evidence
Q9NV70-2	2	pancreas_evidence
P10909-4	28	pancreas_evidence
Q13618-2	10	pancreas_evidence
P62333	5	pancreas_evidence
J3KSX6	2	pancreas_evidence
O60716-21	51	pancreas_evidence
B4DPM9	1	pancreas_evidence
H0YD13	9	pancreas_evidence
Q9UMX0-2	6	pancreas_evidence
P49326-3	2	pancreas_evidence
O60749	9	pancreas_evidence
P02671-2	98	pancreas_evidence
C9J0K6	7	pancreas_evidence
Q9BSJ8	11	pancreas_evidence
Q9BUH6	3	pancreas_evidence
P55060-3	26	pancreas_evidence
K7ES31	5	pancreas_evidence
C9JJV6	5	pancreas_evidence
P04843	62	pancreas_evidence
Q9NSD9	21	pancreas_evidence
P62249	23	pancreas_evidence
F8VR84	3	pancreas_evidence
P08237	17	pancreas_evidence
M0R0M3	1	pancreas_evidence
K7ELW0	17	pancreas_evidence
H3BR29	3	pancreas_evidence
Q92973-2	20	pancreas_evidence
P16435	23	pancreas_evidence
Q92522	7	pancreas_evidence
P06727	20	pancreas_evidence
Q9NX46	4	pancreas_evidence
J3KPV7	7	pancreas_evidence
Q16531	28	pancreas_evidence
O95182	3	pancreas_evidence
Q8N163-2	13	pancreas_evidence
O43143	22	pancreas_evidence
P63092-3	10	pancreas_evidence
A8MXP9	31	pancreas_evidence
O00186	7	pancreas_evidence
E9PFZ2	21	pancreas_evidence
P16444	16	pancreas_evidence
P36955	12	pancreas_evidence
P27105	12	pancreas_evidence
Q03135	17	pancreas_evidence
P17858	39	pancreas_evidence
P57772	3	pancreas_evidence
E9PQR7	2	pancreas_evidence
E7ER89	14	pancreas_evidence
P18669	16	pancreas_evidence
Q9Y3U8	13	pancreas_evidence
Q13576	108	pancreas_evidence
P05165-2	26	pancreas_evidence
Q16778	81	pancreas_evidence
P04899	24	pancreas_evidence
Q9Y4W2-3	1	pancreas_evidence
P54577	27	pancreas_evidence
P98179	5	pancreas_evidence
P38646	55	pancreas_evidence
P26368-2	4	pancreas_evidence
S4R435	18	pancreas_evidence
E7ENU4	11	pancreas_evidence
F8W1A4	8	pancreas_evidence
Q9UL46	10	pancreas_evidence
P40121-2	11	pancreas_evidence
P09917-5	6	pancreas_evidence
P21695-2	12	pancreas_evidence
P22087	14	pancreas_evidence
Q8NBL1	1	pancreas_evidence
Q96DG6	4	pancreas_evidence
P00491	8	pancreas_evidence
Q9Y6N5	14	pancreas_evidence
P61006	9	pancreas_evidence
Q30118	4	pancreas_evidence
Q9UIQ6-3	7	pancreas_evidence
Q8WVV4	2	pancreas_evidence
O75396	11	pancreas_evidence
P00352	82	pancreas_evidence
P01008	15	pancreas_evidence
Q9H8Y8	9	pancreas_evidence
F8W8J4	29	pancreas_evidence
Q13724	31	pancreas_evidence
P21399	38	pancreas_evidence
Q8IUX7	17	pancreas_evidence
Q9Y6C2	148	pancreas_evidence
H3BT57	6	pancreas_evidence
F5H2Q5	1	pancreas_evidence
P40313	14	pancreas_evidence
Q9NTJ4-3	3	pancreas_evidence
Q969Z3	9	pancreas_evidence
P00387-2	11	pancreas_evidence
Q9Y5Z4	4	pancreas_evidence
B5MCA4	9	pancreas_evidence
Q13617	11	pancreas_evidence
Q96RF0-3	4	pancreas_evidence
F5H2R5	7	pancreas_evidence
Q10567-3	33	pancreas_evidence
Q96BW5-2	4	pancreas_evidence
Q9UID3	5	pancreas_evidence
P08651-4	3	pancreas_evidence
O75306-2	7	pancreas_evidence
P25705	69	pancreas_evidence
P50225	8	pancreas_evidence
O76024	4	pancreas_evidence
J3QQ67	25	pancreas_evidence
P14618	86	pancreas_evidence
H3BLZ8	56	pancreas_evidence
J3QLR8	1	pancreas_evidence
P50213	7	pancreas_evidence
H0YNE3	12	pancreas_evidence
O94903	9	pancreas_evidence
Q15126	5	pancreas_evidence
Q86XE5-3	2	pancreas_evidence
Q9UJW0	2	pancreas_evidence
P02741	2	pancreas_evidence
Q9H0W9-2	12	pancreas_evidence
F5H1G8	1	pancreas_evidence
P06737-2	12	pancreas_evidence
P00966	9	pancreas_evidence
Q5SZE2	1	pancreas_evidence
Q9NZZ3-2	1	pancreas_evidence
H0Y9Y3	7	pancreas_evidence
E9PRI4	3	pancreas_evidence
Q9BRR6-2	3	pancreas_evidence
Q53EL6-2	35	pancreas_evidence
P41250	25	pancreas_evidence
Q9NR30	10	pancreas_evidence
P61313	29	pancreas_evidence
P07384	42	pancreas_evidence
F8WAE5	3	pancreas_evidence
P23193-2	5	pancreas_evidence
CON__P08779	5	pancreas_evidence
O14558	23	pancreas_evidence
E9PR44	10	pancreas_evidence
O00401	3	pancreas_evidence
Q9UGP8	15	pancreas_evidence
Q5TEJ7	2	pancreas_evidence
Q6PCB0	9	pancreas_evidence
P30086	33	pancreas_evidence
Q8WW59	5	pancreas_evidence
Q5SRE7-2	3	pancreas_evidence
CON__P00761	183	pancreas_evidence
H7C3X5	2	pancreas_evidence
P30685	3	pancreas_evidence
Q29963	7	pancreas_evidence
P47914	4	pancreas_evidence
P30049	3	pancreas_evidence
P55884	39	pancreas_evidence
P14625	180	pancreas_evidence
M0R0F0	20	pancreas_evidence
D6REX3	45	pancreas_evidence
H7C488	1	pancreas_evidence
G3V1D3	25	pancreas_evidence
P08311	6	pancreas_evidence
P26440	7	pancreas_evidence
P35754	1	pancreas_evidence
Q9NXV6	6	pancreas_evidence
Q96JB6	2	pancreas_evidence
O94874	33	pancreas_evidence
F8W998	9	pancreas_evidence
O95834	11	pancreas_evidence
J3KNK7	14	pancreas_evidence
H7C5H5	2	pancreas_evidence
P07996	89	pancreas_evidence
Q8N1F7	16	pancreas_evidence
Q96CT7	2	pancreas_evidence
P05783	156	pancreas_evidence
Q96I99	18	pancreas_evidence
P11182	9	pancreas_evidence
P02751-17	100	pancreas_evidence
P57735	6	pancreas_evidence
G3XAM2	3	pancreas_evidence
C9JTY3	6	pancreas_evidence
P04792	49	pancreas_evidence
J3QL90	2	pancreas_evidence
F5GZK2	2	pancreas_evidence
P00488	50	pancreas_evidence
P25786	9	pancreas_evidence
Q53GG5-2	2	pancreas_evidence
O14828-2	2	pancreas_evidence
K7ELL7	47	pancreas_evidence
M0R021	2	pancreas_evidence
Q969E2-2	2	pancreas_evidence
P49327	77	pancreas_evidence
P49773	7	pancreas_evidence
Q9HCB6	2	pancreas_evidence
CON__P13647	39	pancreas_evidence
CON__Q32MB2	1	pancreas_evidence
P05455	12	pancreas_evidence
P11142	127	pancreas_evidence
Q96A33	16	pancreas_evidence
F5H0B0	8	pancreas_evidence
Q96HC4	14	pancreas_evidence
P61081	7	pancreas_evidence
P00505	24	pancreas_evidence
O95716	11	pancreas_evidence
P28062-2	4	pancreas_evidence
Q05707-2	298	pancreas_evidence
H0YDD4	9	pancreas_evidence
Q9UNS2	2	pancreas_evidence
P17050	2	pancreas_evidence
Q9P0L0	12	pancreas_evidence
B4DUS9	7	pancreas_evidence
P67936-2	1	pancreas_evidence
E5RFU2	7	pancreas_evidence
E7EM64	4	pancreas_evidence
Q9UQ90	2	pancreas_evidence
Q8WWY3	4	pancreas_evidence
P54727	12	pancreas_evidence
E5RGR0	3	pancreas_evidence
Q9NTJ5	12	pancreas_evidence
O43264	3	pancreas_evidence
O60240	6	pancreas_evidence
Q9BVC6	4	pancreas_evidence
Q9UJS0	13	pancreas_evidence
P48506	12	pancreas_evidence
P54578-2	9	pancreas_evidence
P62917	34	pancreas_evidence
A2A2D0	5	pancreas_evidence
E9PP50	18	pancreas_evidence
P30040	6	pancreas_evidence
E7ENR4	17	pancreas_evidence
Q08380	16	pancreas_evidence
C9JXC3	1	pancreas_evidence
G3V582	9	pancreas_evidence
D6RAX7	7	pancreas_evidence
O00116	1	pancreas_evidence
Q14677	11	pancreas_evidence
Q96DN0	4	pancreas_evidence
E7EVA0	17	pancreas_evidence
Q5TAU2	2	pancreas_evidence
P56199	23	pancreas_evidence
O15143	19	pancreas_evidence
P01598	4	pancreas_evidence
Q8N8S7-2	3	pancreas_evidence
H0YFA4	4	pancreas_evidence
P16930	6	pancreas_evidence
B2R9R8	5	pancreas_evidence
B1AJY5	4	pancreas_evidence
P02730	5	pancreas_evidence
F5H223	10	pancreas_evidence
Q6UX71	4	pancreas_evidence
Q07065	47	pancreas_evidence
Q7Z4H3-3	1	pancreas_evidence
P05362	6	pancreas_evidence
Q16204	6	pancreas_evidence
C9JJT5	3	pancreas_evidence
P13073	13	pancreas_evidence
Q8TBM7-2	1	pancreas_evidence
H3BSJ9	18	pancreas_evidence
E9PK01	19	pancreas_evidence
P32119	24	pancreas_evidence
P48735	38	pancreas_evidence
O75874	20	pancreas_evidence
C9J6P4	3	pancreas_evidence
P23526	29	pancreas_evidence
P61964	1	pancreas_evidence
Q99436	3	pancreas_evidence
O75521-2	5	pancreas_evidence
P31942-2	7	pancreas_evidence
G8JLB6	33	pancreas_evidence
Q86Y82	4	pancreas_evidence
G5E9W9	2	pancreas_evidence
H7C1X1	2	pancreas_evidence
P01623	12	pancreas_evidence
P45880	13	pancreas_evidence
Q71UI9	4	pancreas_evidence
P51149	16	pancreas_evidence
P51692	12	pancreas_evidence
Q96AG4	26	pancreas_evidence
Q9NWV4	5	pancreas_evidence
K7ERG9	2	pancreas_evidence
P00338	68	pancreas_evidence
P54687-4	3	pancreas_evidence
P46779	24	pancreas_evidence
E9PKG1	7	pancreas_evidence
B4DT77	22	pancreas_evidence
Q9H553	7	pancreas_evidence
P40306	1	pancreas_evidence
F5GYC4	11	pancreas_evidence
O43252	8	pancreas_evidence
F8VV32	5	pancreas_evidence
P60842	35	pancreas_evidence
A0MZ66	13	pancreas_evidence
P24844	18	pancreas_evidence
Q9H4Z2-2	1	pancreas_evidence
P51659	26	pancreas_evidence
P38919	12	pancreas_evidence
Q9UMS4	13	pancreas_evidence
P08571	4	pancreas_evidence
Q01469	8	pancreas_evidence
G5E9N3	3	pancreas_evidence
Q9H1E3-2	4	pancreas_evidence
P61981	20	pancreas_evidence
P02749	7	pancreas_evidence
P04217	7	pancreas_evidence
P33947-2	2	pancreas_evidence
G3XAP6	2	pancreas_evidence
Q96IU4	11	pancreas_evidence
E9PIC0	1	pancreas_evidence
E7ENZ3	31	pancreas_evidence
Q8N4T8	3	pancreas_evidence
Q9NVE7	2	pancreas_evidence
Q8TCS8	6	pancreas_evidence
O00487	4	pancreas_evidence
P68363	124	pancreas_evidence
F8WF48	7	pancreas_evidence
P62906	30	pancreas_evidence
Q9NQR4	6	pancreas_evidence
Q14108	16	pancreas_evidence
P29401	100	pancreas_evidence
P49721	8	pancreas_evidence
P25788-2	10	pancreas_evidence
O94973	13	pancreas_evidence
B3KXW5	20	pancreas_evidence
Q96C23	6	pancreas_evidence
A8MUB1	3	pancreas_evidence
M0QY17	1	pancreas_evidence
P00738	52	pancreas_evidence
Q5QPP3	3	pancreas_evidence
Q32P28	2	pancreas_evidence
Q6P4E4	11	pancreas_evidence
Q13596-2	6	pancreas_evidence
P61457	6	pancreas_evidence
Q9H4Z3	3	pancreas_evidence
E9PB77	1	pancreas_evidence
Q96IJ6	8	pancreas_evidence
Q9UIJ7	10	pancreas_evidence
CON__P07477	87	pancreas_evidence
Q9NVH6-7	1	pancreas_evidence
Q8IV36-2	12	pancreas_evidence
J3KS22	10	pancreas_evidence
P63000	5	pancreas_evidence
B1AH77	17	pancreas_evidence
P46821	2	pancreas_evidence
F6SBX2	17	pancreas_evidence
Q9Y2J2-2	3	pancreas_evidence
Q9Y281-3	2	pancreas_evidence
Q5T7A2	4	pancreas_evidence
H3BST5	2	pancreas_evidence
P06744	38	pancreas_evidence
Q9Y5M8	13	pancreas_evidence
P84095	5	pancreas_evidence
Q9Y394-2	10	pancreas_evidence
P50454	13	pancreas_evidence
P01009	159	pancreas_evidence
P68371	122	pancreas_evidence
P37059	8	pancreas_evidence
Q6IA69	3	pancreas_evidence
P43490	22	pancreas_evidence
M0R268	2	pancreas_evidence
O60701	13	pancreas_evidence
P42126-2	11	pancreas_evidence
P00918	22	pancreas_evidence
Q5TA58	5	pancreas_evidence
P04004	25	pancreas_evidence
Q96AC1	24	pancreas_evidence
Q12906	52	pancreas_evidence
Q8NE71	7	pancreas_evidence
F5H669	2	pancreas_evidence
F5H1Z6	6	pancreas_evidence
C9JP00	3	pancreas_evidence
Q86TM6-2	2	pancreas_evidence
Q04917	11	pancreas_evidence
P27348	19	pancreas_evidence
P31946-2	11	pancreas_evidence
Q9Y5B9	6	pancreas_evidence
P15088	11	pancreas_evidence
Q13011	12	pancreas_evidence
F8VU65	21	pancreas_evidence
H0YDT8	2	pancreas_evidence
P32929-2	2	pancreas_evidence
P21281	10	pancreas_evidence
P23368	6	pancreas_evidence
Q8WXF1	5	pancreas_evidence
P12955-3	6	pancreas_evidence
O75915	3	pancreas_evidence
K7EJ02	1	pancreas_evidence
Q14126	12	pancreas_evidence
Q00688	6	pancreas_evidence
P46977	46	pancreas_evidence
P49419-2	23	pancreas_evidence
C9JL30	6	pancreas_evidence
Q12905	14	pancreas_evidence
P15170	16	pancreas_evidence
P47813	8	pancreas_evidence
P05026-2	11	pancreas_evidence
Q06141	24	pancreas_evidence
P50991	25	pancreas_evidence
Q6UWY5	13	pancreas_evidence
Q8TDB6	3	pancreas_evidence
M0R061	3	pancreas_evidence
Q93034	10	pancreas_evidence
O15145	11	pancreas_evidence
Q9NUB1-2	23	pancreas_evidence
P54136	24	pancreas_evidence
Q15006	4	pancreas_evidence
P02743	31	pancreas_evidence
Q15056-2	13	pancreas_evidence
B3KSH1	12	pancreas_evidence
F8W062	5	pancreas_evidence
P05556	31	pancreas_evidence
P68032	34	pancreas_evidence
C9JL85	4	pancreas_evidence
P62820	27	pancreas_evidence
F5H698	25	pancreas_evidence
Q5TCU3	1	pancreas_evidence
P62987	103	pancreas_evidence
Q14112-2	29	pancreas_evidence
P04003	8	pancreas_evidence
P04275	14	pancreas_evidence
C9JF51	1	pancreas_evidence
P31949	7	pancreas_evidence
P27797	69	pancreas_evidence
Q969Q0	13	pancreas_evidence
O60704	2	pancreas_evidence
P01860	56	pancreas_evidence
M0QZC5	13	pancreas_evidence
E7EV71	4	pancreas_evidence
Q9UHG3	22	pancreas_evidence
P54652	21	pancreas_evidence
E9PEB5	15	pancreas_evidence
P13284	2	pancreas_evidence
O60763	32	pancreas_evidence
Q96JB5	17	pancreas_evidence
Q5SQU3	8	pancreas_evidence
P23786	21	pancreas_evidence
P02790	30	pancreas_evidence
F5H1F3	10	pancreas_evidence
P43304	24	pancreas_evidence
Q2M3V2	1	pancreas_evidence
A8MU28	4	pancreas_evidence
Q16647	9	pancreas_evidence
J3QLD9	10	pancreas_evidence
Q13630	4	pancreas_evidence
J3KTL2	19	pancreas_evidence
Q9NUQ9	6	pancreas_evidence
J3KNQ4	10	pancreas_evidence
H3BRV0	23	pancreas_evidence
O75323	10	pancreas_evidence
Q9BPW8	5	pancreas_evidence
P11177-2	10	pancreas_evidence
G3V599	4	pancreas_evidence
P08579	3	pancreas_evidence
P62701	46	pancreas_evidence
P20337	2	pancreas_evidence
E7ES35	4	pancreas_evidence
P01877	2	pancreas_evidence
P01876	41	pancreas_evidence
O00479	4	pancreas_evidence
Q13884	16	pancreas_evidence
O75116	12	pancreas_evidence
P18085	5	pancreas_evidence
B7ZB63	9	pancreas_evidence
P62805	88	pancreas_evidence
D6RB59	4	pancreas_evidence
Q13425	7	pancreas_evidence
G3V1C3	7	pancreas_evidence
P60174-1	52	pancreas_evidence
Q8WZ42-3	5	pancreas_evidence
Q14696	6	pancreas_evidence
Q8NI22-2	1	pancreas_evidence
O15144	5	pancreas_evidence
P21912	5	pancreas_evidence
P37802	42	pancreas_evidence
F8W8D0	33	pancreas_evidence
P53999	6	pancreas_evidence
E7ETU3	7	pancreas_evidence
P38159	30	pancreas_evidence
O95881	1	pancreas_evidence
P05198	19	pancreas_evidence
Q9Y224	11	pancreas_evidence
P63244	38	pancreas_evidence
B1AK87	17	pancreas_evidence
J3KT79	2	pancreas_evidence
Q5T5C7	20	pancreas_evidence
P16233	105	pancreas_evidence
P20774	52	pancreas_evidence
O00151	13	pancreas_evidence
Q93052	18	pancreas_evidence
P01275	13	pancreas_evidence
O75475	11	pancreas_evidence
F8VQ10	23	pancreas_evidence
Q04760-2	10	pancreas_evidence
P63173	7	pancreas_evidence
P23284	51	pancreas_evidence
Q9NR12	8	pancreas_evidence
O15173	14	pancreas_evidence
P31937	10	pancreas_evidence
P42765	14	pancreas_evidence
E9PGN7	30	pancreas_evidence
O00264	7	pancreas_evidence
P30041	35	pancreas_evidence
Q05655	7	pancreas_evidence
P28331	30	pancreas_evidence
E7EQB2	8	pancreas_evidence
P05997	12	pancreas_evidence
Q6GPI1	66	pancreas_evidence
P02452	144	pancreas_evidence
P01871	32	pancreas_evidence
P27635	31	pancreas_evidence
P48444	33	pancreas_evidence
P08754	3	pancreas_evidence
B1ALD8	90	pancreas_evidence
F8WA86	18	pancreas_evidence
P19525-2	4	pancreas_evidence
J3KPG2	9	pancreas_evidence
P45974-2	17	pancreas_evidence
Q13228	25	pancreas_evidence
P04066	1	pancreas_evidence
Q5VTE0	134	pancreas_evidence
P12107-4	10	pancreas_evidence
O94925-3	6	pancreas_evidence
O43592	2	pancreas_evidence
Q92504	2	pancreas_evidence
Q96DC8	6	pancreas_evidence
P08670	456	pancreas_evidence
Q9HDC9	11	pancreas_evidence
P28072	3	pancreas_evidence
Q8WVC2	9	pancreas_evidence
E9PRJ3	2	pancreas_evidence
P31689-2	2	pancreas_evidence
P07919	3	pancreas_evidence
Q12907	18	pancreas_evidence
B4DMS2	1	pancreas_evidence
O43776	20	pancreas_evidence
J3QSY3	1	pancreas_evidence
Q9UKU7	3	pancreas_evidence
H3BPC4	3	pancreas_evidence
C9JRJ8	1	pancreas_evidence
Q53H82	2	pancreas_evidence
Q16769	5	pancreas_evidence
Q9UKR5	1	pancreas_evidence
Q8TB22-4	1	pancreas_evidence
Q9Y3A5	11	pancreas_evidence
P49257	20	pancreas_evidence
F8VZJ2	8	pancreas_evidence
P35527	197	pancreas_evidence
K7EJE8	24	pancreas_evidence
P12956	60	pancreas_evidence
P51665	8	pancreas_evidence
Q06278	26	pancreas_evidence
Q5SWX8-4	3	pancreas_evidence
P07858	10	pancreas_evidence
P62753	29	pancreas_evidence
O75844	2	pancreas_evidence
Q8IYI6	5	pancreas_evidence
P62854	10	pancreas_evidence
O94776	7	pancreas_evidence
O75131	12	pancreas_evidence
F2Z2V0	3	pancreas_evidence
Q9ULU8-2	4	pancreas_evidence
P02763	26	pancreas_evidence
P61160	18	pancreas_evidence
P07099	42	pancreas_evidence
Q9BX97	6	pancreas_evidence
P05060	6	pancreas_evidence
B4DGX0	3	pancreas_evidence
Q9UBS4	5	pancreas_evidence
E9PCY5	6	pancreas_evidence
Q9BVK6	10	pancreas_evidence
Q7Z7H5-3	6	pancreas_evidence
Q14554	16	pancreas_evidence
P26583	15	pancreas_evidence
O00764	11	pancreas_evidence
G3V2V8	3	pancreas_evidence
F8VV56	10	pancreas_evidence
Q9NVI7-2	10	pancreas_evidence
H0Y4R1	10	pancreas_evidence
Q5T6W5	73	pancreas_evidence
Q99714	8	pancreas_evidence
P13489	18	pancreas_evidence
Q14165	9	pancreas_evidence
P10619	3	pancreas_evidence
Q9HD20-2	8	pancreas_evidence
P54886-2	25	pancreas_evidence
O60826	12	pancreas_evidence
P09497-2	8	pancreas_evidence
P12277	10	pancreas_evidence
Q9UHL4	11	pancreas_evidence
E7EU23	53	pancreas_evidence
P46952	5	pancreas_evidence
E9PFH4	3	pancreas_evidence
Q14103-3	45	pancreas_evidence
O00571-2	34	pancreas_evidence
H3BND8	9	pancreas_evidence
H0YMV8	5	pancreas_evidence
P02750	6	pancreas_evidence
E7EW05	1	pancreas_evidence
REV__O43815-2	1	pancreas_evidence
B7Z641	4	pancreas_evidence
Q96BM9	2	pancreas_evidence
Q9NVJ2	4	pancreas_evidence
Q9UNM6	8	pancreas_evidence
P50135	3	pancreas_evidence
O43290	3	pancreas_evidence
P42285	3	pancreas_evidence
E9PH29	11	pancreas_evidence
Q9BXJ9-4	3	pancreas_evidence
Q9Y3B7-2	3	pancreas_evidence
H0YN26	9	pancreas_evidence
Q9BTT0-3	2	pancreas_evidence
O14979-3	2	pancreas_evidence
P09093	69	pancreas_evidence
Q8N0W3	5	pancreas_evidence
P07686	12	pancreas_evidence
G3V4U0	19	pancreas_evidence
E9PIZ8	1	pancreas_evidence
F5H4R9	20	pancreas_evidence
O76038	18	pancreas_evidence
Q9NZ08	10	pancreas_evidence
Q13347	12	pancreas_evidence
Q02218	24	pancreas_evidence
F8W1Z6	2	pancreas_evidence
Q14978	3	pancreas_evidence
Q8N8N7	2	pancreas_evidence
K7EKY5	2	pancreas_evidence
Q8TCT9-5	2	pancreas_evidence
B1AQP4	4	pancreas_evidence
P15374	6	pancreas_evidence
Q63HM9	2	pancreas_evidence
Q96CX2	8	pancreas_evidence
C9J9V0	1	pancreas_evidence
Q92783-2	4	pancreas_evidence
P08621	8	pancreas_evidence
P60903	8	pancreas_evidence
Q5VY30	8	pancreas_evidence
O00232	9	pancreas_evidence
I3L0H8	6	pancreas_evidence
P0C7P4	12	pancreas_evidence
P55259	6	pancreas_evidence
Q9P032	3	pancreas_evidence
O95139	3	pancreas_evidence
E9PAR5	2	pancreas_evidence
Q12874	9	pancreas_evidence
P53004	6	pancreas_evidence
P42224	15	pancreas_evidence
Q9UBT2	10	pancreas_evidence
P78347-2	11	pancreas_evidence
F6T1Q0	3	pancreas_evidence
E7EPZ9	15	pancreas_evidence
Q9Y3C8	4	pancreas_evidence
REV__Q9UPE1-2	4	pancreas_evidence
Q32Q12	32	pancreas_evidence
P63010	13	pancreas_evidence
Q9NTI5-2	8	pancreas_evidence
P17568	2	pancreas_evidence
P63096	2	pancreas_evidence
P62277	15	pancreas_evidence
Q5JTV8	10	pancreas_evidence
P48728-3	3	pancreas_evidence
E9PE82	6	pancreas_evidence
Q15029-2	16	pancreas_evidence
P07737	16	pancreas_evidence
Q8NBF2	8	pancreas_evidence
Q14847	27	pancreas_evidence
Q6IPX3-2	2	pancreas_evidence
P55145	7	pancreas_evidence
O43491	24	pancreas_evidence
P01834	23	pancreas_evidence
Q14011	3	pancreas_evidence
Q9UII8	18	pancreas_evidence
P61224-3	8	pancreas_evidence
Q9P2M7	9	pancreas_evidence
P60866	10	pancreas_evidence
O94832	42	pancreas_evidence
F8W7P3	6	pancreas_evidence
G8JLD5	6	pancreas_evidence
P49755	11	pancreas_evidence
E9PC74	7	pancreas_evidence
Q96Q06	14	pancreas_evidence
P40261	10	pancreas_evidence
O60271-5	2	pancreas_evidence
O95352	5	pancreas_evidence
Q9NZL9	8	pancreas_evidence
D6RF35	15	pancreas_evidence
P16152	13	pancreas_evidence
P08574	7	pancreas_evidence
Q15717	6	pancreas_evidence
B4DGX2	2	pancreas_evidence
Q5T6V5	3	pancreas_evidence
P61353	15	pancreas_evidence
Q6Y7W6-4	3	pancreas_evidence
E9PI41	2	pancreas_evidence
P25398	15	pancreas_evidence
Q02750	7	pancreas_evidence
Q9H4G0-4	6	pancreas_evidence
O43760	4	pancreas_evidence
Q6P2Q9	13	pancreas_evidence
Q92878	22	pancreas_evidence
P39019	18	pancreas_evidence
P21397	25	pancreas_evidence
P05451	64	pancreas_evidence
Q16543	6	pancreas_evidence
Q5JUA8	4	pancreas_evidence
Q14749	6	pancreas_evidence
Q9Y6W5	2	pancreas_evidence
Q16222-2	4	pancreas_evidence
P42166	16	pancreas_evidence
P50238	1	pancreas_evidence
P08218	3	pancreas_evidence
P08217	14	pancreas_evidence
P22626	83	pancreas_evidence
F8W6I7	40	pancreas_evidence
P26599	37	pancreas_evidence
Q13162	26	pancreas_evidence
Q99895	46	pancreas_evidence
Q6UX06	74	pancreas_evidence
P07195	30	pancreas_evidence
P07203	8	pancreas_evidence
P20042	8	pancreas_evidence
G3V3M6	20	pancreas_evidence
F8VV04	6	pancreas_evidence
B4DXE2	5	pancreas_evidence
O95822-2	2	pancreas_evidence
Q96MM6	4	pancreas_evidence
J3QLV0	1	pancreas_evidence
F5GZZ9	27	pancreas_evidence
H7BXY5	8	pancreas_evidence
B4E1D7	5	pancreas_evidence
Q86YB8	8	pancreas_evidence
Q13242	5	pancreas_evidence
Q13283	4	pancreas_evidence
F5H5P2	8	pancreas_evidence
Q9Y2X3	17	pancreas_evidence
P46778	15	pancreas_evidence
P16284-5	5	pancreas_evidence
REV__Q8NA58	2	pancreas_evidence
Q9H444	4	pancreas_evidence
O75477	1	pancreas_evidence
G3V220	2	pancreas_evidence
B1ANH5	5	pancreas_evidence
J3QK90	5	pancreas_evidence
P62750	22	pancreas_evidence
Q15428	4	pancreas_evidence
Q9BQ61	2	pancreas_evidence
Q12996	3	pancreas_evidence
E5RJ68	7	pancreas_evidence
P05062	4	pancreas_evidence
E5KLK1	23	pancreas_evidence
E9PGT1	12	pancreas_evidence
G3V0I5	5	pancreas_evidence
REV__Q7RTP6	2	pancreas_evidence
P62829	5	pancreas_evidence
P10644	8	pancreas_evidence
J3KNW4	6	pancreas_evidence
Q13177	4	pancreas_evidence
P51888	147	pancreas_evidence
P08133	1	pancreas_evidence
P67809	4	pancreas_evidence
P05162	12	pancreas_evidence
P28161	16	pancreas_evidence
Q13151	13	pancreas_evidence
P43121	7	pancreas_evidence
Q9UHQ9	7	pancreas_evidence
I3L397	17	pancreas_evidence
Q9NTX5-6	4	pancreas_evidence
P10606	7	pancreas_evidence
P51991	53	pancreas_evidence
J3KMX1	7	pancreas_evidence
P16989-2	12	pancreas_evidence
Q86UE4	13	pancreas_evidence
O75348	4	pancreas_evidence
P51159	5	pancreas_evidence
G5E968	8	pancreas_evidence
O00299	15	pancreas_evidence
P43034	9	pancreas_evidence
P30837	6	pancreas_evidence
CON__Q9Z2K1	1	pancreas_evidence
P84157-2	3	pancreas_evidence
F8VPD4	2	pancreas_evidence
E7EVH9	1	pancreas_evidence
Q05682-4	2	pancreas_evidence
A8MXL6	7	pancreas_evidence
Q8N766-3	7	pancreas_evidence
P19388	2	pancreas_evidence
F8W720	15	pancreas_evidence
O14949	6	pancreas_evidence
O15400-2	4	pancreas_evidence
Q01105-3	12	pancreas_evidence
Q5BJF2	6	pancreas_evidence
Q6ICJ4	2	pancreas_evidence
Q9Y320-2	2	pancreas_evidence
P11940-2	20	pancreas_evidence
B3KS98	6	pancreas_evidence
P69891	4	pancreas_evidence
P68871	127	pancreas_evidence
P02042	13	pancreas_evidence
P51648	12	pancreas_evidence
J3QL24	2	pancreas_evidence
P62857	5	pancreas_evidence
Q9UKD2	3	pancreas_evidence
C9J712	4	pancreas_evidence
E7EP00	11	pancreas_evidence
Q6NUK1-2	10	pancreas_evidence
G5E9E7	5	pancreas_evidence
J9JIE9	4	pancreas_evidence
P62937	34	pancreas_evidence
Q05639	5	pancreas_evidence
Q5QPK2	7	pancreas_evidence
P05976-2	1	pancreas_evidence
P05204	11	pancreas_evidence
Q9ULC4-2	2	pancreas_evidence
Q96RQ3	21	pancreas_evidence
E9PPJ5	2	pancreas_evidence
Q9Y3I0	20	pancreas_evidence
P17252	3	pancreas_evidence
E5RHG8	5	pancreas_evidence
C9JV77	4	pancreas_evidence
B3KW70	13	pancreas_evidence
O60884	3	pancreas_evidence
H0YJ40	4	pancreas_evidence
P61019	16	pancreas_evidence
Q9Y2W1	6	pancreas_evidence
Q9UPT5-2	8	pancreas_evidence
P21796	15	pancreas_evidence
Q9Y263	5	pancreas_evidence
H0YN48	2	pancreas_evidence
G3XAN4	2	pancreas_evidence
B7Z2L0	2	pancreas_evidence
P19652	3	pancreas_evidence
Q8N183	3	pancreas_evidence
K7ES02	4	pancreas_evidence
K7EK07	37	pancreas_evidence
G3V511	11	pancreas_evidence
P38117	14	pancreas_evidence
Q8TE77-3	6	pancreas_evidence
E7EMV2	3	pancreas_evidence
B4DFC9	3	pancreas_evidence
Q9NR31	7	pancreas_evidence
Q86UP6	43	pancreas_evidence
Q9BXN1	55	pancreas_evidence
Q8IXQ6-3	3	pancreas_evidence
Q9Y376	5	pancreas_evidence
P27658	4	pancreas_evidence
Q15063-2	3	pancreas_evidence
Q8TC12-3	2	pancreas_evidence
S4R3Q6	3	pancreas_evidence
Q9Y305-2	6	pancreas_evidence
Q9UBV8	2	pancreas_evidence
Q13123	5	pancreas_evidence
O76070	4	pancreas_evidence
E7EWU3	3	pancreas_evidence
P56385	3	pancreas_evidence
Q9UHD2	1	pancreas_evidence
Q6GMV3	1	pancreas_evidence
P30046	12	pancreas_evidence
Q9H8S9	2	pancreas_evidence
Q14435	6	pancreas_evidence
A6NFX8	3	pancreas_evidence
H0YI09	23	pancreas_evidence
P68402	3	pancreas_evidence
Q9Y512	7	pancreas_evidence
Q9HA64	4	pancreas_evidence
P02794	17	pancreas_evidence
P39656	25	pancreas_evidence
Q06828	7	pancreas_evidence
H3BRX0	1	pancreas_evidence
E5RGF2	2	pancreas_evidence
H3BTI5	2	pancreas_evidence
Q8N335	6	pancreas_evidence
P46781	49	pancreas_evidence
P60602	1	pancreas_evidence
H7C1E4	2	pancreas_evidence
P20340-2	20	pancreas_evidence
Q08945	7	pancreas_evidence
H3BV04	1	pancreas_evidence
O75438	2	pancreas_evidence
Q9P2X0	3	pancreas_evidence
Q9Y266	5	pancreas_evidence
R4GN98	7	pancreas_evidence
B7Z972	4	pancreas_evidence
Q9UK22	3	pancreas_evidence
Q16134	10	pancreas_evidence
O15305	9	pancreas_evidence
H7C2W9	10	pancreas_evidence
C9JIM0	6	pancreas_evidence
Q9NZN4	37	pancreas_evidence
E9PDL6	4	pancreas_evidence
P14209-3	3	pancreas_evidence
P81605	4	pancreas_evidence
P43686	3	pancreas_evidence
P51153	4	pancreas_evidence
A1L0T0	6	pancreas_evidence
P04114	10	pancreas_evidence
Q9NRF8	2	pancreas_evidence
J3KN00	6	pancreas_evidence
Q15382	3	pancreas_evidence
P33908	4	pancreas_evidence
P11413	9	pancreas_evidence
Q5H9A7	4	pancreas_evidence
O43464-3	2	pancreas_evidence
Q96HY7	5	pancreas_evidence
P01857	38	pancreas_evidence
F5H1E5	7	pancreas_evidence
J3QLI9	3	pancreas_evidence
P00167-2	12	pancreas_evidence
Q9UEY8-2	15	pancreas_evidence
Q9BX66-9	5	pancreas_evidence
O43852-2	6	pancreas_evidence
J3QQT2	21	pancreas_evidence
E7EV99	14	pancreas_evidence
Q14118	9	pancreas_evidence
Q15493	5	pancreas_evidence
P45973	2	pancreas_evidence
O43837-2	3	pancreas_evidence
H7BXI1	6	pancreas_evidence
B4DGD5	6	pancreas_evidence
Q969H8	5	pancreas_evidence
Q8TCJ2	4	pancreas_evidence
Q96A65	9	pancreas_evidence
Q13619-2	2	pancreas_evidence
P83593	2	pancreas_evidence
P14735	3	pancreas_evidence
Q13510	18	pancreas_evidence
Q9UJC5	1	pancreas_evidence
Q96CW1-2	9	pancreas_evidence
Q92621	4	pancreas_evidence
P48304	6	pancreas_evidence
P00414	3	pancreas_evidence
P19440	14	pancreas_evidence
H0Y362	2	pancreas_evidence
A6PVN5	9	pancreas_evidence
O43681	4	pancreas_evidence
Q5BKZ1	3	pancreas_evidence
P19623	5	pancreas_evidence
Q8N392-2	7	pancreas_evidence
P30044-2	14	pancreas_evidence
P56537	3	pancreas_evidence
F8W8Y7	3	pancreas_evidence
Q9Y5K6	4	pancreas_evidence
E9PIA8	6	pancreas_evidence
P02760	9	pancreas_evidence
Q9Y673-2	5	pancreas_evidence
Q96BS2-2	2	pancreas_evidence
Q07954	10	pancreas_evidence
CON__Q6IFX2	1	pancreas_evidence
Q14240	8	pancreas_evidence
P43007	1	pancreas_evidence
K4DI93	7	pancreas_evidence
F5H442	2	pancreas_evidence
E9PIT3	5	pancreas_evidence
Q9Y2S2-2	7	pancreas_evidence
Q8NFW8	3	pancreas_evidence
Q16666-3	6	pancreas_evidence
Q5QPE5	4	pancreas_evidence
Q13509	5	pancreas_evidence
Q9UKY7-2	2	pancreas_evidence
H3BPJ9	5	pancreas_evidence
P46063	11	pancreas_evidence
Q9UKG1	11	pancreas_evidence
C9J8Q5	4	pancreas_evidence
P15090	4	pancreas_evidence
Q7L775	3	pancreas_evidence
Q13217	6	pancreas_evidence
Q9H3U1-2	7	pancreas_evidence
A6NNI4	4	pancreas_evidence
P51570	8	pancreas_evidence
Q5T9B7	8	pancreas_evidence
F8WE53	2	pancreas_evidence
M0R1E0	2	pancreas_evidence
F5GZN3	4	pancreas_evidence
H7C1F6	7	pancreas_evidence
J3KP29	2	pancreas_evidence
P51911	16	pancreas_evidence
Q07507	6	pancreas_evidence
P49756	4	pancreas_evidence
P50148	5	pancreas_evidence
Q00325-2	21	pancreas_evidence
Q86WA6-2	3	pancreas_evidence
E7EW20	14	pancreas_evidence
B7ZKJ8	10	pancreas_evidence
F5H7E1	3	pancreas_evidence
Q96H20-2	2	pancreas_evidence
P17661	6	pancreas_evidence
C9JXG8	2	pancreas_evidence
P23946	7	pancreas_evidence
P78417	21	pancreas_evidence
O60476	4	pancreas_evidence
Q96HE7	10	pancreas_evidence
Q13418	19	pancreas_evidence
Q9Y624	5	pancreas_evidence
Q16706	5	pancreas_evidence
Q29974	2	pancreas_evidence
I3L3P7	1	pancreas_evidence
Q5VZU9	4	pancreas_evidence
Q9Y5X1	7	pancreas_evidence
B0QY89	24	pancreas_evidence
Q969X5-2	3	pancreas_evidence
P51148	14	pancreas_evidence
P51571	11	pancreas_evidence
D6RAY7	3	pancreas_evidence
Q00577	11	pancreas_evidence
P56556	4	pancreas_evidence
E9PRT6	15	pancreas_evidence
Q9BTV4	11	pancreas_evidence
Q5JRX3-3	4	pancreas_evidence
P56470	14	pancreas_evidence
B4DJ45	6	pancreas_evidence
J3KSM3	3	pancreas_evidence
Q567R9	3	pancreas_evidence
Q16795	9	pancreas_evidence
F8WEF7	1	pancreas_evidence
P62273	7	pancreas_evidence
P23229-4	6	pancreas_evidence
P16519-2	4	pancreas_evidence
E2QRM6	9	pancreas_evidence
H3BN98	13	pancreas_evidence
Q09161	5	pancreas_evidence
Q56VL3	2	pancreas_evidence
Q8NBU5-2	1	pancreas_evidence
P49458	5	pancreas_evidence
P53007	6	pancreas_evidence
F5H836	1	pancreas_evidence
M0QYZ2	3	pancreas_evidence
O60264	7	pancreas_evidence
Q5T7C4	30	pancreas_evidence
K7EQ02	4	pancreas_evidence
P21266	16	pancreas_evidence
P69905	85	pancreas_evidence
P32969	10	pancreas_evidence
E9PKP7	12	pancreas_evidence
Q9Y6R1-4	7	pancreas_evidence
Q02809	2	pancreas_evidence
E9PIR7	4	pancreas_evidence
P30085	7	pancreas_evidence
B4DJP7	4	pancreas_evidence
J3KNT0	13	pancreas_evidence
Q96EK5	2	pancreas_evidence
Q9HA65-2	4	pancreas_evidence
G3V1N2	1	pancreas_evidence
Q4G176	4	pancreas_evidence
Q9UGT4	9	pancreas_evidence
C9J3L8	5	pancreas_evidence
P22352	9	pancreas_evidence
F5H2A7	1	pancreas_evidence
P52597	3	pancreas_evidence
P51884	127	pancreas_evidence
P04424-2	8	pancreas_evidence
P17931	17	pancreas_evidence
Q15459	14	pancreas_evidence
P61254	20	pancreas_evidence
Q9UI09	3	pancreas_evidence
A6PVS0	1	pancreas_evidence
B5MDF5	15	pancreas_evidence
P62330	3	pancreas_evidence
Q9NS86	2	pancreas_evidence
P30405	2	pancreas_evidence
Q9NZ45	5	pancreas_evidence
Q96B60	1	pancreas_evidence
O60613	3	pancreas_evidence
P17612-2	3	pancreas_evidence
O43396	9	pancreas_evidence
P37108	5	pancreas_evidence
O15067	3	pancreas_evidence
E5RH50	4	pancreas_evidence
Q15637-4	5	pancreas_evidence
J3KQB0	2	pancreas_evidence
P02747	4	pancreas_evidence
Q5K4L6-2	4	pancreas_evidence
Q0VAF6	6	pancreas_evidence
P12004	6	pancreas_evidence
P01617	3	pancreas_evidence
P80748	2	pancreas_evidence
Q9NZ01	9	pancreas_evidence
Q9NVV4	1	pancreas_evidence
Q9H845	12	pancreas_evidence
CON__Q5D862	2	pancreas_evidence
Q9NPE3	2	pancreas_evidence
B4DQX7	9	pancreas_evidence
P48047	12	pancreas_evidence
Q2TAM5	2	pancreas_evidence
Q08830	7	pancreas_evidence
J3QRS3	5	pancreas_evidence
Q8WYA6-3	2	pancreas_evidence
A6NJ11	2	pancreas_evidence
B1AH87	1	pancreas_evidence
P17844	12	pancreas_evidence
E9PR30	3	pancreas_evidence
K7EKG4	1	pancreas_evidence
U3KPU7	1	pancreas_evidence
Q9NSS8	2	pancreas_evidence
Q13885	5	pancreas_evidence
Q99733	5	pancreas_evidence
D6R938	4	pancreas_evidence
J3KQ32	8	pancreas_evidence
O60547-2	5	pancreas_evidence
P29622	1	pancreas_evidence
I3L2Q1	2	pancreas_evidence
G5E972	3	pancreas_evidence
K7EQA8	2	pancreas_evidence
Q9H936	8	pancreas_evidence
C9JH43	1	pancreas_evidence
C9IZE4	10	pancreas_evidence
Q08J23-3	3	pancreas_evidence
Q9Y4W6	18	pancreas_evidence
Q9NXA8-4	1	pancreas_evidence
P02461	13	pancreas_evidence
Q13045-2	4	pancreas_evidence
F5H7R4	1	pancreas_evidence
P08123	191	pancreas_evidence
Q13057	7	pancreas_evidence
B4DVY1	15	pancreas_evidence
O60664-4	8	pancreas_evidence
P17813-2	8	pancreas_evidence
C9JIZ6	4	pancreas_evidence
K7EM18	4	pancreas_evidence
P12235	2	pancreas_evidence
P50416-2	11	pancreas_evidence
H0YNG3	4	pancreas_evidence
C9JZR4	2	pancreas_evidence
H0YAC1	1	pancreas_evidence
Q07666-2	5	pancreas_evidence
O75368	4	pancreas_evidence
Q16270-2	4	pancreas_evidence
D6RDM7	2	pancreas_evidence
C9JME2	4	pancreas_evidence
Q14315-2	2	pancreas_evidence
F5GZS6	12	pancreas_evidence
CON__Q86YZ3	16	pancreas_evidence
B4DP21	7	pancreas_evidence
P21291	20	pancreas_evidence
P63151	4	pancreas_evidence
D6RGE2	2	pancreas_evidence
F2Z2Y6	3	pancreas_evidence
J3QKT5	1	pancreas_evidence
E7EVW7	2	pancreas_evidence
P19961	5	pancreas_evidence
Q9Y5S9	3	pancreas_evidence
Q9H0U3	4	pancreas_evidence
F5H4Z7	3	pancreas_evidence
Q99729-3	6	pancreas_evidence
Q96QR8	4	pancreas_evidence
P49247	1	pancreas_evidence
Q5RKV6	1	pancreas_evidence
Q9GZM7-3	9	pancreas_evidence
Q99459	5	pancreas_evidence
E7EU96	4	pancreas_evidence
P09661	7	pancreas_evidence
O94855	14	pancreas_evidence
M0QXB5	2	pancreas_evidence
Q96GA7	4	pancreas_evidence
P46108	7	pancreas_evidence
H0YLB8	3	pancreas_evidence
M0QWZ7	4	pancreas_evidence
O43172-2	1	pancreas_evidence
C9JNK6	3	pancreas_evidence
Q86W42-3	3	pancreas_evidence
P50583	1	pancreas_evidence
O00291-3	1	pancreas_evidence
E9PLL6	13	pancreas_evidence
P04350	2	pancreas_evidence
U3KQE7	1	pancreas_evidence
O75351	4	pancreas_evidence
REV__Q8NHC5	1	pancreas_evidence
P09668	2	pancreas_evidence
E9PPM8	3	pancreas_evidence
O43865	8	pancreas_evidence
F8W9D1	6	pancreas_evidence
Q8NDH3-2	2	pancreas_evidence
H7BZ11	2	pancreas_evidence
Q17RR3	3	pancreas_evidence
P41227-2	1	pancreas_evidence
Q9BVJ7	2	pancreas_evidence
P11217-2	2	pancreas_evidence
P29350	5	pancreas_evidence
Q8TEX9	4	pancreas_evidence
Q8TD57	2	pancreas_evidence
Q9Y6C9	3	pancreas_evidence
K7ELQ9	10	pancreas_evidence
E9PKH6	6	pancreas_evidence
O95168	3	pancreas_evidence
A2A3L9	2	pancreas_evidence
K7EM02	3	pancreas_evidence
P13804	11	pancreas_evidence
Q5T0V3	1	pancreas_evidence
P55795	2	pancreas_evidence
R4GNF9	2	pancreas_evidence
Q8N4P3	7	pancreas_evidence
I3L099	2	pancreas_evidence
C9J8S2	2	pancreas_evidence
H0Y3P2	3	pancreas_evidence
Q9Y2H6-2	5	pancreas_evidence
P04118	13	pancreas_evidence
P14324-2	9	pancreas_evidence
Q9Y2T2	2	pancreas_evidence
J3KPQ8	1	pancreas_evidence
Q5T427	1	pancreas_evidence
Q8NCW5-2	5	pancreas_evidence
Q7Z6K5	3	pancreas_evidence
B4DLR2	3	pancreas_evidence
D6RA08	2	pancreas_evidence
P21283	5	pancreas_evidence
P62312	2	pancreas_evidence
Q9Y2V2	3	pancreas_evidence
P35542	2	pancreas_evidence
P20908	11	pancreas_evidence
Q8TF65	5	pancreas_evidence
C9JQD4	2	pancreas_evidence
A6NEM2	5	pancreas_evidence
Q9BSH4	1	pancreas_evidence
REV__A2AAS7	1	pancreas_evidence
Q02487-2	2	pancreas_evidence
Q52LJ0	2	pancreas_evidence
F8W914	15	pancreas_evidence
B4DQR1	4	pancreas_evidence
P12931	4	pancreas_evidence
P35813-2	1	pancreas_evidence
F5GYQ2	1	pancreas_evidence
P26196	5	pancreas_evidence
H0Y6T6	1	pancreas_evidence
Q969G5	12	pancreas_evidence
E9PDI4	9	pancreas_evidence
Q9NY12-2	4	pancreas_evidence
C9JZE5	2	pancreas_evidence
K7EN45	1	pancreas_evidence
P11233	7	pancreas_evidence
Q96L92-3	2	pancreas_evidence
Q69YL0	6	pancreas_evidence
Q8WXX5	1	pancreas_evidence
E7EX40	1	pancreas_evidence
REV__F5H3T5	1	pancreas_evidence
P62070	2	pancreas_evidence
Q9P2R3	2	pancreas_evidence
I3L3B4	1	pancreas_evidence
P22307-6	5	pancreas_evidence
Q14914-2	13	pancreas_evidence
J3QRM9	2	pancreas_evidence
P21964-2	3	pancreas_evidence
E9PLT0	2	pancreas_evidence
P61020	4	pancreas_evidence
B4DJA5	1	pancreas_evidence
Q53GQ0	7	pancreas_evidence
P07305	38	pancreas_evidence
E7ERH3	3	pancreas_evidence
P62195-2	8	pancreas_evidence
E9PKD5	6	pancreas_evidence
P62942	3	pancreas_evidence
O43809	7	pancreas_evidence
Q9UMX5	4	pancreas_evidence
P26885	6	pancreas_evidence
H0YJ47	1	pancreas_evidence
H7C557	1	pancreas_evidence
P00480	10	pancreas_evidence
F5H740	6	pancreas_evidence
F2Z3K0	1	pancreas_evidence
J3KRY2	1	pancreas_evidence
P30533	5	pancreas_evidence
C9J4M6	2	pancreas_evidence
Q9P0J1	1	pancreas_evidence
Q5T8N1	2	pancreas_evidence
Q9H6Y8	1	pancreas_evidence
P62316	5	pancreas_evidence
B7WPG3	1	pancreas_evidence
Q8N9U0-2	2	pancreas_evidence
F5H7B0	3	pancreas_evidence
REV__B9A063	1	pancreas_evidence
P42766	19	pancreas_evidence
F8W7Q4	4	pancreas_evidence
O60841	8	pancreas_evidence
P28330	3	pancreas_evidence
Q7Z7K6-2	2	pancreas_evidence
H0YLY3	1	pancreas_evidence
Q9UNX3	3	pancreas_evidence
J3KN82	1	pancreas_evidence
Q00653-4	1	pancreas_evidence
Q5VYY1	1	pancreas_evidence
Q8WW12	2	pancreas_evidence
Q6ZUJ8-2	7	pancreas_evidence
P24666	6	pancreas_evidence
Q5JR04	3	pancreas_evidence
P46109	8	pancreas_evidence
P61960	2	pancreas_evidence
B1AHL2	10	pancreas_evidence
Q99417	2	pancreas_evidence
P16278-3	9	pancreas_evidence
D3YTI9	2	pancreas_evidence
F5GWX5	4	pancreas_evidence
P27487	9	pancreas_evidence
O95140-2	2	pancreas_evidence
H3BP71	2	pancreas_evidence
F5H553	1	pancreas_evidence
Q00266	1	pancreas_evidence
O60488-2	2	pancreas_evidence
D6RAW2	1	pancreas_evidence
Q12768	6	pancreas_evidence
F8VXC8	7	pancreas_evidence
O60783	2	pancreas_evidence
J3QSX6	3	pancreas_evidence
Q5H907	2	pancreas_evidence
B7Z382	2	pancreas_evidence
F8W1W1	1	pancreas_evidence
Q13825-2	2	pancreas_evidence
H0Y360	4	pancreas_evidence
Q96ED9-2	1	pancreas_evidence
Q7LBR1	3	pancreas_evidence
Q8TEM1	2	pancreas_evidence
Q99643-5	4	pancreas_evidence
Q9UHJ6	1	pancreas_evidence
Q8IUE6	3	pancreas_evidence
B5MC07	3	pancreas_evidence
E9PPC8	2	pancreas_evidence
Q8NCN5	3	pancreas_evidence
P60228	9	pancreas_evidence
H0Y580	2	pancreas_evidence
M0QZ24	2	pancreas_evidence
A8MXV4	2	pancreas_evidence
K7EMC7	2	pancreas_evidence
E9PDQ5	2	pancreas_evidence
Q8TAT6	4	pancreas_evidence
J3QR09	32	pancreas_evidence
Q8N5K1	5	pancreas_evidence
F5H169	2	pancreas_evidence
E9PM37	1	pancreas_evidence
F5H6I0	5	pancreas_evidence
E9PC52	2	pancreas_evidence
Q9UKN8	1	pancreas_evidence
B7Z5R1	2	pancreas_evidence
D6RBW1	5	pancreas_evidence
P22570-5	2	pancreas_evidence
E5RG27	1	pancreas_evidence
Q9UBF2	3	pancreas_evidence
Q9BZE1	2	pancreas_evidence
G3V5B2	1	pancreas_evidence
Q9NRN7	1	pancreas_evidence
O95104-2	1	pancreas_evidence
Q75MG1	2	pancreas_evidence
Q12792	7	pancreas_evidence
Q9BUQ8	4	pancreas_evidence
M0QZ50	1	pancreas_evidence
F5H843	2	pancreas_evidence
O75355	1	pancreas_evidence
E9PB14	3	pancreas_evidence
P35573-2	7	pancreas_evidence
Q58FF8	3	pancreas_evidence
Q5JTC4	1	pancreas_evidence
P52788-2	1	pancreas_evidence
Q04941	1	pancreas_evidence
P42773	2	pancreas_evidence
H0YGT2	2	pancreas_evidence
Q13131	6	pancreas_evidence
A8MUA9	3	pancreas_evidence
P07357	1	pancreas_evidence
C9J3T3	1	pancreas_evidence
P12532	3	pancreas_evidence
Q8WW62	3	pancreas_evidence
Q9ULV4	4	pancreas_evidence
Q9BUB7-2	1	pancreas_evidence
G3V1S6	1	pancreas_evidence
E9PIM6	7	pancreas_evidence
Q9NUQ7	3	pancreas_evidence
K7EQK1	1	pancreas_evidence
Q5QNZ2	9	pancreas_evidence
Q9UPN6	2	pancreas_evidence
Q8IYQ7	5	pancreas_evidence
B7Z6L5	1	pancreas_evidence
B4DEY6	2	pancreas_evidence
O15020-2	2	pancreas_evidence
Q99797	2	pancreas_evidence
Q9Y295	6	pancreas_evidence
Q92485	3	pancreas_evidence
H0YN88	13	pancreas_evidence
J3KRI4	3	pancreas_evidence
O94886	2	pancreas_evidence
P05164-2	5	pancreas_evidence
Q99880	1	pancreas_evidence
P11172	3	pancreas_evidence
Q7RTV0	2	pancreas_evidence
P62136	4	pancreas_evidence
Q92520	6	pancreas_evidence
Q9BW92	4	pancreas_evidence
B4DTC3	1	pancreas_evidence
E9PJK1	4	pancreas_evidence
H3BTV7	2	pancreas_evidence
G3V1U3	2	pancreas_evidence
Q5TDH0-2	1	pancreas_evidence
P54709	2	pancreas_evidence
O43813	9	pancreas_evidence
Q9Y6B6	2	pancreas_evidence
H0YI18	1	pancreas_evidence
A6NDF3	2	pancreas_evidence
O15498	3	pancreas_evidence
C9JLU1	1	pancreas_evidence
C9JKQ2	2	pancreas_evidence
Q13464	5	pancreas_evidence
D6RBS5	2	pancreas_evidence
REV__E9PBL8	1	pancreas_evidence
B4DS69	2	pancreas_evidence
P49914	2	pancreas_evidence
P17900	1	pancreas_evidence
Q7RTS1	3	pancreas_evidence
Q08722-2	2	pancreas_evidence
Q9P258	3	pancreas_evidence
Q99828	2	pancreas_evidence
Q03013	1	pancreas_evidence
Q92688-2	10	pancreas_evidence
Q14139	3	pancreas_evidence
P60891	5	pancreas_evidence
Q03518	2	pancreas_evidence
O60306	2	pancreas_evidence
P17174	8	pancreas_evidence
Q9H6R3	2	pancreas_evidence
Q9UP83-3	3	pancreas_evidence
E7EP04	1	pancreas_evidence
P14174	8	pancreas_evidence
E9PHI6	1	pancreas_evidence
P13807-2	2	pancreas_evidence
H0YGM3	1	pancreas_evidence
Q13363-2	7	pancreas_evidence
P61326	5	pancreas_evidence
Q9UHY1	3	pancreas_evidence
F5H012	1	pancreas_evidence
J3KQL8	2	pancreas_evidence
P35659	6	pancreas_evidence
B7Z242	14	pancreas_evidence
C9JRJ5	1	pancreas_evidence
Q53GS9-2	2	pancreas_evidence
Q9NRX4	5	pancreas_evidence
A6PVX3	2	pancreas_evidence
P31150	7	pancreas_evidence
P53597	6	pancreas_evidence
H3BNX8	4	pancreas_evidence
E7ER68	2	pancreas_evidence
Q7Z6W7	4	pancreas_evidence
Q9UHV9	2	pancreas_evidence
P09471-2	2	pancreas_evidence
P29992	4	pancreas_evidence
O95292	6	pancreas_evidence
C9JA05	2	pancreas_evidence
Q9NX24	2	pancreas_evidence
O00471	7	pancreas_evidence
H0YC52	1	pancreas_evidence
B5MCX3	13	pancreas_evidence
P05387	9	pancreas_evidence
F8WAS3	4	pancreas_evidence
CON__Q3MHN5	1	pancreas_evidence
O94919	2	pancreas_evidence
R4GMR5	3	pancreas_evidence
K7ELJ7	12	pancreas_evidence
E7ETY7	2	pancreas_evidence
Q9NP72	2	pancreas_evidence
F8VP99	1	pancreas_evidence
REV__Q9NXW9	1	pancreas_evidence
P36405	6	pancreas_evidence
P48061-2	1	pancreas_evidence
E7ERK9	2	pancreas_evidence
O14773-2	13	pancreas_evidence
C9JS50	3	pancreas_evidence
Q9H6S3	6	pancreas_evidence
Q96K19-4	1	pancreas_evidence
B1AKG0	4	pancreas_evidence
Q9BVA1	1	pancreas_evidence
P59666	9	pancreas_evidence
Q9NX47	1	pancreas_evidence
H7BXZ6	4	pancreas_evidence
U3KQS7	3	pancreas_evidence
Q9BUL8	4	pancreas_evidence
Q9Y3E7-2	1	pancreas_evidence
O95747	2	pancreas_evidence
B1ANE3	1	pancreas_evidence
P11234	3	pancreas_evidence
B7Z2R9	7	pancreas_evidence
H7BZP1	1	pancreas_evidence
F8WAU4	3	pancreas_evidence
B7Z9G5	1	pancreas_evidence
C9JF17	15	pancreas_evidence
P19021-2	2	pancreas_evidence
Q08378-2	4	pancreas_evidence
Q5TFJ7	1	pancreas_evidence
F8W8D4	1	pancreas_evidence
E9PET8	1	pancreas_evidence
C9JTA2	1	pancreas_evidence
H7C3P4	4	pancreas_evidence
Q9H9B4	5	pancreas_evidence
REV__H7C2J3	1	pancreas_evidence
O75688	3	pancreas_evidence
B8ZZB8	1	pancreas_evidence
G3V2G4	2	pancreas_evidence
H3BMQ1	1	pancreas_evidence
B4E3L0	2	pancreas_evidence
P00736	9	pancreas_evidence
P22059	12	pancreas_evidence
E9PEW9	1	pancreas_evidence
F8W9Y0	1	pancreas_evidence
Q9BUF5	1	pancreas_evidence
REV__H7C204	1	pancreas_evidence
Q13505-3	4	pancreas_evidence
C9K0U8	6	pancreas_evidence
E7EPB6	2	pancreas_evidence
Q13492-3	7	pancreas_evidence
B3KXD6	3	pancreas_evidence
Q8NHM4	4	pancreas_evidence
P18428	1	pancreas_evidence
Q9NPJ3-2	2	pancreas_evidence
H9KV70	3	pancreas_evidence
REV__D6RF03	1	pancreas_evidence
P07478	40	pancreas_evidence
B4DUI3	6	pancreas_evidence
Q9Y371	2	pancreas_evidence
E7EWW9	5	pancreas_evidence
E7ESZ7	5	pancreas_evidence
K7ENH2	2	pancreas_evidence
Q9HAB8	4	pancreas_evidence
B8ZZU8	5	pancreas_evidence
J3KNI1	5	pancreas_evidence
P04181	3	pancreas_evidence
Q9BY32-3	1	pancreas_evidence
Q06203	1	pancreas_evidence
B7Z685	1	pancreas_evidence
E9PN17	5	pancreas_evidence
Q13438-4	2	pancreas_evidence
O95810	8	pancreas_evidence
Q9Y639-1	2	pancreas_evidence
Q9UBR2	6	pancreas_evidence
Q7Z2W9	2	pancreas_evidence
P62736	4	pancreas_evidence
P37235	3	pancreas_evidence
P10620	4	pancreas_evidence
O00757	2	pancreas_evidence
P84090	2	pancreas_evidence
H7BXW7	2	pancreas_evidence
Q8IZQ5	3	pancreas_evidence
P46783	1	pancreas_evidence
P01031	3	pancreas_evidence
Q9UJX2-3	3	pancreas_evidence
P06702	8	pancreas_evidence
Q9BVP2-2	4	pancreas_evidence
H7BZH6	2	pancreas_evidence
P34931	1	pancreas_evidence
P62807	3	pancreas_evidence
REV__Q9UPA5	2	pancreas_evidence
K7EIJ0	1	pancreas_evidence
J3QT56	2	pancreas_evidence
P25789	7	pancreas_evidence
REV__Q0VF96	4	pancreas_evidence
E9PL10	3	pancreas_evidence
P14618-2	1	pancreas_evidence
C9J365	1	pancreas_evidence
E7EMB1	6	pancreas_evidence
E9PK08	1	pancreas_evidence
P43405-2	1	pancreas_evidence
F2Z357	5	pancreas_evidence
H0YDS9	2	pancreas_evidence
P08861	12	pancreas_evidence
C9JFV8	2	pancreas_evidence
Q5VXN0	2	pancreas_evidence
Q92575	1	pancreas_evidence
E7ETK0	7	pancreas_evidence
P17096-2	1	pancreas_evidence
Q5QPL9	10	pancreas_evidence
P62888	12	pancreas_evidence
P16104	2	pancreas_evidence
P16402	2	pancreas_evidence
S4R2Y4	3	pancreas_evidence
H3BU66	2	pancreas_evidence
P46199	3	pancreas_evidence
REV__B4DZB7	1	pancreas_evidence
O75947	8	pancreas_evidence
A6NP52	1	pancreas_evidence
J3KR97	2	pancreas_evidence
H0YBU8	1	pancreas_evidence
M0QXN5	1	pancreas_evidence
K7EPS6	2	pancreas_evidence
O00483	4	pancreas_evidence
B1AKD8	2	pancreas_evidence
Q9Y646	3	pancreas_evidence
H0YF29	2	pancreas_evidence
F5H2F9	1	pancreas_evidence
B7Z230	2	pancreas_evidence
H7C235	1	pancreas_evidence
Q5T7Y7	1	pancreas_evidence
P24534	9	pancreas_evidence
F5H7A2	2	pancreas_evidence
F5GX19	2	pancreas_evidence
Q92747	2	pancreas_evidence
E9PQP3	2	pancreas_evidence
P17677	1	pancreas_evidence
F8W681	1	pancreas_evidence
Q5T8U5	9	pancreas_evidence
Q8TDG2	1	pancreas_evidence
F5H5N1	4	pancreas_evidence
O43422	1	pancreas_evidence
REV__Q02742	3	pancreas_evidence
REV__H7C104	1	pancreas_evidence
Q9UN36-4	4	pancreas_evidence
E9PSH6	1	pancreas_evidence
E9PHK0	1	pancreas_evidence
Q08379-2	4	pancreas_evidence
Q9Y3A6	2	pancreas_evidence
Q8N5M1	2	pancreas_evidence
R4GMN9	1	pancreas_evidence
Q86Y39	2	pancreas_evidence
REV__E5RFT1	1	pancreas_evidence
G3V4C3	1	pancreas_evidence
R4GMX0	1	pancreas_evidence
Q9Y5A9-2	2	pancreas_evidence
D6RDK6	2	pancreas_evidence
H3BM14	4	pancreas_evidence
Q9NZJ4-2	2	pancreas_evidence
E7ETB3	10	pancreas_evidence
E7EU81	3	pancreas_evidence
Q9H307-2	5	pancreas_evidence
P83436	4	pancreas_evidence
E9PC28	2	pancreas_evidence
C9JHL4	2	pancreas_evidence
Q5TBH0	1	pancreas_evidence
G3V5X9	3	pancreas_evidence
K7EP07	3	pancreas_evidence
D6RE83	8	pancreas_evidence
E9PEE8	3	pancreas_evidence
REV__F8WCP2	1	pancreas_evidence
H7C585	1	pancreas_evidence
F8VQR7	4	pancreas_evidence
B4DG27	5	pancreas_evidence
P18754	4	pancreas_evidence
O43399	8	pancreas_evidence
REV__P0CB38	1	pancreas_evidence
Q6UXV4	1	pancreas_evidence
CON__Q3MHH8	6	pancreas_evidence
P21953	3	pancreas_evidence
O75828	1	pancreas_evidence
P51970	3	pancreas_evidence
C9JQ42	4	pancreas_evidence
Q9NRH3	1	pancreas_evidence
Q13547	4	pancreas_evidence
F5H0L8	2	pancreas_evidence
Q9H832-2	2	pancreas_evidence
O95298	3	pancreas_evidence
P08263	7	pancreas_evidence
Q9BZL1	1	pancreas_evidence
O96019-2	1	pancreas_evidence
Q8NEU8-2	2	pancreas_evidence
A6NKE1	1	pancreas_evidence
Q71U36-2	7	pancreas_evidence
REV__P31947-2	1	pancreas_evidence
Q5GLZ8-6	1	pancreas_evidence
K7ERC8	1	pancreas_evidence
P00846	1	pancreas_evidence
Q13247-3	9	pancreas_evidence
E9PK09	3	pancreas_evidence
B7Z8V7	4	pancreas_evidence
P56181-2	1	pancreas_evidence
P00403	8	pancreas_evidence
Q8WU76-2	1	pancreas_evidence
Q8WUY1	2	pancreas_evidence
P09871	5	pancreas_evidence
D6R9D6	2	pancreas_evidence
C9JNY7	4	pancreas_evidence
P01702	1	pancreas_evidence
Q9NUQ8-2	1	pancreas_evidence
REV__Q6UWU2-2	2	pancreas_evidence
Q9NQG5	1	pancreas_evidence
REV__H0Y7V6	3	pancreas_evidence
Q9H3N1	5	pancreas_evidence
REV__P17030-2	2	pancreas_evidence
O14745	3	pancreas_evidence
H3BSN4	2	pancreas_evidence
P26447	1	pancreas_evidence
J3KTH5	1	pancreas_evidence
E5RJE3	1	pancreas_evidence
Q5T760	1	pancreas_evidence
H7BZS7	2	pancreas_evidence
E7EN89	1	pancreas_evidence
P36404	2	pancreas_evidence
G3V153	4	pancreas_evidence
P11908	2	pancreas_evidence
Q86V21-2	4	pancreas_evidence
F8W822	1	pancreas_evidence
P14927	3	pancreas_evidence
Q15050	2	pancreas_evidence
Q02818	6	pancreas_evidence
Q9Y6A4	3	pancreas_evidence
J3QQY2	1	pancreas_evidence
E7EWS8	2	pancreas_evidence
P57053	7	pancreas_evidence
P17152	1	pancreas_evidence
G3V198	1	pancreas_evidence
Q86XP3	3	pancreas_evidence
F5H2D4	1	pancreas_evidence
J3KNP2	2	pancreas_evidence
H0YAD9	1	pancreas_evidence
B1B0M1	1	pancreas_evidence
Q9GZP4-2	1	pancreas_evidence
F5GWV7	2	pancreas_evidence
E7EU85	2	pancreas_evidence
H0YEM3	1	pancreas_evidence
Q92556-2	1	pancreas_evidence
Q9ULP9-2	2	pancreas_evidence
Q8NBJ4-2	1	pancreas_evidence
O00273	1	pancreas_evidence
Q70J99	1	pancreas_evidence
Q13813-2	2	pancreas_evidence
REV__Q8N0S2	1	pancreas_evidence
Q5R3B4	3	pancreas_evidence
P40222	2	pancreas_evidence
H3BQ48	1	pancreas_evidence
F5H1S9	1	pancreas_evidence
F8W9F8	1	pancreas_evidence
P01779	1	pancreas_evidence
F5GWV2	1	pancreas_evidence
Q8NCS4	1	pancreas_evidence
P52735-3	2	pancreas_evidence
Q8N490-2	1	pancreas_evidence
E7EV01	2	pancreas_evidence
H3BLV0	2	pancreas_evidence
Q9Y333	2	pancreas_evidence
F8WAM8	4	pancreas_evidence
B4DQ68	1	pancreas_evidence
G5E9W3	2	pancreas_evidence
Q9HCN8	3	pancreas_evidence
Q5H8X8	4	pancreas_evidence
C9JXK0	2	pancreas_evidence
Q6UW02	2	pancreas_evidence
O15355	2	pancreas_evidence
C9JEH7	1	pancreas_evidence
H7C599	1	pancreas_evidence
REV__P07942	1	pancreas_evidence
Q6NX52	2	pancreas_evidence
Q6IAN0	3	pancreas_evidence
O00178	1	pancreas_evidence
Q9BXW7-2	2	pancreas_evidence
H0YAF7	2	pancreas_evidence
H3BNT2	3	pancreas_evidence
M0QYG8	2	pancreas_evidence
CON__H-INV:HIT000292931	1	pancreas_evidence
P01116-2	4	pancreas_evidence
P55001-3	11	pancreas_evidence
M0R088	2	pancreas_evidence
O60216	2	pancreas_evidence
E9PPT8	1	pancreas_evidence
I3L1K7	1	pancreas_evidence
P60059	1	pancreas_evidence
P49961	3	pancreas_evidence
Q9Y5L4	2	pancreas_evidence
P51991-2	2	pancreas_evidence
Q3ZAQ7	1	pancreas_evidence
U3KQN9	1	pancreas_evidence
F5GY24	1	pancreas_evidence
Q9H0U4	2	pancreas_evidence
P20338	1	pancreas_evidence
Q9HAV0	1	pancreas_evidence
J3QSX4	3	pancreas_evidence
C9J9N5	1	pancreas_evidence
B3KY94	2	pancreas_evidence
P10599	4	pancreas_evidence
Q5STX8	1	pancreas_evidence
H0YL42	1	pancreas_evidence
K7EJH8	1	pancreas_evidence
I3L1S8	1	pancreas_evidence
G3V3I7	1	pancreas_evidence
P84085	1	pancreas_evidence
G3V556	1	pancreas_evidence
REV__H7C1I9	1	pancreas_evidence
Q9NY28	1	pancreas_evidence
O75663-2	1	pancreas_evidence
Q8NA78	1	pancreas_evidence
P61009	8	pancreas_evidence
Q86YA3-2	1	pancreas_evidence
Q5SZC9	1	pancreas_evidence
J3KT93	1	pancreas_evidence
G3V267	1	pancreas_evidence
Q96E17	1	pancreas_evidence
Q2M3C7-2	1	pancreas_evidence
P62316-2	1	pancreas_evidence
E7ERY9	4	pancreas_evidence
E5RIQ3	1	pancreas_evidence
D6R922	1	pancreas_evidence
C9JYI4	3	pancreas_evidence
Q93077	2	pancreas_evidence
E5RJR5	2	pancreas_evidence
P07711	1	pancreas_evidence
U3KQJ1	1	pancreas_evidence
REV__Q8TD57	2	pancreas_evidence
P15531	1	pancreas_evidence
Q06124-3	4	pancreas_evidence
CON__P08729	3	pancreas_evidence
Q53TN4-3	1	pancreas_evidence
Q9NVP1	4	pancreas_evidence
B8ZZT4	1	pancreas_evidence
U5GXS2	1	pancreas_evidence
E9PDH1	1	pancreas_evidence
Q5T4B6	4	pancreas_evidence
Q6UW15	4	pancreas_evidence
G3XAJ6	2	pancreas_evidence
P09913	1	pancreas_evidence
P01781	1	pancreas_evidence
Q16850-2	1	pancreas_evidence
H0YCY8	2	pancreas_evidence
Q9UNN5	2	pancreas_evidence
F5H135	2	pancreas_evidence
Q9NZJ7-2	2	pancreas_evidence
J3KS31	2	pancreas_evidence
Q7Z478	2	pancreas_evidence
Q68E01-4	1	pancreas_evidence
REV__P01712	4	pancreas_evidence
P33778	1	pancreas_evidence
Q9UFN0	2	pancreas_evidence
H3BUU9	1	pancreas_evidence
CON__Q28194	1	pancreas_evidence
REV__Q9BXL6-3	1	pancreas_evidence
C9JR27	2	pancreas_evidence
P06396	1	pancreas_evidence
C9JVE2	2	pancreas_evidence
C9JVU9	1	pancreas_evidence
Q6ZUT6-2	1	pancreas_evidence
P0C0L4-2	1	pancreas_evidence
A6NL93	2	pancreas_evidence
Q9BW30	2	pancreas_evidence
Q9Y5P4-2	1	pancreas_evidence
F8VVL1	1	pancreas_evidence
Q13813-3	4	pancreas_evidence
Q9BU23-3	2	pancreas_evidence
Q5VZR0	1	pancreas_evidence
P34096	2	pancreas_evidence
REV__F5GZ53	1	pancreas_evidence
G3V126	2	pancreas_evidence
Q9HBL7	1	pancreas_evidence
P53675-2	1	pancreas_evidence
B1AKZ5	2	pancreas_evidence
REV__P55199	2	pancreas_evidence
E9PB61	2	pancreas_evidence
Q15286	3	pancreas_evidence
P00995	2	pancreas_evidence
P62877	1	pancreas_evidence
P08246	6	pancreas_evidence
Q9Y3T9	2	pancreas_evidence
Q8WY22	3	pancreas_evidence
K7EJ05	1	pancreas_evidence
P20933	2	pancreas_evidence
REV__O95140-2	1	pancreas_evidence
REV__J3KNA1	2	pancreas_evidence
E9PAU2	3	pancreas_evidence
P15104	2	pancreas_evidence
Q5SRQ6	3	pancreas_evidence
Q8TB36-2	1	pancreas_evidence
B9ZVT1	1	pancreas_evidence
Q96S66-4	1	pancreas_evidence
Q9UBI6	3	pancreas_evidence
P42167-2	1	pancreas_evidence
REV__H0Y547	3	pancreas_evidence
Q86TS6	1	pancreas_evidence
P36969-2	4	pancreas_evidence
E9PD68	1	pancreas_evidence
REV__Q2TAY7	1	pancreas_evidence
P61278	1	pancreas_evidence
Q8TEA8	1	pancreas_evidence
REV__F8WDW6	1	pancreas_evidence
O95197-3	5	pancreas_evidence
Q96SI9-2	1	pancreas_evidence
Q8NDC0	1	pancreas_evidence
H0YLL8	2	pancreas_evidence
B8ZZJ0	3	pancreas_evidence
H7C218	1	pancreas_evidence
Q9UMY4-3	1	pancreas_evidence
P27216	1	pancreas_evidence
H7BZJ3	3	pancreas_evidence
P01743	2	pancreas_evidence
J3QST3	3	pancreas_evidence
R4GN83	1	pancreas_evidence
Q15124	1	pancreas_evidence
Q99598	2	pancreas_evidence
Q6P587	1	pancreas_evidence
K7EL21	1	pancreas_evidence
F8VW28	1	pancreas_evidence
Q5VV89	3	pancreas_evidence
F5H324	5	pancreas_evidence
Q9UKV8	1	pancreas_evidence
C9K0W5	1	pancreas_evidence
H0YJV7	1	pancreas_evidence
Q5SY16	1	pancreas_evidence
P49790	1	pancreas_evidence
D6R9Z7	2	pancreas_evidence
Q9Y223-4	2	pancreas_evidence
P00492	7	pancreas_evidence
K7EIN4	1	pancreas_evidence
Q8TBQ9	2	pancreas_evidence
Q5TD05	1	pancreas_evidence
Q99584	2	pancreas_evidence
P51857-2	1	pancreas_evidence
Q8IWE2	3	pancreas_evidence
REV__R4GN76	1	pancreas_evidence
REV__C9JZQ8	1	pancreas_evidence
Q712K3	1	pancreas_evidence
P55160	1	pancreas_evidence
P0CG37	1	pancreas_evidence
K7ES69	2	pancreas_evidence
Q9NRP0	2	pancreas_evidence
Q9H329-2	1	pancreas_evidence
K7ESP6	1	pancreas_evidence
F5H875	2	pancreas_evidence
B5TY33	1	pancreas_evidence
P04080	14	pancreas_evidence
G3V1B6	1	pancreas_evidence
E7EUM5	1	pancreas_evidence
D6RAW0	3	pancreas_evidence
B4E220	6	pancreas_evidence
Q9BPX5	1	pancreas_evidence
P03950	1	pancreas_evidence
Q8TF72	8	pancreas_evidence
Q13542	1	pancreas_evidence
H0YBR2	2	pancreas_evidence
P01859	9	pancreas_evidence
P52306-6	1	pancreas_evidence
H7C5G1	2	pancreas_evidence
Q96HJ9	1	pancreas_evidence
P02545-2	4	pancreas_evidence
J3KP15	11	pancreas_evidence
S4R400	1	pancreas_evidence
Q9UQ35	5	pancreas_evidence
P14854	2	pancreas_evidence
Q8WUH6	2	pancreas_evidence
H0Y4X3	4	pancreas_evidence
E7EW33	1	pancreas_evidence
P01771	1	pancreas_evidence
H7BZT4	1	pancreas_evidence
P09132	1	pancreas_evidence
P54710	1	pancreas_evidence
C9JYQ9	3	pancreas_evidence
P20292	3	pancreas_evidence
C9JDR0	1	pancreas_evidence
P10316	1	pancreas_evidence
P04150-7	1	pancreas_evidence
A2AEA2	4	pancreas_evidence
Q8NFH3	1	pancreas_evidence
P06213-2	3	pancreas_evidence
F8WAZ6	1	pancreas_evidence
F8VXU5	4	pancreas_evidence
Q5JVC1	1	pancreas_evidence
C9JIX5	1	pancreas_evidence
B4DP57	1	pancreas_evidence
Q96JK9	2	pancreas_evidence
E9PCV6	21	pancreas_evidence
Q9H3K6	1	pancreas_evidence
R4GMW7	1	pancreas_evidence
B9A035	1	pancreas_evidence
H3BQF7	1	pancreas_evidence
F5H8D7	1	pancreas_evidence
F8W9E7	1	pancreas_evidence
F5H367	1	pancreas_evidence
P51397	2	pancreas_evidence
C9JAS4	1	pancreas_evidence
E9PF16	2	pancreas_evidence
H3BMT0	1	pancreas_evidence
O95456-2	1	pancreas_evidence
B4DP17	2	pancreas_evidence
K7EMM8	1	pancreas_evidence
G3V4X8	1	pancreas_evidence
E7ESJ7	1	pancreas_evidence
Q5TAL2	2	pancreas_evidence
Q12882	1	pancreas_evidence
U3KQ30	1	pancreas_evidence
C9JYN0	2	pancreas_evidence
H0Y5J4	1	pancreas_evidence
Q9H5X1	1	pancreas_evidence
J3KQ48	1	pancreas_evidence
B5MCT7	1	pancreas_evidence
Q9HB40-2	2	pancreas_evidence
H0YEN6	1	pancreas_evidence
S4R468	1	pancreas_evidence
Q15274	1	pancreas_evidence
Q562R1	9	pancreas_evidence
Q6S8J3	3	pancreas_evidence
REV__B1AKB5	1	pancreas_evidence
Q5VT94	1	pancreas_evidence
H0Y8N7	1	pancreas_evidence
J3QR51	1	pancreas_evidence
Q9Y3C6	1	pancreas_evidence
B4DQ51	2	pancreas_evidence
CON__Q3SX09	1	pancreas_evidence
F8VTY2	1	pancreas_evidence
Q9H1E5	2	pancreas_evidence
C9J282	1	pancreas_evidence
H7C1W5	1	pancreas_evidence
Q9UN86-2	2	pancreas_evidence
G3V5E4	2	pancreas_evidence
Q8NFC6	1	pancreas_evidence
P17066	15	pancreas_evidence
B4DRF4	1	pancreas_evidence
Q9UBB4-2	1	pancreas_evidence
O75683	1	pancreas_evidence
Q5T447	1	pancreas_evidence
Q6ZRH9	2	pancreas_evidence
P36507	2	pancreas_evidence
CON__P01966	1	pancreas_evidence
Q9Y3B4	2	pancreas_evidence
Q9P0S9	4	pancreas_evidence
F5H2T0	1	pancreas_evidence
CON__ENSEMBL:ENSBTAP00000024466	2	pancreas_evidence
M0R3G6	1	pancreas_evidence
D6RBT3	2	pancreas_evidence
G8JLK9	1	pancreas_evidence
A8K4G3	1	pancreas_evidence
P48059	2	pancreas_evidence
CON__P19012	2	pancreas_evidence
Q9NP90	1	pancreas_evidence
H7BYR4	1	pancreas_evidence
P48723	1	pancreas_evidence
K7ER17	1	pancreas_evidence
P62834	1	pancreas_evidence
H7BZW6	1	pancreas_evidence
P50552	1	pancreas_evidence
F5H456	4	pancreas_evidence
D6RJ96	1	pancreas_evidence
REV__F5H617	1	pancreas_evidence
Q8N9W5-5	2	pancreas_evidence
O00170	1	pancreas_evidence
J3KT38	1	pancreas_evidence
H0Y815	1	pancreas_evidence
B0QY02	1	pancreas_evidence
Q05193-5	1	pancreas_evidence
Q5TIH2	1	pancreas_evidence
P31947-2	3	pancreas_evidence
M0R208	1	pancreas_evidence
Q5HYI8	2	pancreas_evidence
C9J7P5	1	pancreas_evidence
D6RDJ3	1	pancreas_evidence
P42025	1	pancreas_evidence
H0YAK9	1	pancreas_evidence
P62304	1	pancreas_evidence
H0YMF9	1	pancreas_evidence
Q5W111-2	1	pancreas_evidence
A6NKZ9	1	pancreas_evidence
REV__Q58A45-4	1	pancreas_evidence
M0R116	1	pancreas_evidence
Q7Z434-4	1	pancreas_evidence
E7ETY4	2	pancreas_evidence
P10109	2	pancreas_evidence
Q96E11-8	1	pancreas_evidence
Q5SZR1	1	pancreas_evidence
Q9Y3L5	1	pancreas_evidence
E7EWE1	2	pancreas_evidence
Q9Y6W3	1	pancreas_evidence
E9PG39	1	pancreas_evidence
P32456	1	pancreas_evidence
B7ZKW8	1	pancreas_evidence
A0RZB6	1	pancreas_evidence
CON__P05784	1	pancreas_evidence
Q14697	1	pancreas_evidence
K7EMZ9	1	pancreas_evidence
Q08554-2	2	pancreas_evidence
I3L2R6	2	pancreas_evidence
H7C046	2	pancreas_evidence
Q5R3E4	1	pancreas_evidence
A0M8Q6	2	pancreas_evidence
Q969L2	2	pancreas_evidence
O75830	1	pancreas_evidence
E7ERH1	1	pancreas_evidence
Q9Y4G6	2	pancreas_evidence
Q9HD33-3	1	pancreas_evidence
Q9UDY2-5	1	pancreas_evidence
K7ESN3	1	pancreas_evidence
B4DFG6	1	pancreas_evidence
E9PFG1	1	pancreas_evidence
H7C2W1	1	pancreas_evidence
P35625	1	pancreas_evidence
C9JBL1	3	pancreas_evidence
Q15113	1	pancreas_evidence
Q9UBG0	1	pancreas_evidence
E5RFZ8	2	pancreas_evidence
Q8IXM3	1	pancreas_evidence
J3KPW7	1	pancreas_evidence
E9PGE5	1	pancreas_evidence
Q15819	2	pancreas_evidence
B4DI16	1	pancreas_evidence
Q6UWP7-3	1	pancreas_evidence
D3DR31	1	pancreas_evidence
H0YGS3	1	pancreas_evidence
