"","percentages"
"1",78.8105915974857
"2",15.3163913780286
"3",4.01698316790993
"4",1.06864705850813
"5",0.43513729947886
"6",0.133762238803287
"7",0.0830455021855823
"8",0.0336061460610474
"9",0.0198624781623131
"10",0.0103846303055841
"11",0.0113308380783025
"12",0.00783775438401716
"13",0.00519625768517838
"14",0.0047389239283645
"15",0.0137673230930523
"16",0.00533818885108614
"17",0.00328807201019633
"18",0.00343000317610409
"19",0.00329595707496899
"20",0.013365184789647
