ENST00000431419
ENST00000613734
ENST00000613734
ENST00000613734
ENST00000613734
ENST00000613734
ENST00000613734
ENST00000613734
ENST00000613734
ENST00000613734
ENST00000613734
ENST00000613734
ENST00000613734
ENST00000328585
ENST00000627526
ENST00000627526
ENST00000627526
ENST00000627526
ENST00000627526
ENST00000627526
ENST00000627526
ENST00000627526
ENST00000627526
ENST00000627526
ENST00000627526
ENST00000627526
ENST00000627526
ENST00000627526
ENST00000627526
ENST00000627526
ENST00000627526
ENST00000627526
ENST00000627526
ENST00000627526
ENST00000627526
ENST00000627526
ENST00000627526
ENST00000627526
ENST00000627526
ENST00000627526
ENST00000627526
ENST00000627526
ENST00000627526
ENST00000627526
ENST00000538148
ENST00000538148
ENST00000538148
ENST00000538148
ENST00000538148
ENST00000538148
ENST00000538148
ENST00000538148
ENST00000538148
ENST00000538148
ENST00000538148
ENST00000538148
ENST00000538148
ENST00000538148
ENST00000538148
ENST00000538148
ENST00000538148
ENST00000538148
ENST00000538148
ENST00000538148
ENST00000538148
ENST00000538148
ENST00000538148
ENST00000538148
ENST00000538148
ENST00000538148
ENST00000538148
ENST00000538148
ENST00000538148
ENST00000538148
ENST00000538148
ENST00000538148
ENST00000538148
ENST00000538148
ENST00000538148
ENST00000538148
ENST00000538148
ENST00000538148
ENST00000538148
ENST00000538148
ENST00000538148
ENST00000538148
ENST00000538148
ENST00000538148
ENST00000538148
ENST00000538148
ENST00000538148
ENST00000538148
ENST00000538148
ENST00000538148
ENST00000538148
ENST00000538148
ENST00000538148
ENST00000538148
ENST00000538148
ENST00000538148
ENST00000538148
ENST00000538148
ENST00000536030
ENST00000536030
ENST00000536030
ENST00000536030
ENST00000536030
ENST00000536030
ENST00000536030
ENST00000536030
ENST00000536030
ENST00000536030
ENST00000536030
ENST00000536030
ENST00000536030
ENST00000536030
ENST00000536030
ENST00000536030
ENST00000536030
ENST00000536030
ENST00000536030
ENST00000536030
ENST00000536030
ENST00000536030
ENST00000536030
ENST00000536030
ENST00000536030
ENST00000536030
ENST00000536030
ENST00000536030
ENST00000536030
ENST00000536030
ENST00000536030
ENST00000536030
ENST00000536030
ENST00000536030
ENST00000536030
ENST00000536030
ENST00000536030
ENST00000536030
ENST00000536030
ENST00000536030
ENST00000536030
ENST00000536030
ENST00000536030
ENST00000536030
ENST00000536030
ENST00000536030
ENST00000536030
ENST00000536030
ENST00000536030
ENST00000536030
ENST00000536030
ENST00000536030
ENST00000536030
ENST00000536030
ENST00000536030
ENST00000536030
ENST00000536030
ENST00000536030
ENST00000536030
ENST00000536030
ENST00000536030
ENST00000536030
ENST00000536030
ENST00000536030
ENST00000536030
ENST00000394887
ENST00000394887
ENST00000394887
ENST00000394887
ENST00000394887
ENST00000394887
ENST00000394887
ENST00000394887
ENST00000394887
ENST00000394887
ENST00000394887
ENST00000394887
ENST00000394887
ENST00000394887
ENST00000394887
ENST00000394887
ENST00000394887
ENST00000394887
ENST00000394887
ENST00000394887
ENST00000394887
ENST00000394887
ENST00000394887
ENST00000394887
ENST00000394887
ENST00000394887
ENST00000394887
ENST00000394887
ENST00000394887
ENST00000394887
ENST00000394887
ENST00000394887
ENST00000394887
ENST00000394887
ENST00000394887
ENST00000394887
ENST00000394887
ENST00000394887
ENST00000394887
ENST00000394887
ENST00000394887
ENST00000394887
ENST00000394887
ENST00000394887
ENST00000394887
ENST00000394887
ENST00000394887
ENST00000394887
ENST00000394887
ENST00000394887
ENST00000394887
ENST00000394887
ENST00000394887
ENST00000394887
ENST00000394887
ENST00000394887
ENST00000394887
ENST00000394887
ENST00000394887
ENST00000394887
ENST00000394887
ENST00000394887
ENST00000394887
ENST00000394887
ENST00000394887
ENST00000394887
ENST00000394887
ENST00000394887
ENST00000394887
ENST00000394887
ENST00000394887
ENST00000394887
ENST00000394887
ENST00000394887
ENST00000394887
ENST00000394887
ENST00000394887
ENST00000394887
ENST00000394887
ENST00000394887
ENST00000394887
ENST00000394887
ENST00000394887
ENST00000394887
ENST00000394887
ENST00000394887
ENST00000394887
ENST00000394887
ENST00000394887
ENST00000394887
ENST00000394887
ENST00000394887
ENST00000394887
ENST00000394887
ENST00000394887
ENST00000394887
ENST00000394887
ENST00000394887
ENST00000394887
ENST00000394887
ENST00000394887
ENST00000394887
ENST00000394887
ENST00000394887
ENST00000394887
ENST00000394887
ENST00000394887
ENST00000394887
ENST00000394887
ENST00000394887
ENST00000394887
ENST00000394887
ENST00000394887
ENST00000394887
ENST00000394887
ENST00000394887
ENST00000394887
ENST00000394887
ENST00000394887
ENST00000394887
ENST00000394887
ENST00000394887
ENST00000394887
ENST00000394887
ENST00000394887
ENST00000394887
ENST00000394887
ENST00000394887
ENST00000394887
ENST00000394887
ENST00000394887
ENST00000394887
ENST00000394887
ENST00000394887
ENST00000394887
ENST00000394887
ENST00000394887
ENST00000394887
ENST00000394887
ENST00000394887
ENST00000394887
ENST00000394887
ENST00000394887
ENST00000394887
ENST00000394887
ENST00000394887
ENST00000394887
ENST00000394887
ENST00000394887
ENST00000394887
ENST00000394887
ENST00000394887
ENST00000394887
ENST00000394887
ENST00000394887
ENST00000394887
ENST00000394887
ENST00000394887
ENST00000394887
ENST00000394887
ENST00000394887
ENST00000394887
ENST00000394887
ENST00000394887
ENST00000394887
ENST00000394887
ENST00000394887
ENST00000394887
ENST00000394887
ENST00000394887
ENST00000394887
ENST00000394887
ENST00000394887
ENST00000394887
ENST00000394887
ENST00000394887
ENST00000394887
ENST00000394887
ENST00000394887
ENST00000394887
ENST00000394887
ENST00000394887
ENST00000394887
ENST00000394887
ENST00000394887
ENST00000394887
ENST00000394887
ENST00000394887
ENST00000394887
ENST00000394887
ENST00000394887
ENST00000394887
ENST00000394887
ENST00000394887
ENST00000394887
ENST00000394887
ENST00000394887
ENST00000394887
ENST00000394887
ENST00000394887
ENST00000394887
ENST00000394887
ENST00000394887
ENST00000394887
ENST00000394887
ENST00000394887
ENST00000394887
ENST00000394887
ENST00000394887
ENST00000394887
ENST00000394887
ENST00000394887
ENST00000394887
ENST00000394887
ENST00000394887
ENST00000394887
ENST00000394887
ENST00000394887
ENST00000394887
ENST00000394887
ENST00000394887
ENST00000394887
ENST00000394887
ENST00000394887
ENST00000394887
ENST00000394887
ENST00000394887
ENST00000394887
ENST00000394887
ENST00000394887
ENST00000394887
ENST00000394887
ENST00000394887
ENST00000394887
ENST00000394887
ENST00000394887
ENST00000394887
ENST00000394887
ENST00000394887
ENST00000394887
ENST00000394887
ENST00000394887
ENST00000394887
ENST00000394887
ENST00000394887
ENST00000394887
ENST00000394887
ENST00000394887
ENST00000394887
ENST00000394887
ENST00000394887
ENST00000394887
ENST00000394887
ENST00000394887
ENST00000394887
ENST00000394887
ENST00000394887
ENST00000394887
ENST00000394887
ENST00000394887
ENST00000394887
ENST00000394887
ENST00000394887
ENST00000394887
ENST00000394887
ENST00000394887
ENST00000394887
ENST00000394887
ENST00000394887
ENST00000394887
ENST00000394887
ENST00000394887
ENST00000394887
ENST00000394887
ENST00000394887
ENST00000394887
ENST00000394887
ENST00000394887
ENST00000394887
ENST00000394887
ENST00000394887
ENST00000394887
ENST00000394887
ENST00000394887
ENST00000394887
ENST00000394887
ENST00000394887
ENST00000394887
ENST00000394887
ENST00000394887
ENST00000394887
ENST00000394887
ENST00000394887
ENST00000394887
ENST00000394887
ENST00000394887
ENST00000394887
ENST00000394887
ENST00000394887
ENST00000394887
ENST00000394887
ENST00000394887
ENST00000394887
ENST00000394887
ENST00000394887
ENST00000394887
ENST00000394887
ENST00000394887
ENST00000394887
ENST00000394887
ENST00000394887
ENST00000394887
ENST00000394887
ENST00000394887
ENST00000394887
ENST00000394887
ENST00000394887
ENST00000394887
ENST00000394887
ENST00000394887
ENST00000394887
ENST00000394887
ENST00000394887
ENST00000394887
ENST00000394887
ENST00000394887
ENST00000394887
ENST00000394887
ENST00000394887
ENST00000394887
ENST00000394887
ENST00000394887
ENST00000394887
ENST00000394887
ENST00000394887
ENST00000394887
ENST00000394887
ENST00000394887
ENST00000394887
ENST00000394887
ENST00000394887
ENST00000394887
ENST00000394887
ENST00000394887
ENST00000394887
ENST00000394887
ENST00000394887
ENST00000394887
ENST00000394887
ENST00000394887
ENST00000394887
ENST00000394887
ENST00000394887
ENST00000394887
ENST00000394887
ENST00000394887
ENST00000394887
ENST00000394887
ENST00000394887
ENST00000394887
ENST00000394887
ENST00000394887
ENST00000394887
ENST00000394887
ENST00000394887
ENST00000394887
ENST00000394887
ENST00000394887
ENST00000394887
ENST00000394887
ENST00000394887
ENST00000394887
ENST00000394887
ENST00000394887
ENST00000394887
ENST00000394887
ENST00000394887
ENST00000394887
ENST00000394887
ENST00000394887
ENST00000394887
ENST00000394887
ENST00000394887
ENST00000394887
ENST00000394887
ENST00000394887
ENST00000394887
ENST00000394887
ENST00000394887
ENST00000394887
ENST00000394887
ENST00000394887
ENST00000394887
ENST00000394887
ENST00000394887
ENST00000394887
ENST00000394887
ENST00000394887
ENST00000394887
ENST00000394887
ENST00000394887
ENST00000394887
ENST00000394887
ENST00000394887
ENST00000394887
ENST00000394887
ENST00000394887
ENST00000394887
ENST00000394887
ENST00000394887
ENST00000394887
ENST00000394887
ENST00000394887
ENST00000394887
ENST00000394887
ENST00000394887
ENST00000394887
ENST00000394887
ENST00000394887
ENST00000394887
ENST00000394887
ENST00000394887
ENST00000394887
ENST00000394887
ENST00000394887
ENST00000394887
ENST00000394887
ENST00000394887
ENST00000394887
ENST00000394887
ENST00000394887
ENST00000394887
ENST00000394887
ENST00000394887
ENST00000394887
ENST00000394887
ENST00000394887
ENST00000394887
ENST00000394887
ENST00000394887
ENST00000394887
ENST00000394887
ENST00000394887
ENST00000394887
ENST00000394887
ENST00000394887
ENST00000394887
ENST00000394887
ENST00000394887
ENST00000394887
ENST00000394887
ENST00000394887
ENST00000394887
ENST00000394887
ENST00000394887
ENST00000394887
ENST00000394887
ENST00000394887
ENST00000394887
ENST00000394887
ENST00000394887
ENST00000394887
ENST00000394887
ENST00000394887
ENST00000394887
ENST00000394887
ENST00000394887
ENST00000394887
ENST00000394887
ENST00000394887
ENST00000394887
ENST00000394887
ENST00000394887
ENST00000394887
ENST00000394887
ENST00000394887
ENST00000394887
ENST00000394887
ENST00000394887
ENST00000394887
ENST00000394887
ENST00000394887
ENST00000394887
ENST00000394887
ENST00000394887
ENST00000394887
ENST00000394887
ENST00000394887
ENST00000394887
ENST00000394887
ENST00000394887
ENST00000394887
ENST00000394887
ENST00000394887
ENST00000394887
ENST00000394887
ENST00000394887
ENST00000394887
ENST00000394887
ENST00000394887
ENST00000394887
ENST00000394887
ENST00000394887
ENST00000394887
ENST00000394887
ENST00000394887
ENST00000394887
ENST00000394887
ENST00000394887
ENST00000394887
ENST00000394887
ENST00000394887
ENST00000394887
ENST00000394887
ENST00000394887
ENST00000394887
ENST00000394887
ENST00000394887
ENST00000394887
ENST00000394887
ENST00000394887
ENST00000394887
ENST00000394887
ENST00000394887
ENST00000394887
ENST00000394887
ENST00000394887
ENST00000394887
ENST00000394887
ENST00000394887
ENST00000394887
ENST00000394887
ENST00000394887
ENST00000394887
ENST00000394887
ENST00000394887
ENST00000394887
ENST00000394887
ENST00000394887
ENST00000394887
ENST00000394887
ENST00000394887
ENST00000394887
ENST00000394887
ENST00000394887
ENST00000394887
ENST00000394887
ENST00000394887
ENST00000394887
