ENST00000538148
ENST00000538148
ENST00000538148
ENST00000538148
ENST00000538148
ENST00000538148
ENST00000538148
ENST00000538148
ENST00000538148
ENST00000538148
ENST00000538148
ENST00000538148
ENST00000538148
ENST00000538148
ENST00000538148
ENST00000538148
ENST00000538148
ENST00000538148
ENST00000538148
ENST00000538148
ENST00000538148
ENST00000538148
ENST00000538148
ENST00000538148
ENST00000538148
ENST00000538148
ENST00000538148
ENST00000538148
ENST00000538148
ENST00000538148
ENST00000538148
ENST00000538148
ENST00000538148
ENST00000538148
ENST00000538148
ENST00000538148
ENST00000538148
ENST00000538148
ENST00000538148
ENST00000538148
ENST00000538148
ENST00000538148
ENST00000538148
ENST00000538148
ENST00000538148
ENST00000538148
ENST00000538148
ENST00000538148
ENST00000538148
ENST00000538148
ENST00000538148
ENST00000538148
ENST00000538148
ENST00000538148
ENST00000538148
ENST00000538148
ENST00000538148
ENST00000538148
ENST00000538148
ENST00000538148
ENST00000562438
ENST00000562438
ENST00000562438
ENST00000562438
ENST00000562438
ENST00000562438
ENST00000562438
ENST00000562438
ENST00000562438
ENST00000547522
ENST00000547522
ENST00000547522
ENST00000547522
ENST00000547522
ENST00000547522
ENST00000547522
ENST00000547522
ENST00000547522
ENST00000547522
ENST00000547522
ENST00000547522
ENST00000547522
ENST00000547522
ENST00000547522
ENST00000547522
ENST00000547522
ENST00000547522
ENST00000547522
ENST00000547522
ENST00000547522
ENST00000547522
ENST00000547522
ENST00000547522
ENST00000547522
ENST00000547522
ENST00000547522
ENST00000547522
ENST00000547522
ENST00000547522
ENST00000547522
ENST00000547522
ENST00000547522
ENST00000547522
ENST00000547522
ENST00000547522
ENST00000547522
ENST00000547522
ENST00000627526
ENST00000627526
ENST00000627526
ENST00000627526
ENST00000627526
ENST00000394887
ENST00000394887
ENST00000394887
ENST00000394887
ENST00000394887
ENST00000394887
ENST00000394887
ENST00000394887
ENST00000394887
ENST00000394887
ENST00000394887
ENST00000394887
ENST00000394887
ENST00000394887
ENST00000394887
ENST00000394887
ENST00000394887
ENST00000394887
ENST00000394887
ENST00000394887
ENST00000394887
ENST00000394887
ENST00000394887
ENST00000394887
ENST00000394887
ENST00000394887
ENST00000394887
ENST00000394887
ENST00000394887
ENST00000394887
ENST00000394887
ENST00000394887
ENST00000394887
ENST00000394887
ENST00000394887
ENST00000394887
ENST00000394887
ENST00000394887
ENST00000394887
ENST00000394887
ENST00000394887
ENST00000394887
ENST00000394887
ENST00000394887
ENST00000394887
ENST00000394887
ENST00000394887
ENST00000394887
ENST00000394887
ENST00000394887
ENST00000394887
ENST00000394887
ENST00000394887
ENST00000394887
ENST00000394887
ENST00000394887
ENST00000394887
ENST00000394887
ENST00000394887
ENST00000394887
ENST00000394887
ENST00000394887
ENST00000394887
ENST00000394887
ENST00000394887
ENST00000394887
ENST00000394887
ENST00000394887
ENST00000394887
ENST00000394887
ENST00000394887
ENST00000394887
ENST00000394887
ENST00000394887
ENST00000394887
ENST00000394887
ENST00000394887
ENST00000394887
ENST00000394887
ENST00000394887
ENST00000394887
ENST00000394887
ENST00000394887
ENST00000394887
ENST00000394887
ENST00000394887
ENST00000394887
ENST00000394887
ENST00000394887
ENST00000394887
ENST00000394887
ENST00000394887
ENST00000394887
ENST00000394887
ENST00000394887
ENST00000394887
ENST00000394887
ENST00000394887
ENST00000394887
ENST00000394887
ENST00000394887
ENST00000394887
ENST00000394887
ENST00000394887
ENST00000394887
ENST00000394887
ENST00000394887
ENST00000394887
ENST00000394887
ENST00000394887
ENST00000394887
ENST00000394887
ENST00000394887
ENST00000394887
ENST00000394887
ENST00000394887
ENST00000394887
ENST00000394887
ENST00000394887
ENST00000394887
ENST00000394887
ENST00000394887
ENST00000394887
ENST00000394887
ENST00000394887
ENST00000394887
ENST00000394887
ENST00000394887
ENST00000394887
ENST00000394887
ENST00000394887
ENST00000394887
ENST00000394887
ENST00000394887
ENST00000394887
ENST00000394887
ENST00000394887
ENST00000394887
ENST00000394887
ENST00000394887
ENST00000394887
ENST00000394887
ENST00000394887
ENST00000394887
ENST00000394887
ENST00000394887
ENST00000394887
ENST00000394887
ENST00000394887
ENST00000394887
ENST00000394887
ENST00000394887
ENST00000394887
ENST00000394887
ENST00000394887
ENST00000394887
ENST00000448801
ENST00000316878
ENST00000316878
ENST00000431419
ENST00000613734
ENST00000613734
ENST00000613734
ENST00000613734
ENST00000613734
ENST00000613734
ENST00000613734
ENST00000613734
ENST00000613734
ENST00000613734
ENST00000613734
ENST00000613734
ENST00000613734
ENST00000613734
ENST00000613734
ENST00000613734
ENST00000613734
ENST00000613734
ENST00000613734
ENST00000613734
ENST00000613734
ENST00000613734
ENST00000613734
ENST00000613734
ENST00000613734
ENST00000613734
ENST00000613734
ENST00000613734
ENST00000613734
ENST00000613734
ENST00000613734
ENST00000613734
ENST00000613734
ENST00000613734
ENST00000613734
ENST00000613734
ENST00000613734
ENST00000613734
ENST00000613734
ENST00000613734
ENST00000613734
ENST00000613734
ENST00000613734
ENST00000613734
ENST00000613734
ENST00000613734
ENST00000613734
ENST00000613734
ENST00000613734
ENST00000613734
ENST00000613734
ENST00000613734
ENST00000613734
ENST00000613734
ENST00000613734
ENST00000613734
ENST00000613734
ENST00000613734
ENST00000613734
ENST00000613734
ENST00000613734
ENST00000613734
ENST00000613734
ENST00000613734
ENST00000613734
ENST00000613734
ENST00000613734
ENST00000613734
ENST00000613734
ENST00000613734
ENST00000613734
ENST00000613734
ENST00000613734
ENST00000613734
ENST00000613734
ENST00000613734
ENST00000613734
ENST00000613734
ENST00000613734
ENST00000613734
ENST00000613734
ENST00000613734
ENST00000613734
ENST00000613734
ENST00000613734
ENST00000613734
ENST00000613734
ENST00000613734
ENST00000613734
ENST00000613734
ENST00000613734
ENST00000613734
ENST00000613734
ENST00000613734
ENST00000613734
ENST00000613734
ENST00000613734
ENST00000613734
ENST00000613734
ENST00000613734
ENST00000613734
ENST00000613734
ENST00000613734
ENST00000613734
ENST00000613734
ENST00000613734
ENST00000613734
ENST00000613734
ENST00000613734
ENST00000613734
ENST00000613734
ENST00000613734
ENST00000613734
ENST00000613734
ENST00000613734
ENST00000613734
ENST00000613734
ENST00000613734
ENST00000613734
ENST00000613734
ENST00000613734
ENST00000613734
ENST00000613734
ENST00000613734
ENST00000613734
ENST00000613734
ENST00000613734
ENST00000613734
ENST00000613734
ENST00000613734
ENST00000613734
ENST00000613734
ENST00000613734
ENST00000613734
ENST00000613734
ENST00000613734
ENST00000613734
ENST00000613734
ENST00000613734
ENST00000613734
ENST00000613734
ENST00000613734
ENST00000613734
ENST00000613734
ENST00000613734
ENST00000613734
ENST00000613734
ENST00000613734
ENST00000613734
ENST00000613734
ENST00000613734
ENST00000613734
ENST00000613734
ENST00000613734
ENST00000613734
ENST00000613734
ENST00000613734
ENST00000613734
ENST00000613734
ENST00000613734
ENST00000613734
ENST00000613734
ENST00000613734
ENST00000613734
ENST00000613734
ENST00000613734
ENST00000613734
ENST00000613734
ENST00000548255
ENST00000548255
ENST00000548255
ENST00000548255
